{
    "class_name": "Sequential",
    "config": {
        "name": "sequential_4",
        "layers": [
            {
                "class_name": "Conv2D",
                "config": {
                    "name": "conv2d_12",
                    "trainable": true,
                    "batch_input_shape": [
                        null,
                        32,
                        32,
                        3
                    ],
                    "dtype": "float32",
                    "filters": 32,
                    "kernel_size": [
                        3,
                        3
                    ],
                    "strides": [
                        1,
                        1
                    ],
                    "padding": "valid",
                    "data_format": "channels_last",
                    "dilation_rate": [
                        1,
                        1
                    ],
                    "activation": "relu",
                    "use_bias": true,
                    "kernel_initializer": {
                        "class_name": "GlorotUniform",
                        "config": {
                            "seed": null
                        }
                    },
                    "bias_initializer": {
                        "class_name": "Zeros",
                        "config": {}
                    },
                    "kernel_regularizer": null,
                    "bias_regularizer": null,
                    "activity_regularizer": null,
                    "kernel_constraint": null,
                    "bias_constraint": null
                }
            },
            {
                "class_name": "BatchNormalization",
                "config": {
                    "name": "batch_normalization",
                    "trainable": true,
                    "dtype": "float32",
                    "axis": [
                        3
                    ],
                    "momentum": 0.99,
                    "epsilon": 0.001,
                    "center": true,
                    "scale": true,
                    "beta_initializer": {
                        "class_name": "Zeros",
                        "config": {}
                    },
                    "gamma_initializer": {
                        "class_name": "Ones",
                        "config": {}
                    },
                    "moving_mean_initializer": {
                        "class_name": "Zeros",
                        "config": {}
                    },
                    "moving_variance_initializer": {
                        "class_name": "Ones",
                        "config": {}
                    },
                    "beta_regularizer": null,
                    "gamma_regularizer": null,
                    "beta_constraint": null,
                    "gamma_constraint": null
                }
            },
            {
                "class_name": "Dropout",
                "config": {
                    "name": "dropout_3",
                    "trainable": true,
                    "dtype": "float32",
                    "rate": 0.25,
                    "noise_shape": null,
                    "seed": null
                }
            },
            {
                "class_name": "MaxPooling2D",
                "config": {
                    "name": "max_pooling2d_8",
                    "trainable": true,
                    "dtype": "float32",
                    "pool_size": [
                        2,
                        2
                    ],
                    "padding": "valid",
                    "strides": [
                        2,
                        2
                    ],
                    "data_format": "channels_last"
                }
            },
            {
                "class_name": "Conv2D",
                "config": {
                    "name": "conv2d_13",
                    "trainable": true,
                    "dtype": "float32",
                    "filters": 64,
                    "kernel_size": [
                        3,
                        3
                    ],
                    "strides": [
                        1,
                        1
                    ],
                    "padding": "valid",
                    "data_format": "channels_last",
                    "dilation_rate": [
                        1,
                        1
                    ],
                    "activation": "relu",
                    "use_bias": true,
                    "kernel_initializer": {
                        "class_name": "GlorotUniform",
                        "config": {
                            "seed": null
                        }
                    },
                    "bias_initializer": {
                        "class_name": "Zeros",
                        "config": {}
                    },
                    "kernel_regularizer": null,
                    "bias_regularizer": null,
                    "activity_regularizer": null,
                    "kernel_constraint": null,
                    "bias_constraint": null
                }
            },
            {
                "class_name": "BatchNormalization",
                "config": {
                    "name": "batch_normalization_1",
                    "trainable": true,
                    "dtype": "float32",
                    "axis": [
                        3
                    ],
                    "momentum": 0.99,
                    "epsilon": 0.001,
                    "center": true,
                    "scale": true,
                    "beta_initializer": {
                        "class_name": "Zeros",
                        "config": {}
                    },
                    "gamma_initializer": {
                        "class_name": "Ones",
                        "config": {}
                    },
                    "moving_mean_initializer": {
                        "class_name": "Zeros",
                        "config": {}
                    },
                    "moving_variance_initializer": {
                        "class_name": "Ones",
                        "config": {}
                    },
                    "beta_regularizer": null,
                    "gamma_regularizer": null,
                    "beta_constraint": null,
                    "gamma_constraint": null
                }
            },
            {
                "class_name": "Dropout",
                "config": {
                    "name": "dropout_4",
                    "trainable": true,
                    "dtype": "float32",
                    "rate": 0.25,
                    "noise_shape": null,
                    "seed": null
                }
            },
            {
                "class_name": "MaxPooling2D",
                "config": {
                    "name": "max_pooling2d_9",
                    "trainable": true,
                    "dtype": "float32",
                    "pool_size": [
                        2,
                        2
                    ],
                    "padding": "valid",
                    "strides": [
                        2,
                        2
                    ],
                    "data_format": "channels_last"
                }
            },
            {
                "class_name": "Conv2D",
                "config": {
                    "name": "conv2d_14",
                    "trainable": true,
                    "dtype": "float32",
                    "filters": 128,
                    "kernel_size": [
                        3,
                        3
                    ],
                    "strides": [
                        1,
                        1
                    ],
                    "padding": "valid",
                    "data_format": "channels_last",
                    "dilation_rate": [
                        1,
                        1
                    ],
                    "activation": "relu",
                    "use_bias": true,
                    "kernel_initializer": {
                        "class_name": "GlorotUniform",
                        "config": {
                            "seed": null
                        }
                    },
                    "bias_initializer": {
                        "class_name": "Zeros",
                        "config": {}
                    },
                    "kernel_regularizer": null,
                    "bias_regularizer": null,
                    "activity_regularizer": null,
                    "kernel_constraint": null,
                    "bias_constraint": null
                }
            },
            {
                "class_name": "BatchNormalization",
                "config": {
                    "name": "batch_normalization_2",
                    "trainable": true,
                    "dtype": "float32",
                    "axis": [
                        3
                    ],
                    "momentum": 0.99,
                    "epsilon": 0.001,
                    "center": true,
                    "scale": true,
                    "beta_initializer": {
                        "class_name": "Zeros",
                        "config": {}
                    },
                    "gamma_initializer": {
                        "class_name": "Ones",
                        "config": {}
                    },
                    "moving_mean_initializer": {
                        "class_name": "Zeros",
                        "config": {}
                    },
                    "moving_variance_initializer": {
                        "class_name": "Ones",
                        "config": {}
                    },
                    "beta_regularizer": null,
                    "gamma_regularizer": null,
                    "beta_constraint": null,
                    "gamma_constraint": null
                }
            },
            {
                "class_name": "Dropout",
                "config": {
                    "name": "dropout_5",
                    "trainable": true,
                    "dtype": "float32",
                    "rate": 0.25,
                    "noise_shape": null,
                    "seed": null
                }
            },
            {
                "class_name": "Flatten",
                "config": {
                    "name": "flatten_4",
                    "trainable": true,
                    "dtype": "float32",
                    "data_format": "channels_last"
                }
            },
            {
                "class_name": "Dense",
                "config": {
                    "name": "dense_12",
                    "trainable": true,
                    "dtype": "float32",
                    "units": 128,
                    "activation": "relu",
                    "use_bias": true,
                    "kernel_initializer": {
                        "class_name": "GlorotUniform",
                        "config": {
                            "seed": null
                        }
                    },
                    "bias_initializer": {
                        "class_name": "Zeros",
                        "config": {}
                    },
                    "kernel_regularizer": null,
                    "bias_regularizer": null,
                    "activity_regularizer": null,
                    "kernel_constraint": null,
                    "bias_constraint": null
                }
            },
            {
                "class_name": "Dense",
                "config": {
                    "name": "dense_13",
                    "trainable": true,
                    "dtype": "float32",
                    "units": 128,
                    "activation": "relu",
                    "use_bias": true,
                    "kernel_initializer": {
                        "class_name": "GlorotUniform",
                        "config": {
                            "seed": null
                        }
                    },
                    "bias_initializer": {
                        "class_name": "Zeros",
                        "config": {}
                    },
                    "kernel_regularizer": null,
                    "bias_regularizer": null,
                    "activity_regularizer": null,
                    "kernel_constraint": null,
                    "bias_constraint": null
                }
            },
            {
                "class_name": "Dense",
                "config": {
                    "name": "dense_14",
                    "trainable": true,
                    "dtype": "float32",
                    "units": 10,
                    "activation": "linear",
                    "use_bias": true,
                    "kernel_initializer": {
                        "class_name": "GlorotUniform",
                        "config": {
                            "seed": null
                        }
                    },
                    "bias_initializer": {
                        "class_name": "Zeros",
                        "config": {}
                    },
                    "kernel_regularizer": null,
                    "bias_regularizer": null,
                    "activity_regularizer": null,
                    "kernel_constraint": null,
                    "bias_constraint": null
                }
            }
        ],
        "build_input_shape": [
            null,
            32,
            32,
            3
        ]
    },
    "keras_version": "2.3.0-tf",
    "backend": "tensorflow"
}