<?xml version="1.0" encoding="utf-8" standalone="no"?>
<!DOCTYPE svg PUBLIC "-//W3C//DTD SVG 1.1//EN"
  "http://www.w3.org/Graphics/SVG/1.1/DTD/svg11.dtd">
<!-- Created with matplotlib (https://matplotlib.org/) -->
<svg height="345.6pt" version="1.1" viewBox="0 0 460.8 345.6" width="460.8pt" xmlns="http://www.w3.org/2000/svg" xmlns:xlink="http://www.w3.org/1999/xlink">
 <defs>
  <style type="text/css">
*{stroke-linecap:butt;stroke-linejoin:round;}
  </style>
 </defs>
 <g id="figure_1">
  <g id="patch_1">
   <path d="M 0 345.6 
L 460.8 345.6 
L 460.8 0 
L 0 0 
z
" style="fill:#ffffff;"/>
  </g>
  <g id="axes_1">
   <g id="patch_2">
    <path d="M 119.478857 276.48 
L 343.296 276.48 
L 343.296 41.472 
L 119.478857 41.472 
z
" style="fill:#ffffff;"/>
   </g>
   <g id="QuadMesh_1">
    <path clip-path="url(#pc709e7bb28)" d="M 119.478857 265.289143 
L 141.860571 265.289143 
L 141.860571 242.907429 
L 119.478857 242.907429 
L 119.478857 265.289143 
" style="fill:#11246b;"/>
    <path clip-path="url(#pc709e7bb28)" d="M 141.860571 265.289143 
L 164.242286 265.289143 
L 164.242286 242.907429 
L 141.860571 242.907429 
L 141.860571 265.289143 
" style="fill:#fcfed3;"/>
    <path clip-path="url(#pc709e7bb28)" d="M 164.242286 265.289143 
L 186.624 265.289143 
L 186.624 242.907429 
L 164.242286 242.907429 
L 164.242286 265.289143 
" style="fill:#f8fcc9;"/>
    <path clip-path="url(#pc709e7bb28)" d="M 186.624 265.289143 
L 209.005714 265.289143 
L 209.005714 242.907429 
L 186.624 242.907429 
L 186.624 265.289143 
" style="fill:#fdfed5;"/>
    <path clip-path="url(#pc709e7bb28)" d="M 209.005714 265.289143 
L 231.387429 265.289143 
L 231.387429 242.907429 
L 209.005714 242.907429 
L 209.005714 265.289143 
" style="fill:#fcfed3;"/>
    <path clip-path="url(#pc709e7bb28)" d="M 231.387429 265.289143 
L 253.769143 265.289143 
L 253.769143 242.907429 
L 231.387429 242.907429 
L 231.387429 265.289143 
" style="fill:#feffd6;"/>
    <path clip-path="url(#pc709e7bb28)" d="M 253.769143 265.289143 
L 276.150857 265.289143 
L 276.150857 242.907429 
L 253.769143 242.907429 
L 253.769143 265.289143 
" style="fill:#feffd6;"/>
    <path clip-path="url(#pc709e7bb28)" d="M 276.150857 265.289143 
L 298.532571 265.289143 
L 298.532571 242.907429 
L 276.150857 242.907429 
L 276.150857 265.289143 
" style="fill:#fdfed4;"/>
    <path clip-path="url(#pc709e7bb28)" d="M 298.532571 265.289143 
L 320.914286 265.289143 
L 320.914286 242.907429 
L 298.532571 242.907429 
L 298.532571 265.289143 
" style="fill:#f9fdcc;"/>
    <path clip-path="url(#pc709e7bb28)" d="M 320.914286 265.289143 
L 343.296 265.289143 
L 343.296 242.907429 
L 320.914286 242.907429 
L 320.914286 265.289143 
" style="fill:#fbfdd0;"/>
    <path clip-path="url(#pc709e7bb28)" d="M 119.478857 242.907429 
L 141.860571 242.907429 
L 141.860571 220.525714 
L 119.478857 220.525714 
L 119.478857 242.907429 
" style="fill:#fafdce;"/>
    <path clip-path="url(#pc709e7bb28)" d="M 141.860571 242.907429 
L 164.242286 242.907429 
L 164.242286 220.525714 
L 141.860571 220.525714 
L 141.860571 242.907429 
" style="fill:#081d58;"/>
    <path clip-path="url(#pc709e7bb28)" d="M 164.242286 242.907429 
L 186.624 242.907429 
L 186.624 220.525714 
L 164.242286 220.525714 
L 164.242286 242.907429 
" style="fill:#feffd6;"/>
    <path clip-path="url(#pc709e7bb28)" d="M 186.624 242.907429 
L 209.005714 242.907429 
L 209.005714 220.525714 
L 186.624 220.525714 
L 186.624 242.907429 
" style="fill:#feffd8;"/>
    <path clip-path="url(#pc709e7bb28)" d="M 209.005714 242.907429 
L 231.387429 242.907429 
L 231.387429 220.525714 
L 209.005714 220.525714 
L 209.005714 242.907429 
" style="fill:#feffd8;"/>
    <path clip-path="url(#pc709e7bb28)" d="M 231.387429 242.907429 
L 253.769143 242.907429 
L 253.769143 220.525714 
L 231.387429 220.525714 
L 231.387429 242.907429 
" style="fill:#ffffd9;"/>
    <path clip-path="url(#pc709e7bb28)" d="M 253.769143 242.907429 
L 276.150857 242.907429 
L 276.150857 220.525714 
L 253.769143 220.525714 
L 253.769143 242.907429 
" style="fill:#feffd6;"/>
    <path clip-path="url(#pc709e7bb28)" d="M 276.150857 242.907429 
L 298.532571 242.907429 
L 298.532571 220.525714 
L 276.150857 220.525714 
L 276.150857 242.907429 
" style="fill:#ffffd9;"/>
    <path clip-path="url(#pc709e7bb28)" d="M 298.532571 242.907429 
L 320.914286 242.907429 
L 320.914286 220.525714 
L 298.532571 220.525714 
L 298.532571 242.907429 
" style="fill:#fdfed5;"/>
    <path clip-path="url(#pc709e7bb28)" d="M 320.914286 242.907429 
L 343.296 242.907429 
L 343.296 220.525714 
L 320.914286 220.525714 
L 320.914286 242.907429 
" style="fill:#f3fabd;"/>
    <path clip-path="url(#pc709e7bb28)" d="M 119.478857 220.525714 
L 141.860571 220.525714 
L 141.860571 198.144 
L 119.478857 198.144 
L 119.478857 220.525714 
" style="fill:#f3fabd;"/>
    <path clip-path="url(#pc709e7bb28)" d="M 141.860571 220.525714 
L 164.242286 220.525714 
L 164.242286 198.144 
L 141.860571 198.144 
L 141.860571 220.525714 
" style="fill:#feffd8;"/>
    <path clip-path="url(#pc709e7bb28)" d="M 164.242286 220.525714 
L 186.624 220.525714 
L 186.624 198.144 
L 164.242286 198.144 
L 164.242286 220.525714 
" style="fill:#2073b2;"/>
    <path clip-path="url(#pc709e7bb28)" d="M 186.624 220.525714 
L 209.005714 220.525714 
L 209.005714 198.144 
L 186.624 198.144 
L 186.624 220.525714 
" style="fill:#f8fcca;"/>
    <path clip-path="url(#pc709e7bb28)" d="M 209.005714 220.525714 
L 231.387429 220.525714 
L 231.387429 198.144 
L 209.005714 198.144 
L 209.005714 220.525714 
" style="fill:#f2fabc;"/>
    <path clip-path="url(#pc709e7bb28)" d="M 231.387429 220.525714 
L 253.769143 220.525714 
L 253.769143 198.144 
L 231.387429 198.144 
L 231.387429 220.525714 
" style="fill:#f0f9b8;"/>
    <path clip-path="url(#pc709e7bb28)" d="M 253.769143 220.525714 
L 276.150857 220.525714 
L 276.150857 198.144 
L 253.769143 198.144 
L 253.769143 220.525714 
" style="fill:#f2fabc;"/>
    <path clip-path="url(#pc709e7bb28)" d="M 276.150857 220.525714 
L 298.532571 220.525714 
L 298.532571 198.144 
L 276.150857 198.144 
L 276.150857 220.525714 
" style="fill:#fafdcf;"/>
    <path clip-path="url(#pc709e7bb28)" d="M 298.532571 220.525714 
L 320.914286 220.525714 
L 320.914286 198.144 
L 298.532571 198.144 
L 298.532571 220.525714 
" style="fill:#feffd8;"/>
    <path clip-path="url(#pc709e7bb28)" d="M 320.914286 220.525714 
L 343.296 220.525714 
L 343.296 198.144 
L 320.914286 198.144 
L 320.914286 220.525714 
" style="fill:#fdfed5;"/>
    <path clip-path="url(#pc709e7bb28)" d="M 119.478857 198.144 
L 141.860571 198.144 
L 141.860571 175.762286 
L 119.478857 175.762286 
L 119.478857 198.144 
" style="fill:#fafdce;"/>
    <path clip-path="url(#pc709e7bb28)" d="M 141.860571 198.144 
L 164.242286 198.144 
L 164.242286 175.762286 
L 141.860571 175.762286 
L 141.860571 198.144 
" style="fill:#fdfed5;"/>
    <path clip-path="url(#pc709e7bb28)" d="M 164.242286 198.144 
L 186.624 198.144 
L 186.624 175.762286 
L 164.242286 175.762286 
L 164.242286 198.144 
" style="fill:#f4fbc0;"/>
    <path clip-path="url(#pc709e7bb28)" d="M 186.624 198.144 
L 209.005714 198.144 
L 209.005714 175.762286 
L 186.624 175.762286 
L 186.624 198.144 
" style="fill:#3db2c4;"/>
    <path clip-path="url(#pc709e7bb28)" d="M 209.005714 198.144 
L 231.387429 198.144 
L 231.387429 175.762286 
L 209.005714 175.762286 
L 209.005714 198.144 
" style="fill:#f4fbc0;"/>
    <path clip-path="url(#pc709e7bb28)" d="M 231.387429 198.144 
L 253.769143 198.144 
L 253.769143 175.762286 
L 231.387429 175.762286 
L 231.387429 198.144 
" style="fill:#b7e3b6;"/>
    <path clip-path="url(#pc709e7bb28)" d="M 253.769143 198.144 
L 276.150857 198.144 
L 276.150857 175.762286 
L 253.769143 175.762286 
L 253.769143 198.144 
" style="fill:#f1faba;"/>
    <path clip-path="url(#pc709e7bb28)" d="M 276.150857 198.144 
L 298.532571 198.144 
L 298.532571 175.762286 
L 276.150857 175.762286 
L 276.150857 198.144 
" style="fill:#fafdcf;"/>
    <path clip-path="url(#pc709e7bb28)" d="M 298.532571 198.144 
L 320.914286 198.144 
L 320.914286 175.762286 
L 298.532571 175.762286 
L 298.532571 198.144 
" style="fill:#fdfed4;"/>
    <path clip-path="url(#pc709e7bb28)" d="M 320.914286 198.144 
L 343.296 198.144 
L 343.296 175.762286 
L 320.914286 175.762286 
L 320.914286 198.144 
" style="fill:#fcfed1;"/>
    <path clip-path="url(#pc709e7bb28)" d="M 119.478857 175.762286 
L 141.860571 175.762286 
L 141.860571 153.380571 
L 119.478857 153.380571 
L 119.478857 175.762286 
" style="fill:#fbfdd0;"/>
    <path clip-path="url(#pc709e7bb28)" d="M 141.860571 175.762286 
L 164.242286 175.762286 
L 164.242286 153.380571 
L 141.860571 153.380571 
L 141.860571 175.762286 
" style="fill:#feffd8;"/>
    <path clip-path="url(#pc709e7bb28)" d="M 164.242286 175.762286 
L 186.624 175.762286 
L 186.624 153.380571 
L 164.242286 153.380571 
L 164.242286 175.762286 
" style="fill:#f3fabd;"/>
    <path clip-path="url(#pc709e7bb28)" d="M 186.624 175.762286 
L 209.005714 175.762286 
L 209.005714 153.380571 
L 186.624 153.380571 
L 186.624 175.762286 
" style="fill:#f8fcca;"/>
    <path clip-path="url(#pc709e7bb28)" d="M 209.005714 175.762286 
L 231.387429 175.762286 
L 231.387429 153.380571 
L 209.005714 153.380571 
L 209.005714 175.762286 
" style="fill:#24449c;"/>
    <path clip-path="url(#pc709e7bb28)" d="M 231.387429 175.762286 
L 253.769143 175.762286 
L 253.769143 153.380571 
L 231.387429 153.380571 
L 231.387429 175.762286 
" style="fill:#f8fcca;"/>
    <path clip-path="url(#pc709e7bb28)" d="M 253.769143 175.762286 
L 276.150857 175.762286 
L 276.150857 153.380571 
L 253.769143 153.380571 
L 253.769143 175.762286 
" style="fill:#f4fbc1;"/>
    <path clip-path="url(#pc709e7bb28)" d="M 276.150857 175.762286 
L 298.532571 175.762286 
L 298.532571 153.380571 
L 276.150857 153.380571 
L 276.150857 175.762286 
" style="fill:#f9fdcb;"/>
    <path clip-path="url(#pc709e7bb28)" d="M 298.532571 175.762286 
L 320.914286 175.762286 
L 320.914286 153.380571 
L 298.532571 153.380571 
L 298.532571 175.762286 
" style="fill:#feffd6;"/>
    <path clip-path="url(#pc709e7bb28)" d="M 320.914286 175.762286 
L 343.296 175.762286 
L 343.296 153.380571 
L 320.914286 153.380571 
L 320.914286 175.762286 
" style="fill:#feffd8;"/>
    <path clip-path="url(#pc709e7bb28)" d="M 119.478857 153.380571 
L 141.860571 153.380571 
L 141.860571 130.998857 
L 119.478857 130.998857 
L 119.478857 153.380571 
" style="fill:#fdfed4;"/>
    <path clip-path="url(#pc709e7bb28)" d="M 141.860571 153.380571 
L 164.242286 153.380571 
L 164.242286 130.998857 
L 141.860571 130.998857 
L 141.860571 153.380571 
" style="fill:#ffffd9;"/>
    <path clip-path="url(#pc709e7bb28)" d="M 164.242286 153.380571 
L 186.624 153.380571 
L 186.624 130.998857 
L 164.242286 130.998857 
L 164.242286 153.380571 
" style="fill:#f4fbc1;"/>
    <path clip-path="url(#pc709e7bb28)" d="M 186.624 153.380571 
L 209.005714 153.380571 
L 209.005714 130.998857 
L 186.624 130.998857 
L 186.624 153.380571 
" style="fill:#f1fabb;"/>
    <path clip-path="url(#pc709e7bb28)" d="M 209.005714 153.380571 
L 231.387429 153.380571 
L 231.387429 130.998857 
L 209.005714 130.998857 
L 209.005714 153.380571 
" style="fill:#f7fcc6;"/>
    <path clip-path="url(#pc709e7bb28)" d="M 231.387429 153.380571 
L 253.769143 153.380571 
L 253.769143 130.998857 
L 231.387429 130.998857 
L 231.387429 153.380571 
" style="fill:#24419a;"/>
    <path clip-path="url(#pc709e7bb28)" d="M 253.769143 153.380571 
L 276.150857 153.380571 
L 276.150857 130.998857 
L 253.769143 130.998857 
L 253.769143 153.380571 
" style="fill:#fafdce;"/>
    <path clip-path="url(#pc709e7bb28)" d="M 276.150857 153.380571 
L 298.532571 153.380571 
L 298.532571 130.998857 
L 276.150857 130.998857 
L 276.150857 153.380571 
" style="fill:#f8fcca;"/>
    <path clip-path="url(#pc709e7bb28)" d="M 298.532571 153.380571 
L 320.914286 153.380571 
L 320.914286 130.998857 
L 298.532571 130.998857 
L 298.532571 153.380571 
" style="fill:#feffd8;"/>
    <path clip-path="url(#pc709e7bb28)" d="M 320.914286 153.380571 
L 343.296 153.380571 
L 343.296 130.998857 
L 320.914286 130.998857 
L 320.914286 153.380571 
" style="fill:#feffd8;"/>
    <path clip-path="url(#pc709e7bb28)" d="M 119.478857 130.998857 
L 141.860571 130.998857 
L 141.860571 108.617143 
L 119.478857 108.617143 
L 119.478857 130.998857 
" style="fill:#feffd6;"/>
    <path clip-path="url(#pc709e7bb28)" d="M 141.860571 130.998857 
L 164.242286 130.998857 
L 164.242286 108.617143 
L 141.860571 108.617143 
L 141.860571 130.998857 
" style="fill:#fdfed5;"/>
    <path clip-path="url(#pc709e7bb28)" d="M 164.242286 130.998857 
L 186.624 130.998857 
L 186.624 108.617143 
L 164.242286 108.617143 
L 164.242286 130.998857 
" style="fill:#f8fcc9;"/>
    <path clip-path="url(#pc709e7bb28)" d="M 186.624 130.998857 
L 209.005714 130.998857 
L 209.005714 108.617143 
L 186.624 108.617143 
L 186.624 130.998857 
" style="fill:#f9fdcc;"/>
    <path clip-path="url(#pc709e7bb28)" d="M 209.005714 130.998857 
L 231.387429 130.998857 
L 231.387429 108.617143 
L 209.005714 108.617143 
L 209.005714 130.998857 
" style="fill:#fafdce;"/>
    <path clip-path="url(#pc709e7bb28)" d="M 231.387429 130.998857 
L 253.769143 130.998857 
L 253.769143 108.617143 
L 231.387429 108.617143 
L 231.387429 130.998857 
" style="fill:#f9fdcc;"/>
    <path clip-path="url(#pc709e7bb28)" d="M 253.769143 130.998857 
L 276.150857 130.998857 
L 276.150857 108.617143 
L 253.769143 108.617143 
L 253.769143 130.998857 
" style="fill:#102369;"/>
    <path clip-path="url(#pc709e7bb28)" d="M 276.150857 130.998857 
L 298.532571 130.998857 
L 298.532571 108.617143 
L 276.150857 108.617143 
L 276.150857 130.998857 
" style="fill:#feffd8;"/>
    <path clip-path="url(#pc709e7bb28)" d="M 298.532571 130.998857 
L 320.914286 130.998857 
L 320.914286 108.617143 
L 298.532571 108.617143 
L 298.532571 130.998857 
" style="fill:#feffd6;"/>
    <path clip-path="url(#pc709e7bb28)" d="M 320.914286 130.998857 
L 343.296 130.998857 
L 343.296 108.617143 
L 320.914286 108.617143 
L 320.914286 130.998857 
" style="fill:#feffd8;"/>
    <path clip-path="url(#pc709e7bb28)" d="M 119.478857 108.617143 
L 141.860571 108.617143 
L 141.860571 86.235429 
L 119.478857 86.235429 
L 119.478857 108.617143 
" style="fill:#fafdcf;"/>
    <path clip-path="url(#pc709e7bb28)" d="M 141.860571 108.617143 
L 164.242286 108.617143 
L 164.242286 86.235429 
L 141.860571 86.235429 
L 141.860571 108.617143 
" style="fill:#feffd8;"/>
    <path clip-path="url(#pc709e7bb28)" d="M 164.242286 108.617143 
L 186.624 108.617143 
L 186.624 86.235429 
L 164.242286 86.235429 
L 164.242286 108.617143 
" style="fill:#f9fdcb;"/>
    <path clip-path="url(#pc709e7bb28)" d="M 186.624 108.617143 
L 209.005714 108.617143 
L 209.005714 86.235429 
L 186.624 86.235429 
L 186.624 108.617143 
" style="fill:#fafdce;"/>
    <path clip-path="url(#pc709e7bb28)" d="M 209.005714 108.617143 
L 231.387429 108.617143 
L 231.387429 86.235429 
L 209.005714 86.235429 
L 209.005714 108.617143 
" style="fill:#f1faba;"/>
    <path clip-path="url(#pc709e7bb28)" d="M 231.387429 108.617143 
L 253.769143 108.617143 
L 253.769143 86.235429 
L 231.387429 86.235429 
L 231.387429 108.617143 
" style="fill:#f2fabc;"/>
    <path clip-path="url(#pc709e7bb28)" d="M 253.769143 108.617143 
L 276.150857 108.617143 
L 276.150857 86.235429 
L 253.769143 86.235429 
L 253.769143 108.617143 
" style="fill:#feffd8;"/>
    <path clip-path="url(#pc709e7bb28)" d="M 276.150857 108.617143 
L 298.532571 108.617143 
L 298.532571 86.235429 
L 276.150857 86.235429 
L 276.150857 108.617143 
" style="fill:#24409a;"/>
    <path clip-path="url(#pc709e7bb28)" d="M 298.532571 108.617143 
L 320.914286 108.617143 
L 320.914286 86.235429 
L 298.532571 86.235429 
L 298.532571 108.617143 
" style="fill:#ffffd9;"/>
    <path clip-path="url(#pc709e7bb28)" d="M 320.914286 108.617143 
L 343.296 108.617143 
L 343.296 86.235429 
L 320.914286 86.235429 
L 320.914286 108.617143 
" style="fill:#fdfed4;"/>
    <path clip-path="url(#pc709e7bb28)" d="M 119.478857 86.235429 
L 141.860571 86.235429 
L 141.860571 63.853714 
L 119.478857 63.853714 
L 119.478857 86.235429 
" style="fill:#daf0b3;"/>
    <path clip-path="url(#pc709e7bb28)" d="M 141.860571 86.235429 
L 164.242286 86.235429 
L 164.242286 63.853714 
L 141.860571 63.853714 
L 141.860571 86.235429 
" style="fill:#f8fcc9;"/>
    <path clip-path="url(#pc709e7bb28)" d="M 164.242286 86.235429 
L 186.624 86.235429 
L 186.624 63.853714 
L 164.242286 63.853714 
L 164.242286 86.235429 
" style="fill:#feffd6;"/>
    <path clip-path="url(#pc709e7bb28)" d="M 186.624 86.235429 
L 209.005714 86.235429 
L 209.005714 63.853714 
L 186.624 63.853714 
L 186.624 86.235429 
" style="fill:#fdfed5;"/>
    <path clip-path="url(#pc709e7bb28)" d="M 209.005714 86.235429 
L 231.387429 86.235429 
L 231.387429 63.853714 
L 209.005714 63.853714 
L 209.005714 86.235429 
" style="fill:#fdfed5;"/>
    <path clip-path="url(#pc709e7bb28)" d="M 231.387429 86.235429 
L 253.769143 86.235429 
L 253.769143 63.853714 
L 231.387429 63.853714 
L 231.387429 86.235429 
" style="fill:#feffd8;"/>
    <path clip-path="url(#pc709e7bb28)" d="M 253.769143 86.235429 
L 276.150857 86.235429 
L 276.150857 63.853714 
L 253.769143 63.853714 
L 253.769143 86.235429 
" style="fill:#feffd8;"/>
    <path clip-path="url(#pc709e7bb28)" d="M 276.150857 86.235429 
L 298.532571 86.235429 
L 298.532571 63.853714 
L 276.150857 63.853714 
L 276.150857 86.235429 
" style="fill:#feffd6;"/>
    <path clip-path="url(#pc709e7bb28)" d="M 298.532571 86.235429 
L 320.914286 86.235429 
L 320.914286 63.853714 
L 298.532571 63.853714 
L 298.532571 86.235429 
" style="fill:#253b97;"/>
    <path clip-path="url(#pc709e7bb28)" d="M 320.914286 86.235429 
L 343.296 86.235429 
L 343.296 63.853714 
L 320.914286 63.853714 
L 320.914286 86.235429 
" style="fill:#fbfdd0;"/>
    <path clip-path="url(#pc709e7bb28)" d="M 119.478857 63.853714 
L 141.860571 63.853714 
L 141.860571 41.472 
L 119.478857 41.472 
L 119.478857 63.853714 
" style="fill:#f5fbc4;"/>
    <path clip-path="url(#pc709e7bb28)" d="M 141.860571 63.853714 
L 164.242286 63.853714 
L 164.242286 41.472 
L 141.860571 41.472 
L 141.860571 63.853714 
" style="fill:#f3fabf;"/>
    <path clip-path="url(#pc709e7bb28)" d="M 164.242286 63.853714 
L 186.624 63.853714 
L 186.624 41.472 
L 164.242286 41.472 
L 164.242286 63.853714 
" style="fill:#feffd6;"/>
    <path clip-path="url(#pc709e7bb28)" d="M 186.624 63.853714 
L 209.005714 63.853714 
L 209.005714 41.472 
L 186.624 41.472 
L 186.624 63.853714 
" style="fill:#fcfed3;"/>
    <path clip-path="url(#pc709e7bb28)" d="M 209.005714 63.853714 
L 231.387429 63.853714 
L 231.387429 41.472 
L 209.005714 41.472 
L 209.005714 63.853714 
" style="fill:#feffd8;"/>
    <path clip-path="url(#pc709e7bb28)" d="M 231.387429 63.853714 
L 253.769143 63.853714 
L 253.769143 41.472 
L 231.387429 41.472 
L 231.387429 63.853714 
" style="fill:#fdfed5;"/>
    <path clip-path="url(#pc709e7bb28)" d="M 253.769143 63.853714 
L 276.150857 63.853714 
L 276.150857 41.472 
L 253.769143 41.472 
L 253.769143 63.853714 
" style="fill:#fdfed5;"/>
    <path clip-path="url(#pc709e7bb28)" d="M 276.150857 63.853714 
L 298.532571 63.853714 
L 298.532571 41.472 
L 276.150857 41.472 
L 276.150857 63.853714 
" style="fill:#fdfed5;"/>
    <path clip-path="url(#pc709e7bb28)" d="M 298.532571 63.853714 
L 320.914286 63.853714 
L 320.914286 41.472 
L 298.532571 41.472 
L 298.532571 63.853714 
" style="fill:#fdfed4;"/>
    <path clip-path="url(#pc709e7bb28)" d="M 320.914286 63.853714 
L 343.296 63.853714 
L 343.296 41.472 
L 320.914286 41.472 
L 320.914286 63.853714 
" style="fill:#182a7a;"/>
   </g>
   <g id="matplotlib.axis_1">
    <g id="xtick_1">
     <g id="line2d_1">
      <defs>
       <path d="M 0 0 
L 0 3.5 
" id="m5035e02a98" style="stroke:#000000;stroke-width:0.8;"/>
      </defs>
      <g>
       <use style="stroke:#000000;stroke-width:0.8;" x="130.669714" xlink:href="#m5035e02a98" y="276.48"/>
      </g>
     </g>
     <g id="text_1">
      <!-- airplane -->
      <defs>
       <path d="M 34.28125 27.484375 
Q 23.390625 27.484375 19.1875 25 
Q 14.984375 22.515625 14.984375 16.5 
Q 14.984375 11.71875 18.140625 8.90625 
Q 21.296875 6.109375 26.703125 6.109375 
Q 34.1875 6.109375 38.703125 11.40625 
Q 43.21875 16.703125 43.21875 25.484375 
L 43.21875 27.484375 
z
M 52.203125 31.203125 
L 52.203125 0 
L 43.21875 0 
L 43.21875 8.296875 
Q 40.140625 3.328125 35.546875 0.953125 
Q 30.953125 -1.421875 24.3125 -1.421875 
Q 15.921875 -1.421875 10.953125 3.296875 
Q 6 8.015625 6 15.921875 
Q 6 25.140625 12.171875 29.828125 
Q 18.359375 34.515625 30.609375 34.515625 
L 43.21875 34.515625 
L 43.21875 35.40625 
Q 43.21875 41.609375 39.140625 45 
Q 35.0625 48.390625 27.6875 48.390625 
Q 23 48.390625 18.546875 47.265625 
Q 14.109375 46.140625 10.015625 43.890625 
L 10.015625 52.203125 
Q 14.9375 54.109375 19.578125 55.046875 
Q 24.21875 56 28.609375 56 
Q 40.484375 56 46.34375 49.84375 
Q 52.203125 43.703125 52.203125 31.203125 
z
" id="DejaVuSans-97"/>
       <path d="M 9.421875 54.6875 
L 18.40625 54.6875 
L 18.40625 0 
L 9.421875 0 
z
M 9.421875 75.984375 
L 18.40625 75.984375 
L 18.40625 64.59375 
L 9.421875 64.59375 
z
" id="DejaVuSans-105"/>
       <path d="M 41.109375 46.296875 
Q 39.59375 47.171875 37.8125 47.578125 
Q 36.03125 48 33.890625 48 
Q 26.265625 48 22.1875 43.046875 
Q 18.109375 38.09375 18.109375 28.8125 
L 18.109375 0 
L 9.078125 0 
L 9.078125 54.6875 
L 18.109375 54.6875 
L 18.109375 46.1875 
Q 20.953125 51.171875 25.484375 53.578125 
Q 30.03125 56 36.53125 56 
Q 37.453125 56 38.578125 55.875 
Q 39.703125 55.765625 41.0625 55.515625 
z
" id="DejaVuSans-114"/>
       <path d="M 18.109375 8.203125 
L 18.109375 -20.796875 
L 9.078125 -20.796875 
L 9.078125 54.6875 
L 18.109375 54.6875 
L 18.109375 46.390625 
Q 20.953125 51.265625 25.265625 53.625 
Q 29.59375 56 35.59375 56 
Q 45.5625 56 51.78125 48.09375 
Q 58.015625 40.1875 58.015625 27.296875 
Q 58.015625 14.40625 51.78125 6.484375 
Q 45.5625 -1.421875 35.59375 -1.421875 
Q 29.59375 -1.421875 25.265625 0.953125 
Q 20.953125 3.328125 18.109375 8.203125 
z
M 48.6875 27.296875 
Q 48.6875 37.203125 44.609375 42.84375 
Q 40.53125 48.484375 33.40625 48.484375 
Q 26.265625 48.484375 22.1875 42.84375 
Q 18.109375 37.203125 18.109375 27.296875 
Q 18.109375 17.390625 22.1875 11.75 
Q 26.265625 6.109375 33.40625 6.109375 
Q 40.53125 6.109375 44.609375 11.75 
Q 48.6875 17.390625 48.6875 27.296875 
z
" id="DejaVuSans-112"/>
       <path d="M 9.421875 75.984375 
L 18.40625 75.984375 
L 18.40625 0 
L 9.421875 0 
z
" id="DejaVuSans-108"/>
       <path d="M 54.890625 33.015625 
L 54.890625 0 
L 45.90625 0 
L 45.90625 32.71875 
Q 45.90625 40.484375 42.875 44.328125 
Q 39.84375 48.1875 33.796875 48.1875 
Q 26.515625 48.1875 22.3125 43.546875 
Q 18.109375 38.921875 18.109375 30.90625 
L 18.109375 0 
L 9.078125 0 
L 9.078125 54.6875 
L 18.109375 54.6875 
L 18.109375 46.1875 
Q 21.34375 51.125 25.703125 53.5625 
Q 30.078125 56 35.796875 56 
Q 45.21875 56 50.046875 50.171875 
Q 54.890625 44.34375 54.890625 33.015625 
z
" id="DejaVuSans-110"/>
       <path d="M 56.203125 29.59375 
L 56.203125 25.203125 
L 14.890625 25.203125 
Q 15.484375 15.921875 20.484375 11.0625 
Q 25.484375 6.203125 34.421875 6.203125 
Q 39.59375 6.203125 44.453125 7.46875 
Q 49.3125 8.734375 54.109375 11.28125 
L 54.109375 2.78125 
Q 49.265625 0.734375 44.1875 -0.34375 
Q 39.109375 -1.421875 33.890625 -1.421875 
Q 20.796875 -1.421875 13.15625 6.1875 
Q 5.515625 13.8125 5.515625 26.8125 
Q 5.515625 40.234375 12.765625 48.109375 
Q 20.015625 56 32.328125 56 
Q 43.359375 56 49.78125 48.890625 
Q 56.203125 41.796875 56.203125 29.59375 
z
M 47.21875 32.234375 
Q 47.125 39.59375 43.09375 43.984375 
Q 39.0625 48.390625 32.421875 48.390625 
Q 24.90625 48.390625 20.390625 44.140625 
Q 15.875 39.890625 15.1875 32.171875 
z
" id="DejaVuSans-101"/>
      </defs>
      <g transform="translate(121.239857 321.22897)rotate(-55)scale(0.1 -0.1)">
       <use xlink:href="#DejaVuSans-97"/>
       <use x="61.279297" xlink:href="#DejaVuSans-105"/>
       <use x="89.0625" xlink:href="#DejaVuSans-114"/>
       <use x="130.175781" xlink:href="#DejaVuSans-112"/>
       <use x="193.652344" xlink:href="#DejaVuSans-108"/>
       <use x="221.435547" xlink:href="#DejaVuSans-97"/>
       <use x="282.714844" xlink:href="#DejaVuSans-110"/>
       <use x="346.09375" xlink:href="#DejaVuSans-101"/>
      </g>
     </g>
    </g>
    <g id="xtick_2">
     <g id="line2d_2">
      <g>
       <use style="stroke:#000000;stroke-width:0.8;" x="153.051429" xlink:href="#m5035e02a98" y="276.48"/>
      </g>
     </g>
     <g id="text_2">
      <!-- automobile -->
      <defs>
       <path d="M 8.5 21.578125 
L 8.5 54.6875 
L 17.484375 54.6875 
L 17.484375 21.921875 
Q 17.484375 14.15625 20.5 10.265625 
Q 23.53125 6.390625 29.59375 6.390625 
Q 36.859375 6.390625 41.078125 11.03125 
Q 45.3125 15.671875 45.3125 23.6875 
L 45.3125 54.6875 
L 54.296875 54.6875 
L 54.296875 0 
L 45.3125 0 
L 45.3125 8.40625 
Q 42.046875 3.421875 37.71875 1 
Q 33.40625 -1.421875 27.6875 -1.421875 
Q 18.265625 -1.421875 13.375 4.4375 
Q 8.5 10.296875 8.5 21.578125 
z
M 31.109375 56 
z
" id="DejaVuSans-117"/>
       <path d="M 18.3125 70.21875 
L 18.3125 54.6875 
L 36.8125 54.6875 
L 36.8125 47.703125 
L 18.3125 47.703125 
L 18.3125 18.015625 
Q 18.3125 11.328125 20.140625 9.421875 
Q 21.96875 7.515625 27.59375 7.515625 
L 36.8125 7.515625 
L 36.8125 0 
L 27.59375 0 
Q 17.1875 0 13.234375 3.875 
Q 9.28125 7.765625 9.28125 18.015625 
L 9.28125 47.703125 
L 2.6875 47.703125 
L 2.6875 54.6875 
L 9.28125 54.6875 
L 9.28125 70.21875 
z
" id="DejaVuSans-116"/>
       <path d="M 30.609375 48.390625 
Q 23.390625 48.390625 19.1875 42.75 
Q 14.984375 37.109375 14.984375 27.296875 
Q 14.984375 17.484375 19.15625 11.84375 
Q 23.34375 6.203125 30.609375 6.203125 
Q 37.796875 6.203125 41.984375 11.859375 
Q 46.1875 17.53125 46.1875 27.296875 
Q 46.1875 37.015625 41.984375 42.703125 
Q 37.796875 48.390625 30.609375 48.390625 
z
M 30.609375 56 
Q 42.328125 56 49.015625 48.375 
Q 55.71875 40.765625 55.71875 27.296875 
Q 55.71875 13.875 49.015625 6.21875 
Q 42.328125 -1.421875 30.609375 -1.421875 
Q 18.84375 -1.421875 12.171875 6.21875 
Q 5.515625 13.875 5.515625 27.296875 
Q 5.515625 40.765625 12.171875 48.375 
Q 18.84375 56 30.609375 56 
z
" id="DejaVuSans-111"/>
       <path d="M 52 44.1875 
Q 55.375 50.25 60.0625 53.125 
Q 64.75 56 71.09375 56 
Q 79.640625 56 84.28125 50.015625 
Q 88.921875 44.046875 88.921875 33.015625 
L 88.921875 0 
L 79.890625 0 
L 79.890625 32.71875 
Q 79.890625 40.578125 77.09375 44.375 
Q 74.3125 48.1875 68.609375 48.1875 
Q 61.625 48.1875 57.5625 43.546875 
Q 53.515625 38.921875 53.515625 30.90625 
L 53.515625 0 
L 44.484375 0 
L 44.484375 32.71875 
Q 44.484375 40.625 41.703125 44.40625 
Q 38.921875 48.1875 33.109375 48.1875 
Q 26.21875 48.1875 22.15625 43.53125 
Q 18.109375 38.875 18.109375 30.90625 
L 18.109375 0 
L 9.078125 0 
L 9.078125 54.6875 
L 18.109375 54.6875 
L 18.109375 46.1875 
Q 21.1875 51.21875 25.484375 53.609375 
Q 29.78125 56 35.6875 56 
Q 41.65625 56 45.828125 52.96875 
Q 50 49.953125 52 44.1875 
z
" id="DejaVuSans-109"/>
       <path d="M 48.6875 27.296875 
Q 48.6875 37.203125 44.609375 42.84375 
Q 40.53125 48.484375 33.40625 48.484375 
Q 26.265625 48.484375 22.1875 42.84375 
Q 18.109375 37.203125 18.109375 27.296875 
Q 18.109375 17.390625 22.1875 11.75 
Q 26.265625 6.109375 33.40625 6.109375 
Q 40.53125 6.109375 44.609375 11.75 
Q 48.6875 17.390625 48.6875 27.296875 
z
M 18.109375 46.390625 
Q 20.953125 51.265625 25.265625 53.625 
Q 29.59375 56 35.59375 56 
Q 45.5625 56 51.78125 48.09375 
Q 58.015625 40.1875 58.015625 27.296875 
Q 58.015625 14.40625 51.78125 6.484375 
Q 45.5625 -1.421875 35.59375 -1.421875 
Q 29.59375 -1.421875 25.265625 0.953125 
Q 20.953125 3.328125 18.109375 8.203125 
L 18.109375 0 
L 9.078125 0 
L 9.078125 75.984375 
L 18.109375 75.984375 
z
" id="DejaVuSans-98"/>
      </defs>
      <g transform="translate(139.130647 334.056379)rotate(-55)scale(0.1 -0.1)">
       <use xlink:href="#DejaVuSans-97"/>
       <use x="61.279297" xlink:href="#DejaVuSans-117"/>
       <use x="124.658203" xlink:href="#DejaVuSans-116"/>
       <use x="163.867188" xlink:href="#DejaVuSans-111"/>
       <use x="225.048828" xlink:href="#DejaVuSans-109"/>
       <use x="322.460938" xlink:href="#DejaVuSans-111"/>
       <use x="383.642578" xlink:href="#DejaVuSans-98"/>
       <use x="447.119141" xlink:href="#DejaVuSans-105"/>
       <use x="474.902344" xlink:href="#DejaVuSans-108"/>
       <use x="502.685547" xlink:href="#DejaVuSans-101"/>
      </g>
     </g>
    </g>
    <g id="xtick_3">
     <g id="line2d_3">
      <g>
       <use style="stroke:#000000;stroke-width:0.8;" x="175.433143" xlink:href="#m5035e02a98" y="276.48"/>
      </g>
     </g>
     <g id="text_3">
      <!-- bird -->
      <defs>
       <path d="M 45.40625 46.390625 
L 45.40625 75.984375 
L 54.390625 75.984375 
L 54.390625 0 
L 45.40625 0 
L 45.40625 8.203125 
Q 42.578125 3.328125 38.25 0.953125 
Q 33.9375 -1.421875 27.875 -1.421875 
Q 17.96875 -1.421875 11.734375 6.484375 
Q 5.515625 14.40625 5.515625 27.296875 
Q 5.515625 40.1875 11.734375 48.09375 
Q 17.96875 56 27.875 56 
Q 33.9375 56 38.25 53.625 
Q 42.578125 51.265625 45.40625 46.390625 
z
M 14.796875 27.296875 
Q 14.796875 17.390625 18.875 11.75 
Q 22.953125 6.109375 30.078125 6.109375 
Q 37.203125 6.109375 41.296875 11.75 
Q 45.40625 17.390625 45.40625 27.296875 
Q 45.40625 37.203125 41.296875 42.84375 
Q 37.203125 48.484375 30.078125 48.484375 
Q 22.953125 48.484375 18.875 42.84375 
Q 14.796875 37.203125 14.796875 27.296875 
z
" id="DejaVuSans-100"/>
      </defs>
      <g transform="translate(172.076923 303.880866)rotate(-55)scale(0.1 -0.1)">
       <use xlink:href="#DejaVuSans-98"/>
       <use x="63.476562" xlink:href="#DejaVuSans-105"/>
       <use x="91.259766" xlink:href="#DejaVuSans-114"/>
       <use x="132.357422" xlink:href="#DejaVuSans-100"/>
      </g>
     </g>
    </g>
    <g id="xtick_4">
     <g id="line2d_4">
      <g>
       <use style="stroke:#000000;stroke-width:0.8;" x="197.814857" xlink:href="#m5035e02a98" y="276.48"/>
      </g>
     </g>
     <g id="text_4">
      <!-- cat -->
      <defs>
       <path d="M 48.78125 52.59375 
L 48.78125 44.1875 
Q 44.96875 46.296875 41.140625 47.34375 
Q 37.3125 48.390625 33.40625 48.390625 
Q 24.65625 48.390625 19.8125 42.84375 
Q 14.984375 37.3125 14.984375 27.296875 
Q 14.984375 17.28125 19.8125 11.734375 
Q 24.65625 6.203125 33.40625 6.203125 
Q 37.3125 6.203125 41.140625 7.25 
Q 44.96875 8.296875 48.78125 10.40625 
L 48.78125 2.09375 
Q 45.015625 0.34375 40.984375 -0.53125 
Q 36.96875 -1.421875 32.421875 -1.421875 
Q 20.0625 -1.421875 12.78125 6.34375 
Q 5.515625 14.109375 5.515625 27.296875 
Q 5.515625 40.671875 12.859375 48.328125 
Q 20.21875 56 33.015625 56 
Q 37.15625 56 41.109375 55.140625 
Q 45.0625 54.296875 48.78125 52.59375 
z
" id="DejaVuSans-99"/>
      </defs>
      <g transform="translate(195.616544 300.573539)rotate(-55)scale(0.1 -0.1)">
       <use xlink:href="#DejaVuSans-99"/>
       <use x="54.980469" xlink:href="#DejaVuSans-97"/>
       <use x="116.259766" xlink:href="#DejaVuSans-116"/>
      </g>
     </g>
    </g>
    <g id="xtick_5">
     <g id="line2d_5">
      <g>
       <use style="stroke:#000000;stroke-width:0.8;" x="220.196571" xlink:href="#m5035e02a98" y="276.48"/>
      </g>
     </g>
     <g id="text_5">
      <!-- deer -->
      <g transform="translate(215.928006 306.486793)rotate(-55)scale(0.1 -0.1)">
       <use xlink:href="#DejaVuSans-100"/>
       <use x="63.476562" xlink:href="#DejaVuSans-101"/>
       <use x="125" xlink:href="#DejaVuSans-101"/>
       <use x="186.523438" xlink:href="#DejaVuSans-114"/>
      </g>
     </g>
    </g>
    <g id="xtick_6">
     <g id="line2d_6">
      <g>
       <use style="stroke:#000000;stroke-width:0.8;" x="242.578286" xlink:href="#m5035e02a98" y="276.48"/>
      </g>
     </g>
     <g id="text_6">
      <!-- dog -->
      <defs>
       <path d="M 45.40625 27.984375 
Q 45.40625 37.75 41.375 43.109375 
Q 37.359375 48.484375 30.078125 48.484375 
Q 22.859375 48.484375 18.828125 43.109375 
Q 14.796875 37.75 14.796875 27.984375 
Q 14.796875 18.265625 18.828125 12.890625 
Q 22.859375 7.515625 30.078125 7.515625 
Q 37.359375 7.515625 41.375 12.890625 
Q 45.40625 18.265625 45.40625 27.984375 
z
M 54.390625 6.78125 
Q 54.390625 -7.171875 48.1875 -13.984375 
Q 42 -20.796875 29.203125 -20.796875 
Q 24.46875 -20.796875 20.265625 -20.09375 
Q 16.0625 -19.390625 12.109375 -17.921875 
L 12.109375 -9.1875 
Q 16.0625 -11.328125 19.921875 -12.34375 
Q 23.78125 -13.375 27.78125 -13.375 
Q 36.625 -13.375 41.015625 -8.765625 
Q 45.40625 -4.15625 45.40625 5.171875 
L 45.40625 9.625 
Q 42.625 4.78125 38.28125 2.390625 
Q 33.9375 0 27.875 0 
Q 17.828125 0 11.671875 7.65625 
Q 5.515625 15.328125 5.515625 27.984375 
Q 5.515625 40.671875 11.671875 48.328125 
Q 17.828125 56 27.875 56 
Q 33.9375 56 38.28125 53.609375 
Q 42.625 51.21875 45.40625 46.390625 
L 45.40625 54.6875 
L 54.390625 54.6875 
z
" id="DejaVuSans-103"/>
      </defs>
      <g transform="translate(239.442534 303.251142)rotate(-55)scale(0.1 -0.1)">
       <use xlink:href="#DejaVuSans-100"/>
       <use x="63.476562" xlink:href="#DejaVuSans-111"/>
       <use x="124.658203" xlink:href="#DejaVuSans-103"/>
      </g>
     </g>
    </g>
    <g id="xtick_7">
     <g id="line2d_7">
      <g>
       <use style="stroke:#000000;stroke-width:0.8;" x="264.96" xlink:href="#m5035e02a98" y="276.48"/>
      </g>
     </g>
     <g id="text_7">
      <!-- frog -->
      <defs>
       <path d="M 37.109375 75.984375 
L 37.109375 68.5 
L 28.515625 68.5 
Q 23.6875 68.5 21.796875 66.546875 
Q 19.921875 64.59375 19.921875 59.515625 
L 19.921875 54.6875 
L 34.71875 54.6875 
L 34.71875 47.703125 
L 19.921875 47.703125 
L 19.921875 0 
L 10.890625 0 
L 10.890625 47.703125 
L 2.296875 47.703125 
L 2.296875 54.6875 
L 10.890625 54.6875 
L 10.890625 58.5 
Q 10.890625 67.625 15.140625 71.796875 
Q 19.390625 75.984375 28.609375 75.984375 
z
" id="DejaVuSans-102"/>
      </defs>
      <g transform="translate(261.457249 304.299401)rotate(-55)scale(0.1 -0.1)">
       <use xlink:href="#DejaVuSans-102"/>
       <use x="35.205078" xlink:href="#DejaVuSans-114"/>
       <use x="76.287109" xlink:href="#DejaVuSans-111"/>
       <use x="137.46875" xlink:href="#DejaVuSans-103"/>
      </g>
     </g>
    </g>
    <g id="xtick_8">
     <g id="line2d_8">
      <g>
       <use style="stroke:#000000;stroke-width:0.8;" x="287.341714" xlink:href="#m5035e02a98" y="276.48"/>
      </g>
     </g>
     <g id="text_8">
      <!-- horse -->
      <defs>
       <path d="M 54.890625 33.015625 
L 54.890625 0 
L 45.90625 0 
L 45.90625 32.71875 
Q 45.90625 40.484375 42.875 44.328125 
Q 39.84375 48.1875 33.796875 48.1875 
Q 26.515625 48.1875 22.3125 43.546875 
Q 18.109375 38.921875 18.109375 30.90625 
L 18.109375 0 
L 9.078125 0 
L 9.078125 75.984375 
L 18.109375 75.984375 
L 18.109375 46.1875 
Q 21.34375 51.125 25.703125 53.5625 
Q 30.078125 56 35.796875 56 
Q 45.21875 56 50.046875 50.171875 
Q 54.890625 44.34375 54.890625 33.015625 
z
" id="DejaVuSans-104"/>
       <path d="M 44.28125 53.078125 
L 44.28125 44.578125 
Q 40.484375 46.53125 36.375 47.5 
Q 32.28125 48.484375 27.875 48.484375 
Q 21.1875 48.484375 17.84375 46.4375 
Q 14.5 44.390625 14.5 40.28125 
Q 14.5 37.15625 16.890625 35.375 
Q 19.28125 33.59375 26.515625 31.984375 
L 29.59375 31.296875 
Q 39.15625 29.25 43.1875 25.515625 
Q 47.21875 21.78125 47.21875 15.09375 
Q 47.21875 7.46875 41.1875 3.015625 
Q 35.15625 -1.421875 24.609375 -1.421875 
Q 20.21875 -1.421875 15.453125 -0.5625 
Q 10.6875 0.296875 5.421875 2 
L 5.421875 11.28125 
Q 10.40625 8.6875 15.234375 7.390625 
Q 20.0625 6.109375 24.8125 6.109375 
Q 31.15625 6.109375 34.5625 8.28125 
Q 37.984375 10.453125 37.984375 14.40625 
Q 37.984375 18.0625 35.515625 20.015625 
Q 33.0625 21.96875 24.703125 23.78125 
L 21.578125 24.515625 
Q 13.234375 26.265625 9.515625 29.90625 
Q 5.8125 33.546875 5.8125 39.890625 
Q 5.8125 47.609375 11.28125 51.796875 
Q 16.75 56 26.8125 56 
Q 31.78125 56 36.171875 55.265625 
Q 40.578125 54.546875 44.28125 53.078125 
z
" id="DejaVuSans-115"/>
      </defs>
      <g transform="translate(281.592157 310.716945)rotate(-55)scale(0.1 -0.1)">
       <use xlink:href="#DejaVuSans-104"/>
       <use x="63.378906" xlink:href="#DejaVuSans-111"/>
       <use x="124.560547" xlink:href="#DejaVuSans-114"/>
       <use x="165.673828" xlink:href="#DejaVuSans-115"/>
       <use x="217.773438" xlink:href="#DejaVuSans-101"/>
      </g>
     </g>
    </g>
    <g id="xtick_9">
     <g id="line2d_9">
      <g>
       <use style="stroke:#000000;stroke-width:0.8;" x="309.723429" xlink:href="#m5035e02a98" y="276.48"/>
      </g>
     </g>
     <g id="text_9">
      <!-- ship -->
      <g transform="translate(306.054878 304.772973)rotate(-55)scale(0.1 -0.1)">
       <use xlink:href="#DejaVuSans-115"/>
       <use x="52.099609" xlink:href="#DejaVuSans-104"/>
       <use x="115.478516" xlink:href="#DejaVuSans-105"/>
       <use x="143.261719" xlink:href="#DejaVuSans-112"/>
      </g>
     </g>
    </g>
    <g id="xtick_10">
     <g id="line2d_10">
      <g>
       <use style="stroke:#000000;stroke-width:0.8;" x="332.105143" xlink:href="#m5035e02a98" y="276.48"/>
      </g>
     </g>
     <g id="text_10">
      <!-- truck -->
      <defs>
       <path d="M 9.078125 75.984375 
L 18.109375 75.984375 
L 18.109375 31.109375 
L 44.921875 54.6875 
L 56.390625 54.6875 
L 27.390625 29.109375 
L 57.625 0 
L 45.90625 0 
L 18.109375 26.703125 
L 18.109375 0 
L 9.078125 0 
z
" id="DejaVuSans-107"/>
      </defs>
      <g transform="translate(327.007132 308.855934)rotate(-55)scale(0.1 -0.1)">
       <use xlink:href="#DejaVuSans-116"/>
       <use x="39.208984" xlink:href="#DejaVuSans-114"/>
       <use x="80.322266" xlink:href="#DejaVuSans-117"/>
       <use x="143.701172" xlink:href="#DejaVuSans-99"/>
       <use x="198.681641" xlink:href="#DejaVuSans-107"/>
      </g>
     </g>
    </g>
   </g>
   <g id="matplotlib.axis_2">
    <g id="ytick_1">
     <g id="line2d_11">
      <defs>
       <path d="M 0 0 
L -3.5 0 
" id="m8922824cb4" style="stroke:#000000;stroke-width:0.8;"/>
      </defs>
      <g>
       <use style="stroke:#000000;stroke-width:0.8;" x="119.478857" xlink:href="#m8922824cb4" y="254.098286"/>
      </g>
     </g>
     <g id="text_11">
      <!-- airplane -->
      <g transform="translate(71.716357 257.897504)scale(0.1 -0.1)">
       <use xlink:href="#DejaVuSans-97"/>
       <use x="61.279297" xlink:href="#DejaVuSans-105"/>
       <use x="89.0625" xlink:href="#DejaVuSans-114"/>
       <use x="130.175781" xlink:href="#DejaVuSans-112"/>
       <use x="193.652344" xlink:href="#DejaVuSans-108"/>
       <use x="221.435547" xlink:href="#DejaVuSans-97"/>
       <use x="282.714844" xlink:href="#DejaVuSans-110"/>
       <use x="346.09375" xlink:href="#DejaVuSans-101"/>
      </g>
     </g>
    </g>
    <g id="ytick_2">
     <g id="line2d_12">
      <g>
       <use style="stroke:#000000;stroke-width:0.8;" x="119.478857" xlink:href="#m8922824cb4" y="231.716571"/>
      </g>
     </g>
     <g id="text_12">
      <!-- automobile -->
      <g transform="translate(56.056982 235.51579)scale(0.1 -0.1)">
       <use xlink:href="#DejaVuSans-97"/>
       <use x="61.279297" xlink:href="#DejaVuSans-117"/>
       <use x="124.658203" xlink:href="#DejaVuSans-116"/>
       <use x="163.867188" xlink:href="#DejaVuSans-111"/>
       <use x="225.048828" xlink:href="#DejaVuSans-109"/>
       <use x="322.460938" xlink:href="#DejaVuSans-111"/>
       <use x="383.642578" xlink:href="#DejaVuSans-98"/>
       <use x="447.119141" xlink:href="#DejaVuSans-105"/>
       <use x="474.902344" xlink:href="#DejaVuSans-108"/>
       <use x="502.685547" xlink:href="#DejaVuSans-101"/>
      </g>
     </g>
    </g>
    <g id="ytick_3">
     <g id="line2d_13">
      <g>
       <use style="stroke:#000000;stroke-width:0.8;" x="119.478857" xlink:href="#m8922824cb4" y="209.334857"/>
      </g>
     </g>
     <g id="text_13">
      <!-- bird -->
      <g transform="translate(92.894482 213.134076)scale(0.1 -0.1)">
       <use xlink:href="#DejaVuSans-98"/>
       <use x="63.476562" xlink:href="#DejaVuSans-105"/>
       <use x="91.259766" xlink:href="#DejaVuSans-114"/>
       <use x="132.357422" xlink:href="#DejaVuSans-100"/>
      </g>
     </g>
    </g>
    <g id="ytick_4">
     <g id="line2d_14">
      <g>
       <use style="stroke:#000000;stroke-width:0.8;" x="119.478857" xlink:href="#m8922824cb4" y="186.953143"/>
      </g>
     </g>
     <g id="text_14">
      <!-- cat -->
      <g transform="translate(96.931982 190.752362)scale(0.1 -0.1)">
       <use xlink:href="#DejaVuSans-99"/>
       <use x="54.980469" xlink:href="#DejaVuSans-97"/>
       <use x="116.259766" xlink:href="#DejaVuSans-116"/>
      </g>
     </g>
    </g>
    <g id="ytick_5">
     <g id="line2d_15">
      <g>
       <use style="stroke:#000000;stroke-width:0.8;" x="119.478857" xlink:href="#m8922824cb4" y="164.571429"/>
      </g>
     </g>
     <g id="text_15">
      <!-- deer -->
      <g transform="translate(89.713232 168.370647)scale(0.1 -0.1)">
       <use xlink:href="#DejaVuSans-100"/>
       <use x="63.476562" xlink:href="#DejaVuSans-101"/>
       <use x="125" xlink:href="#DejaVuSans-101"/>
       <use x="186.523438" xlink:href="#DejaVuSans-114"/>
      </g>
     </g>
    </g>
    <g id="ytick_6">
     <g id="line2d_16">
      <g>
       <use style="stroke:#000000;stroke-width:0.8;" x="119.478857" xlink:href="#m8922824cb4" y="142.189714"/>
      </g>
     </g>
     <g id="text_16">
      <!-- dog -->
      <g transform="translate(93.663232 145.988933)scale(0.1 -0.1)">
       <use xlink:href="#DejaVuSans-100"/>
       <use x="63.476562" xlink:href="#DejaVuSans-111"/>
       <use x="124.658203" xlink:href="#DejaVuSans-103"/>
      </g>
     </g>
    </g>
    <g id="ytick_7">
     <g id="line2d_17">
      <g>
       <use style="stroke:#000000;stroke-width:0.8;" x="119.478857" xlink:href="#m8922824cb4" y="119.808"/>
      </g>
     </g>
     <g id="text_17">
      <!-- frog -->
      <g transform="translate(92.383545 123.607219)scale(0.1 -0.1)">
       <use xlink:href="#DejaVuSans-102"/>
       <use x="35.205078" xlink:href="#DejaVuSans-114"/>
       <use x="76.287109" xlink:href="#DejaVuSans-111"/>
       <use x="137.46875" xlink:href="#DejaVuSans-103"/>
      </g>
     </g>
    </g>
    <g id="ytick_8">
     <g id="line2d_18">
      <g>
       <use style="stroke:#000000;stroke-width:0.8;" x="119.478857" xlink:href="#m8922824cb4" y="97.426286"/>
      </g>
     </g>
     <g id="text_18">
      <!-- horse -->
      <g transform="translate(84.54917 101.225504)scale(0.1 -0.1)">
       <use xlink:href="#DejaVuSans-104"/>
       <use x="63.378906" xlink:href="#DejaVuSans-111"/>
       <use x="124.560547" xlink:href="#DejaVuSans-114"/>
       <use x="165.673828" xlink:href="#DejaVuSans-115"/>
       <use x="217.773438" xlink:href="#DejaVuSans-101"/>
      </g>
     </g>
    </g>
    <g id="ytick_9">
     <g id="line2d_19">
      <g>
       <use style="stroke:#000000;stroke-width:0.8;" x="119.478857" xlink:href="#m8922824cb4" y="75.044571"/>
      </g>
     </g>
     <g id="text_19">
      <!-- ship -->
      <g transform="translate(91.80542 78.84379)scale(0.1 -0.1)">
       <use xlink:href="#DejaVuSans-115"/>
       <use x="52.099609" xlink:href="#DejaVuSans-104"/>
       <use x="115.478516" xlink:href="#DejaVuSans-105"/>
       <use x="143.261719" xlink:href="#DejaVuSans-112"/>
      </g>
     </g>
    </g>
    <g id="ytick_10">
     <g id="line2d_20">
      <g>
       <use style="stroke:#000000;stroke-width:0.8;" x="119.478857" xlink:href="#m8922824cb4" y="52.662857"/>
      </g>
     </g>
     <g id="text_20">
      <!-- truck -->
      <g transform="translate(86.821045 56.462076)scale(0.1 -0.1)">
       <use xlink:href="#DejaVuSans-116"/>
       <use x="39.208984" xlink:href="#DejaVuSans-114"/>
       <use x="80.322266" xlink:href="#DejaVuSans-117"/>
       <use x="143.701172" xlink:href="#DejaVuSans-99"/>
       <use x="198.681641" xlink:href="#DejaVuSans-107"/>
      </g>
     </g>
    </g>
   </g>
   <g id="text_21">
    <!-- 815 -->
    <defs>
     <path d="M 31.78125 34.625 
Q 24.75 34.625 20.71875 30.859375 
Q 16.703125 27.09375 16.703125 20.515625 
Q 16.703125 13.921875 20.71875 10.15625 
Q 24.75 6.390625 31.78125 6.390625 
Q 38.8125 6.390625 42.859375 10.171875 
Q 46.921875 13.96875 46.921875 20.515625 
Q 46.921875 27.09375 42.890625 30.859375 
Q 38.875 34.625 31.78125 34.625 
z
M 21.921875 38.8125 
Q 15.578125 40.375 12.03125 44.71875 
Q 8.5 49.078125 8.5 55.328125 
Q 8.5 64.0625 14.71875 69.140625 
Q 20.953125 74.21875 31.78125 74.21875 
Q 42.671875 74.21875 48.875 69.140625 
Q 55.078125 64.0625 55.078125 55.328125 
Q 55.078125 49.078125 51.53125 44.71875 
Q 48 40.375 41.703125 38.8125 
Q 48.828125 37.15625 52.796875 32.3125 
Q 56.78125 27.484375 56.78125 20.515625 
Q 56.78125 9.90625 50.3125 4.234375 
Q 43.84375 -1.421875 31.78125 -1.421875 
Q 19.734375 -1.421875 13.25 4.234375 
Q 6.78125 9.90625 6.78125 20.515625 
Q 6.78125 27.484375 10.78125 32.3125 
Q 14.796875 37.15625 21.921875 38.8125 
z
M 18.3125 54.390625 
Q 18.3125 48.734375 21.84375 45.5625 
Q 25.390625 42.390625 31.78125 42.390625 
Q 38.140625 42.390625 41.71875 45.5625 
Q 45.3125 48.734375 45.3125 54.390625 
Q 45.3125 60.0625 41.71875 63.234375 
Q 38.140625 66.40625 31.78125 66.40625 
Q 25.390625 66.40625 21.84375 63.234375 
Q 18.3125 60.0625 18.3125 54.390625 
z
" id="DejaVuSans-56"/>
     <path d="M 12.40625 8.296875 
L 28.515625 8.296875 
L 28.515625 63.921875 
L 10.984375 60.40625 
L 10.984375 69.390625 
L 28.421875 72.90625 
L 38.28125 72.90625 
L 38.28125 8.296875 
L 54.390625 8.296875 
L 54.390625 0 
L 12.40625 0 
z
" id="DejaVuSans-49"/>
     <path d="M 10.796875 72.90625 
L 49.515625 72.90625 
L 49.515625 64.59375 
L 19.828125 64.59375 
L 19.828125 46.734375 
Q 21.96875 47.46875 24.109375 47.828125 
Q 26.265625 48.1875 28.421875 48.1875 
Q 40.625 48.1875 47.75 41.5 
Q 54.890625 34.8125 54.890625 23.390625 
Q 54.890625 11.625 47.5625 5.09375 
Q 40.234375 -1.421875 26.90625 -1.421875 
Q 22.3125 -1.421875 17.546875 -0.640625 
Q 12.796875 0.140625 7.71875 1.703125 
L 7.71875 11.625 
Q 12.109375 9.234375 16.796875 8.0625 
Q 21.484375 6.890625 26.703125 6.890625 
Q 35.15625 6.890625 40.078125 11.328125 
Q 45.015625 15.765625 45.015625 23.390625 
Q 45.015625 31 40.078125 35.4375 
Q 35.15625 39.890625 26.703125 39.890625 
Q 22.75 39.890625 18.8125 39.015625 
Q 14.890625 38.140625 10.796875 36.28125 
z
" id="DejaVuSans-53"/>
    </defs>
    <g style="fill:#ffffff;" transform="translate(121.125964 256.857661)scale(0.1 -0.1)">
     <use xlink:href="#DejaVuSans-56"/>
     <use x="63.623047" xlink:href="#DejaVuSans-49"/>
     <use x="127.246094" xlink:href="#DejaVuSans-53"/>
    </g>
   </g>
   <g id="text_22">
    <!-- 17 -->
    <defs>
     <path d="M 8.203125 72.90625 
L 55.078125 72.90625 
L 55.078125 68.703125 
L 28.609375 0 
L 18.3125 0 
L 43.21875 64.59375 
L 8.203125 64.59375 
z
" id="DejaVuSans-55"/>
    </defs>
    <g style="fill:#262626;" transform="translate(146.688929 256.857661)scale(0.1 -0.1)">
     <use xlink:href="#DejaVuSans-49"/>
     <use x="63.623047" xlink:href="#DejaVuSans-55"/>
    </g>
   </g>
   <g id="text_23">
    <!-- 46 -->
    <defs>
     <path d="M 37.796875 64.3125 
L 12.890625 25.390625 
L 37.796875 25.390625 
z
M 35.203125 72.90625 
L 47.609375 72.90625 
L 47.609375 25.390625 
L 58.015625 25.390625 
L 58.015625 17.1875 
L 47.609375 17.1875 
L 47.609375 0 
L 37.796875 0 
L 37.796875 17.1875 
L 4.890625 17.1875 
L 4.890625 26.703125 
z
" id="DejaVuSans-52"/>
     <path d="M 33.015625 40.375 
Q 26.375 40.375 22.484375 35.828125 
Q 18.609375 31.296875 18.609375 23.390625 
Q 18.609375 15.53125 22.484375 10.953125 
Q 26.375 6.390625 33.015625 6.390625 
Q 39.65625 6.390625 43.53125 10.953125 
Q 47.40625 15.53125 47.40625 23.390625 
Q 47.40625 31.296875 43.53125 35.828125 
Q 39.65625 40.375 33.015625 40.375 
z
M 52.59375 71.296875 
L 52.59375 62.3125 
Q 48.875 64.0625 45.09375 64.984375 
Q 41.3125 65.921875 37.59375 65.921875 
Q 27.828125 65.921875 22.671875 59.328125 
Q 17.53125 52.734375 16.796875 39.40625 
Q 19.671875 43.65625 24.015625 45.921875 
Q 28.375 48.1875 33.59375 48.1875 
Q 44.578125 48.1875 50.953125 41.515625 
Q 57.328125 34.859375 57.328125 23.390625 
Q 57.328125 12.15625 50.6875 5.359375 
Q 44.046875 -1.421875 33.015625 -1.421875 
Q 20.359375 -1.421875 13.671875 8.265625 
Q 6.984375 17.96875 6.984375 36.375 
Q 6.984375 53.65625 15.1875 63.9375 
Q 23.390625 74.21875 37.203125 74.21875 
Q 40.921875 74.21875 44.703125 73.484375 
Q 48.484375 72.75 52.59375 71.296875 
z
" id="DejaVuSans-54"/>
    </defs>
    <g style="fill:#262626;" transform="translate(169.070643 256.857661)scale(0.1 -0.1)">
     <use xlink:href="#DejaVuSans-52"/>
     <use x="63.623047" xlink:href="#DejaVuSans-54"/>
    </g>
   </g>
   <g id="text_24">
    <!-- 12 -->
    <defs>
     <path d="M 19.1875 8.296875 
L 53.609375 8.296875 
L 53.609375 0 
L 7.328125 0 
L 7.328125 8.296875 
Q 12.9375 14.109375 22.625 23.890625 
Q 32.328125 33.6875 34.8125 36.53125 
Q 39.546875 41.84375 41.421875 45.53125 
Q 43.3125 49.21875 43.3125 52.78125 
Q 43.3125 58.59375 39.234375 62.25 
Q 35.15625 65.921875 28.609375 65.921875 
Q 23.96875 65.921875 18.8125 64.3125 
Q 13.671875 62.703125 7.8125 59.421875 
L 7.8125 69.390625 
Q 13.765625 71.78125 18.9375 73 
Q 24.125 74.21875 28.421875 74.21875 
Q 39.75 74.21875 46.484375 68.546875 
Q 53.21875 62.890625 53.21875 53.421875 
Q 53.21875 48.921875 51.53125 44.890625 
Q 49.859375 40.875 45.40625 35.40625 
Q 44.1875 33.984375 37.640625 27.21875 
Q 31.109375 20.453125 19.1875 8.296875 
z
" id="DejaVuSans-50"/>
    </defs>
    <g style="fill:#262626;" transform="translate(191.452357 256.857661)scale(0.1 -0.1)">
     <use xlink:href="#DejaVuSans-49"/>
     <use x="63.623047" xlink:href="#DejaVuSans-50"/>
    </g>
   </g>
   <g id="text_25">
    <!-- 19 -->
    <defs>
     <path d="M 10.984375 1.515625 
L 10.984375 10.5 
Q 14.703125 8.734375 18.5 7.8125 
Q 22.3125 6.890625 25.984375 6.890625 
Q 35.75 6.890625 40.890625 13.453125 
Q 46.046875 20.015625 46.78125 33.40625 
Q 43.953125 29.203125 39.59375 26.953125 
Q 35.25 24.703125 29.984375 24.703125 
Q 19.046875 24.703125 12.671875 31.3125 
Q 6.296875 37.9375 6.296875 49.421875 
Q 6.296875 60.640625 12.9375 67.421875 
Q 19.578125 74.21875 30.609375 74.21875 
Q 43.265625 74.21875 49.921875 64.515625 
Q 56.59375 54.828125 56.59375 36.375 
Q 56.59375 19.140625 48.40625 8.859375 
Q 40.234375 -1.421875 26.421875 -1.421875 
Q 22.703125 -1.421875 18.890625 -0.6875 
Q 15.09375 0.046875 10.984375 1.515625 
z
M 30.609375 32.421875 
Q 37.25 32.421875 41.125 36.953125 
Q 45.015625 41.5 45.015625 49.421875 
Q 45.015625 57.28125 41.125 61.84375 
Q 37.25 66.40625 30.609375 66.40625 
Q 23.96875 66.40625 20.09375 61.84375 
Q 16.21875 57.28125 16.21875 49.421875 
Q 16.21875 41.5 20.09375 36.953125 
Q 23.96875 32.421875 30.609375 32.421875 
z
" id="DejaVuSans-57"/>
    </defs>
    <g style="fill:#262626;" transform="translate(213.834071 256.857661)scale(0.1 -0.1)">
     <use xlink:href="#DejaVuSans-49"/>
     <use x="63.623047" xlink:href="#DejaVuSans-57"/>
    </g>
   </g>
   <g id="text_26">
    <!-- 8 -->
    <g style="fill:#262626;" transform="translate(239.397036 256.857661)scale(0.1 -0.1)">
     <use xlink:href="#DejaVuSans-56"/>
    </g>
   </g>
   <g id="text_27">
    <!-- 8 -->
    <g style="fill:#262626;" transform="translate(261.77875 256.857661)scale(0.1 -0.1)">
     <use xlink:href="#DejaVuSans-56"/>
    </g>
   </g>
   <g id="text_28">
    <!-- 15 -->
    <g style="fill:#262626;" transform="translate(280.979214 256.857661)scale(0.1 -0.1)">
     <use xlink:href="#DejaVuSans-49"/>
     <use x="63.623047" xlink:href="#DejaVuSans-53"/>
    </g>
   </g>
   <g id="text_29">
    <!-- 36 -->
    <defs>
     <path d="M 40.578125 39.3125 
Q 47.65625 37.796875 51.625 33 
Q 55.609375 28.21875 55.609375 21.1875 
Q 55.609375 10.40625 48.1875 4.484375 
Q 40.765625 -1.421875 27.09375 -1.421875 
Q 22.515625 -1.421875 17.65625 -0.515625 
Q 12.796875 0.390625 7.625 2.203125 
L 7.625 11.71875 
Q 11.71875 9.328125 16.59375 8.109375 
Q 21.484375 6.890625 26.8125 6.890625 
Q 36.078125 6.890625 40.9375 10.546875 
Q 45.796875 14.203125 45.796875 21.1875 
Q 45.796875 27.640625 41.28125 31.265625 
Q 36.765625 34.90625 28.71875 34.90625 
L 20.21875 34.90625 
L 20.21875 43.015625 
L 29.109375 43.015625 
Q 36.375 43.015625 40.234375 45.921875 
Q 44.09375 48.828125 44.09375 54.296875 
Q 44.09375 59.90625 40.109375 62.90625 
Q 36.140625 65.921875 28.71875 65.921875 
Q 24.65625 65.921875 20.015625 65.03125 
Q 15.375 64.15625 9.8125 62.3125 
L 9.8125 71.09375 
Q 15.4375 72.65625 20.34375 73.4375 
Q 25.25 74.21875 29.59375 74.21875 
Q 40.828125 74.21875 47.359375 69.109375 
Q 53.90625 64.015625 53.90625 55.328125 
Q 53.90625 49.265625 50.4375 45.09375 
Q 46.96875 40.921875 40.578125 39.3125 
z
" id="DejaVuSans-51"/>
    </defs>
    <g style="fill:#262626;" transform="translate(303.360929 256.857661)scale(0.1 -0.1)">
     <use xlink:href="#DejaVuSans-51"/>
     <use x="63.623047" xlink:href="#DejaVuSans-54"/>
    </g>
   </g>
   <g id="text_30">
    <!-- 24 -->
    <g style="fill:#262626;" transform="translate(325.742643 256.857661)scale(0.1 -0.1)">
     <use xlink:href="#DejaVuSans-50"/>
     <use x="63.623047" xlink:href="#DejaVuSans-52"/>
    </g>
   </g>
   <g id="text_31">
    <!-- 32 -->
    <g style="fill:#262626;" transform="translate(124.307214 234.475946)scale(0.1 -0.1)">
     <use xlink:href="#DejaVuSans-51"/>
     <use x="63.623047" xlink:href="#DejaVuSans-50"/>
    </g>
   </g>
   <g id="text_32">
    <!-- 849 -->
    <g style="fill:#ffffff;" transform="translate(143.507679 234.475946)scale(0.1 -0.1)">
     <use xlink:href="#DejaVuSans-56"/>
     <use x="63.623047" xlink:href="#DejaVuSans-52"/>
     <use x="127.246094" xlink:href="#DejaVuSans-57"/>
    </g>
   </g>
   <g id="text_33">
    <!-- 8 -->
    <g style="fill:#262626;" transform="translate(172.251893 234.475946)scale(0.1 -0.1)">
     <use xlink:href="#DejaVuSans-56"/>
    </g>
   </g>
   <g id="text_34">
    <!-- 6 -->
    <g style="fill:#262626;" transform="translate(194.633607 234.475946)scale(0.1 -0.1)">
     <use xlink:href="#DejaVuSans-54"/>
    </g>
   </g>
   <g id="text_35">
    <!-- 6 -->
    <g style="fill:#262626;" transform="translate(217.015321 234.475946)scale(0.1 -0.1)">
     <use xlink:href="#DejaVuSans-54"/>
    </g>
   </g>
   <g id="text_36">
    <!-- 3 -->
    <g style="fill:#262626;" transform="translate(239.397036 234.475946)scale(0.1 -0.1)">
     <use xlink:href="#DejaVuSans-51"/>
    </g>
   </g>
   <g id="text_37">
    <!-- 9 -->
    <g style="fill:#262626;" transform="translate(261.77875 234.475946)scale(0.1 -0.1)">
     <use xlink:href="#DejaVuSans-57"/>
    </g>
   </g>
   <g id="text_38">
    <!-- 0 -->
    <defs>
     <path d="M 31.78125 66.40625 
Q 24.171875 66.40625 20.328125 58.90625 
Q 16.5 51.421875 16.5 36.375 
Q 16.5 21.390625 20.328125 13.890625 
Q 24.171875 6.390625 31.78125 6.390625 
Q 39.453125 6.390625 43.28125 13.890625 
Q 47.125 21.390625 47.125 36.375 
Q 47.125 51.421875 43.28125 58.90625 
Q 39.453125 66.40625 31.78125 66.40625 
z
M 31.78125 74.21875 
Q 44.046875 74.21875 50.515625 64.515625 
Q 56.984375 54.828125 56.984375 36.375 
Q 56.984375 17.96875 50.515625 8.265625 
Q 44.046875 -1.421875 31.78125 -1.421875 
Q 19.53125 -1.421875 13.0625 8.265625 
Q 6.59375 17.96875 6.59375 36.375 
Q 6.59375 54.828125 13.0625 64.515625 
Q 19.53125 74.21875 31.78125 74.21875 
z
" id="DejaVuSans-48"/>
    </defs>
    <g style="fill:#262626;" transform="translate(284.160464 234.475946)scale(0.1 -0.1)">
     <use xlink:href="#DejaVuSans-48"/>
    </g>
   </g>
   <g id="text_39">
    <!-- 11 -->
    <g style="fill:#262626;" transform="translate(303.360929 234.475946)scale(0.1 -0.1)">
     <use xlink:href="#DejaVuSans-49"/>
     <use x="63.623047" xlink:href="#DejaVuSans-49"/>
    </g>
   </g>
   <g id="text_40">
    <!-- 76 -->
    <g style="fill:#262626;" transform="translate(325.742643 234.475946)scale(0.1 -0.1)">
     <use xlink:href="#DejaVuSans-55"/>
     <use x="63.623047" xlink:href="#DejaVuSans-54"/>
    </g>
   </g>
   <g id="text_41">
    <!-- 73 -->
    <g style="fill:#262626;" transform="translate(124.307214 212.094232)scale(0.1 -0.1)">
     <use xlink:href="#DejaVuSans-55"/>
     <use x="63.623047" xlink:href="#DejaVuSans-51"/>
    </g>
   </g>
   <g id="text_42">
    <!-- 4 -->
    <g style="fill:#262626;" transform="translate(149.870179 212.094232)scale(0.1 -0.1)">
     <use xlink:href="#DejaVuSans-52"/>
    </g>
   </g>
   <g id="text_43">
    <!-- 591 -->
    <g style="fill:#ffffff;" transform="translate(165.889393 212.094232)scale(0.1 -0.1)">
     <use xlink:href="#DejaVuSans-53"/>
     <use x="63.623047" xlink:href="#DejaVuSans-57"/>
     <use x="127.246094" xlink:href="#DejaVuSans-49"/>
    </g>
   </g>
   <g id="text_44">
    <!-- 42 -->
    <g style="fill:#262626;" transform="translate(191.452357 212.094232)scale(0.1 -0.1)">
     <use xlink:href="#DejaVuSans-52"/>
     <use x="63.623047" xlink:href="#DejaVuSans-50"/>
    </g>
   </g>
   <g id="text_45">
    <!-- 78 -->
    <g style="fill:#262626;" transform="translate(213.834071 212.094232)scale(0.1 -0.1)">
     <use xlink:href="#DejaVuSans-55"/>
     <use x="63.623047" xlink:href="#DejaVuSans-56"/>
    </g>
   </g>
   <g id="text_46">
    <!-- 89 -->
    <g style="fill:#262626;" transform="translate(236.215786 212.094232)scale(0.1 -0.1)">
     <use xlink:href="#DejaVuSans-56"/>
     <use x="63.623047" xlink:href="#DejaVuSans-57"/>
    </g>
   </g>
   <g id="text_47">
    <!-- 78 -->
    <g style="fill:#262626;" transform="translate(258.5975 212.094232)scale(0.1 -0.1)">
     <use xlink:href="#DejaVuSans-55"/>
     <use x="63.623047" xlink:href="#DejaVuSans-56"/>
    </g>
   </g>
   <g id="text_48">
    <!-- 27 -->
    <g style="fill:#262626;" transform="translate(280.979214 212.094232)scale(0.1 -0.1)">
     <use xlink:href="#DejaVuSans-50"/>
     <use x="63.623047" xlink:href="#DejaVuSans-55"/>
    </g>
   </g>
   <g id="text_49">
    <!-- 6 -->
    <g style="fill:#262626;" transform="translate(306.542179 212.094232)scale(0.1 -0.1)">
     <use xlink:href="#DejaVuSans-54"/>
    </g>
   </g>
   <g id="text_50">
    <!-- 12 -->
    <g style="fill:#262626;" transform="translate(325.742643 212.094232)scale(0.1 -0.1)">
     <use xlink:href="#DejaVuSans-49"/>
     <use x="63.623047" xlink:href="#DejaVuSans-50"/>
    </g>
   </g>
   <g id="text_51">
    <!-- 31 -->
    <g style="fill:#262626;" transform="translate(124.307214 189.712518)scale(0.1 -0.1)">
     <use xlink:href="#DejaVuSans-51"/>
     <use x="63.623047" xlink:href="#DejaVuSans-49"/>
    </g>
   </g>
   <g id="text_52">
    <!-- 11 -->
    <g style="fill:#262626;" transform="translate(146.688929 189.712518)scale(0.1 -0.1)">
     <use xlink:href="#DejaVuSans-49"/>
     <use x="63.623047" xlink:href="#DejaVuSans-49"/>
    </g>
   </g>
   <g id="text_53">
    <!-- 69 -->
    <g style="fill:#262626;" transform="translate(169.070643 189.712518)scale(0.1 -0.1)">
     <use xlink:href="#DejaVuSans-54"/>
     <use x="63.623047" xlink:href="#DejaVuSans-57"/>
    </g>
   </g>
   <g id="text_54">
    <!-- 435 -->
    <g style="fill:#ffffff;" transform="translate(188.271107 189.712518)scale(0.1 -0.1)">
     <use xlink:href="#DejaVuSans-52"/>
     <use x="63.623047" xlink:href="#DejaVuSans-51"/>
     <use x="127.246094" xlink:href="#DejaVuSans-53"/>
    </g>
   </g>
   <g id="text_55">
    <!-- 67 -->
    <g style="fill:#262626;" transform="translate(213.834071 189.712518)scale(0.1 -0.1)">
     <use xlink:href="#DejaVuSans-54"/>
     <use x="63.623047" xlink:href="#DejaVuSans-55"/>
    </g>
   </g>
   <g id="text_56">
    <!-- 238 -->
    <g style="fill:#262626;" transform="translate(233.034536 189.712518)scale(0.1 -0.1)">
     <use xlink:href="#DejaVuSans-50"/>
     <use x="63.623047" xlink:href="#DejaVuSans-51"/>
     <use x="127.246094" xlink:href="#DejaVuSans-56"/>
    </g>
   </g>
   <g id="text_57">
    <!-- 86 -->
    <g style="fill:#262626;" transform="translate(258.5975 189.712518)scale(0.1 -0.1)">
     <use xlink:href="#DejaVuSans-56"/>
     <use x="63.623047" xlink:href="#DejaVuSans-54"/>
    </g>
   </g>
   <g id="text_58">
    <!-- 27 -->
    <g style="fill:#262626;" transform="translate(280.979214 189.712518)scale(0.1 -0.1)">
     <use xlink:href="#DejaVuSans-50"/>
     <use x="63.623047" xlink:href="#DejaVuSans-55"/>
    </g>
   </g>
   <g id="text_59">
    <!-- 15 -->
    <g style="fill:#262626;" transform="translate(303.360929 189.712518)scale(0.1 -0.1)">
     <use xlink:href="#DejaVuSans-49"/>
     <use x="63.623047" xlink:href="#DejaVuSans-53"/>
    </g>
   </g>
   <g id="text_60">
    <!-- 21 -->
    <g style="fill:#262626;" transform="translate(325.742643 189.712518)scale(0.1 -0.1)">
     <use xlink:href="#DejaVuSans-50"/>
     <use x="63.623047" xlink:href="#DejaVuSans-49"/>
    </g>
   </g>
   <g id="text_61">
    <!-- 25 -->
    <g style="fill:#262626;" transform="translate(124.307214 167.330804)scale(0.1 -0.1)">
     <use xlink:href="#DejaVuSans-50"/>
     <use x="63.623047" xlink:href="#DejaVuSans-53"/>
    </g>
   </g>
   <g id="text_62">
    <!-- 6 -->
    <g style="fill:#262626;" transform="translate(149.870179 167.330804)scale(0.1 -0.1)">
     <use xlink:href="#DejaVuSans-54"/>
    </g>
   </g>
   <g id="text_63">
    <!-- 73 -->
    <g style="fill:#262626;" transform="translate(169.070643 167.330804)scale(0.1 -0.1)">
     <use xlink:href="#DejaVuSans-55"/>
     <use x="63.623047" xlink:href="#DejaVuSans-51"/>
    </g>
   </g>
   <g id="text_64">
    <!-- 40 -->
    <g style="fill:#262626;" transform="translate(191.452357 167.330804)scale(0.1 -0.1)">
     <use xlink:href="#DejaVuSans-52"/>
     <use x="63.623047" xlink:href="#DejaVuSans-48"/>
    </g>
   </g>
   <g id="text_65">
    <!-- 700 -->
    <g style="fill:#ffffff;" transform="translate(210.652821 167.330804)scale(0.1 -0.1)">
     <use xlink:href="#DejaVuSans-55"/>
     <use x="63.623047" xlink:href="#DejaVuSans-48"/>
     <use x="127.246094" xlink:href="#DejaVuSans-48"/>
    </g>
   </g>
   <g id="text_66">
    <!-- 40 -->
    <g style="fill:#262626;" transform="translate(236.215786 167.330804)scale(0.1 -0.1)">
     <use xlink:href="#DejaVuSans-52"/>
     <use x="63.623047" xlink:href="#DejaVuSans-48"/>
    </g>
   </g>
   <g id="text_67">
    <!-- 65 -->
    <g style="fill:#262626;" transform="translate(258.5975 167.330804)scale(0.1 -0.1)">
     <use xlink:href="#DejaVuSans-54"/>
     <use x="63.623047" xlink:href="#DejaVuSans-53"/>
    </g>
   </g>
   <g id="text_68">
    <!-- 39 -->
    <g style="fill:#262626;" transform="translate(280.979214 167.330804)scale(0.1 -0.1)">
     <use xlink:href="#DejaVuSans-51"/>
     <use x="63.623047" xlink:href="#DejaVuSans-57"/>
    </g>
   </g>
   <g id="text_69">
    <!-- 8 -->
    <g style="fill:#262626;" transform="translate(306.542179 167.330804)scale(0.1 -0.1)">
     <use xlink:href="#DejaVuSans-56"/>
    </g>
   </g>
   <g id="text_70">
    <!-- 4 -->
    <g style="fill:#262626;" transform="translate(328.923893 167.330804)scale(0.1 -0.1)">
     <use xlink:href="#DejaVuSans-52"/>
    </g>
   </g>
   <g id="text_71">
    <!-- 15 -->
    <g style="fill:#262626;" transform="translate(124.307214 144.949089)scale(0.1 -0.1)">
     <use xlink:href="#DejaVuSans-49"/>
     <use x="63.623047" xlink:href="#DejaVuSans-53"/>
    </g>
   </g>
   <g id="text_72">
    <!-- 2 -->
    <g style="fill:#262626;" transform="translate(149.870179 144.949089)scale(0.1 -0.1)">
     <use xlink:href="#DejaVuSans-50"/>
    </g>
   </g>
   <g id="text_73">
    <!-- 64 -->
    <g style="fill:#262626;" transform="translate(169.070643 144.949089)scale(0.1 -0.1)">
     <use xlink:href="#DejaVuSans-54"/>
     <use x="63.623047" xlink:href="#DejaVuSans-52"/>
    </g>
   </g>
   <g id="text_74">
    <!-- 82 -->
    <g style="fill:#262626;" transform="translate(191.452357 144.949089)scale(0.1 -0.1)">
     <use xlink:href="#DejaVuSans-56"/>
     <use x="63.623047" xlink:href="#DejaVuSans-50"/>
    </g>
   </g>
   <g id="text_75">
    <!-- 50 -->
    <g style="fill:#262626;" transform="translate(213.834071 144.949089)scale(0.1 -0.1)">
     <use xlink:href="#DejaVuSans-53"/>
     <use x="63.623047" xlink:href="#DejaVuSans-48"/>
    </g>
   </g>
   <g id="text_76">
    <!-- 707 -->
    <g style="fill:#ffffff;" transform="translate(233.034536 144.949089)scale(0.1 -0.1)">
     <use xlink:href="#DejaVuSans-55"/>
     <use x="63.623047" xlink:href="#DejaVuSans-48"/>
     <use x="127.246094" xlink:href="#DejaVuSans-55"/>
    </g>
   </g>
   <g id="text_77">
    <!-- 31 -->
    <g style="fill:#262626;" transform="translate(258.5975 144.949089)scale(0.1 -0.1)">
     <use xlink:href="#DejaVuSans-51"/>
     <use x="63.623047" xlink:href="#DejaVuSans-49"/>
    </g>
   </g>
   <g id="text_78">
    <!-- 40 -->
    <g style="fill:#262626;" transform="translate(280.979214 144.949089)scale(0.1 -0.1)">
     <use xlink:href="#DejaVuSans-52"/>
     <use x="63.623047" xlink:href="#DejaVuSans-48"/>
    </g>
   </g>
   <g id="text_79">
    <!-- 5 -->
    <g style="fill:#262626;" transform="translate(306.542179 144.949089)scale(0.1 -0.1)">
     <use xlink:href="#DejaVuSans-53"/>
    </g>
   </g>
   <g id="text_80">
    <!-- 4 -->
    <g style="fill:#262626;" transform="translate(328.923893 144.949089)scale(0.1 -0.1)">
     <use xlink:href="#DejaVuSans-52"/>
    </g>
   </g>
   <g id="text_81">
    <!-- 7 -->
    <g style="fill:#262626;" transform="translate(127.488464 122.567375)scale(0.1 -0.1)">
     <use xlink:href="#DejaVuSans-55"/>
    </g>
   </g>
   <g id="text_82">
    <!-- 13 -->
    <g style="fill:#262626;" transform="translate(146.688929 122.567375)scale(0.1 -0.1)">
     <use xlink:href="#DejaVuSans-49"/>
     <use x="63.623047" xlink:href="#DejaVuSans-51"/>
    </g>
   </g>
   <g id="text_83">
    <!-- 44 -->
    <g style="fill:#262626;" transform="translate(169.070643 122.567375)scale(0.1 -0.1)">
     <use xlink:href="#DejaVuSans-52"/>
     <use x="63.623047" xlink:href="#DejaVuSans-52"/>
    </g>
   </g>
   <g id="text_84">
    <!-- 36 -->
    <g style="fill:#262626;" transform="translate(191.452357 122.567375)scale(0.1 -0.1)">
     <use xlink:href="#DejaVuSans-51"/>
     <use x="63.623047" xlink:href="#DejaVuSans-54"/>
    </g>
   </g>
   <g id="text_85">
    <!-- 31 -->
    <g style="fill:#262626;" transform="translate(213.834071 122.567375)scale(0.1 -0.1)">
     <use xlink:href="#DejaVuSans-51"/>
     <use x="63.623047" xlink:href="#DejaVuSans-49"/>
    </g>
   </g>
   <g id="text_86">
    <!-- 34 -->
    <g style="fill:#262626;" transform="translate(236.215786 122.567375)scale(0.1 -0.1)">
     <use xlink:href="#DejaVuSans-51"/>
     <use x="63.623047" xlink:href="#DejaVuSans-52"/>
    </g>
   </g>
   <g id="text_87">
    <!-- 817 -->
    <g style="fill:#ffffff;" transform="translate(255.41625 122.567375)scale(0.1 -0.1)">
     <use xlink:href="#DejaVuSans-56"/>
     <use x="63.623047" xlink:href="#DejaVuSans-49"/>
     <use x="127.246094" xlink:href="#DejaVuSans-55"/>
    </g>
   </g>
   <g id="text_88">
    <!-- 5 -->
    <g style="fill:#262626;" transform="translate(284.160464 122.567375)scale(0.1 -0.1)">
     <use xlink:href="#DejaVuSans-53"/>
    </g>
   </g>
   <g id="text_89">
    <!-- 9 -->
    <g style="fill:#262626;" transform="translate(306.542179 122.567375)scale(0.1 -0.1)">
     <use xlink:href="#DejaVuSans-57"/>
    </g>
   </g>
   <g id="text_90">
    <!-- 4 -->
    <g style="fill:#262626;" transform="translate(328.923893 122.567375)scale(0.1 -0.1)">
     <use xlink:href="#DejaVuSans-52"/>
    </g>
   </g>
   <g id="text_91">
    <!-- 28 -->
    <g style="fill:#262626;" transform="translate(124.307214 100.185661)scale(0.1 -0.1)">
     <use xlink:href="#DejaVuSans-50"/>
     <use x="63.623047" xlink:href="#DejaVuSans-56"/>
    </g>
   </g>
   <g id="text_92">
    <!-- 4 -->
    <g style="fill:#262626;" transform="translate(149.870179 100.185661)scale(0.1 -0.1)">
     <use xlink:href="#DejaVuSans-52"/>
    </g>
   </g>
   <g id="text_93">
    <!-- 39 -->
    <g style="fill:#262626;" transform="translate(169.070643 100.185661)scale(0.1 -0.1)">
     <use xlink:href="#DejaVuSans-51"/>
     <use x="63.623047" xlink:href="#DejaVuSans-57"/>
    </g>
   </g>
   <g id="text_94">
    <!-- 32 -->
    <g style="fill:#262626;" transform="translate(191.452357 100.185661)scale(0.1 -0.1)">
     <use xlink:href="#DejaVuSans-51"/>
     <use x="63.623047" xlink:href="#DejaVuSans-50"/>
    </g>
   </g>
   <g id="text_95">
    <!-- 84 -->
    <g style="fill:#262626;" transform="translate(213.834071 100.185661)scale(0.1 -0.1)">
     <use xlink:href="#DejaVuSans-56"/>
     <use x="63.623047" xlink:href="#DejaVuSans-52"/>
    </g>
   </g>
   <g id="text_96">
    <!-- 78 -->
    <g style="fill:#262626;" transform="translate(236.215786 100.185661)scale(0.1 -0.1)">
     <use xlink:href="#DejaVuSans-55"/>
     <use x="63.623047" xlink:href="#DejaVuSans-56"/>
    </g>
   </g>
   <g id="text_97">
    <!-- 6 -->
    <g style="fill:#262626;" transform="translate(261.77875 100.185661)scale(0.1 -0.1)">
     <use xlink:href="#DejaVuSans-54"/>
    </g>
   </g>
   <g id="text_98">
    <!-- 713 -->
    <g style="fill:#ffffff;" transform="translate(277.797964 100.185661)scale(0.1 -0.1)">
     <use xlink:href="#DejaVuSans-55"/>
     <use x="63.623047" xlink:href="#DejaVuSans-49"/>
     <use x="127.246094" xlink:href="#DejaVuSans-51"/>
    </g>
   </g>
   <g id="text_99">
    <!-- 1 -->
    <g style="fill:#262626;" transform="translate(306.542179 100.185661)scale(0.1 -0.1)">
     <use xlink:href="#DejaVuSans-49"/>
    </g>
   </g>
   <g id="text_100">
    <!-- 15 -->
    <g style="fill:#262626;" transform="translate(325.742643 100.185661)scale(0.1 -0.1)">
     <use xlink:href="#DejaVuSans-49"/>
     <use x="63.623047" xlink:href="#DejaVuSans-53"/>
    </g>
   </g>
   <g id="text_101">
    <!-- 161 -->
    <g style="fill:#262626;" transform="translate(121.125964 77.803946)scale(0.1 -0.1)">
     <use xlink:href="#DejaVuSans-49"/>
     <use x="63.623047" xlink:href="#DejaVuSans-54"/>
     <use x="127.246094" xlink:href="#DejaVuSans-49"/>
    </g>
   </g>
   <g id="text_102">
    <!-- 46 -->
    <g style="fill:#262626;" transform="translate(146.688929 77.803946)scale(0.1 -0.1)">
     <use xlink:href="#DejaVuSans-52"/>
     <use x="63.623047" xlink:href="#DejaVuSans-54"/>
    </g>
   </g>
   <g id="text_103">
    <!-- 7 -->
    <g style="fill:#262626;" transform="translate(172.251893 77.803946)scale(0.1 -0.1)">
     <use xlink:href="#DejaVuSans-55"/>
    </g>
   </g>
   <g id="text_104">
    <!-- 10 -->
    <g style="fill:#262626;" transform="translate(191.452357 77.803946)scale(0.1 -0.1)">
     <use xlink:href="#DejaVuSans-49"/>
     <use x="63.623047" xlink:href="#DejaVuSans-48"/>
    </g>
   </g>
   <g id="text_105">
    <!-- 11 -->
    <g style="fill:#262626;" transform="translate(213.834071 77.803946)scale(0.1 -0.1)">
     <use xlink:href="#DejaVuSans-49"/>
     <use x="63.623047" xlink:href="#DejaVuSans-49"/>
    </g>
   </g>
   <g id="text_106">
    <!-- 4 -->
    <g style="fill:#262626;" transform="translate(239.397036 77.803946)scale(0.1 -0.1)">
     <use xlink:href="#DejaVuSans-52"/>
    </g>
   </g>
   <g id="text_107">
    <!-- 6 -->
    <g style="fill:#262626;" transform="translate(261.77875 77.803946)scale(0.1 -0.1)">
     <use xlink:href="#DejaVuSans-54"/>
    </g>
   </g>
   <g id="text_108">
    <!-- 7 -->
    <g style="fill:#262626;" transform="translate(284.160464 77.803946)scale(0.1 -0.1)">
     <use xlink:href="#DejaVuSans-55"/>
    </g>
   </g>
   <g id="text_109">
    <!-- 724 -->
    <g style="fill:#ffffff;" transform="translate(300.179679 77.803946)scale(0.1 -0.1)">
     <use xlink:href="#DejaVuSans-55"/>
     <use x="63.623047" xlink:href="#DejaVuSans-50"/>
     <use x="127.246094" xlink:href="#DejaVuSans-52"/>
    </g>
   </g>
   <g id="text_110">
    <!-- 24 -->
    <g style="fill:#262626;" transform="translate(325.742643 77.803946)scale(0.1 -0.1)">
     <use xlink:href="#DejaVuSans-50"/>
     <use x="63.623047" xlink:href="#DejaVuSans-52"/>
    </g>
   </g>
   <g id="text_111">
    <!-- 58 -->
    <g style="fill:#262626;" transform="translate(124.307214 55.422232)scale(0.1 -0.1)">
     <use xlink:href="#DejaVuSans-53"/>
     <use x="63.623047" xlink:href="#DejaVuSans-56"/>
    </g>
   </g>
   <g id="text_112">
    <!-- 72 -->
    <g style="fill:#262626;" transform="translate(146.688929 55.422232)scale(0.1 -0.1)">
     <use xlink:href="#DejaVuSans-55"/>
     <use x="63.623047" xlink:href="#DejaVuSans-50"/>
    </g>
   </g>
   <g id="text_113">
    <!-- 7 -->
    <g style="fill:#262626;" transform="translate(172.251893 55.422232)scale(0.1 -0.1)">
     <use xlink:href="#DejaVuSans-55"/>
    </g>
   </g>
   <g id="text_114">
    <!-- 17 -->
    <g style="fill:#262626;" transform="translate(191.452357 55.422232)scale(0.1 -0.1)">
     <use xlink:href="#DejaVuSans-49"/>
     <use x="63.623047" xlink:href="#DejaVuSans-55"/>
    </g>
   </g>
   <g id="text_115">
    <!-- 6 -->
    <g style="fill:#262626;" transform="translate(217.015321 55.422232)scale(0.1 -0.1)">
     <use xlink:href="#DejaVuSans-54"/>
    </g>
   </g>
   <g id="text_116">
    <!-- 13 -->
    <g style="fill:#262626;" transform="translate(236.215786 55.422232)scale(0.1 -0.1)">
     <use xlink:href="#DejaVuSans-49"/>
     <use x="63.623047" xlink:href="#DejaVuSans-51"/>
    </g>
   </g>
   <g id="text_117">
    <!-- 10 -->
    <g style="fill:#262626;" transform="translate(258.5975 55.422232)scale(0.1 -0.1)">
     <use xlink:href="#DejaVuSans-49"/>
     <use x="63.623047" xlink:href="#DejaVuSans-48"/>
    </g>
   </g>
   <g id="text_118">
    <!-- 12 -->
    <g style="fill:#262626;" transform="translate(280.979214 55.422232)scale(0.1 -0.1)">
     <use xlink:href="#DejaVuSans-49"/>
     <use x="63.623047" xlink:href="#DejaVuSans-50"/>
    </g>
   </g>
   <g id="text_119">
    <!-- 16 -->
    <g style="fill:#262626;" transform="translate(303.360929 55.422232)scale(0.1 -0.1)">
     <use xlink:href="#DejaVuSans-49"/>
     <use x="63.623047" xlink:href="#DejaVuSans-54"/>
    </g>
   </g>
   <g id="text_120">
    <!-- 789 -->
    <g style="fill:#ffffff;" transform="translate(322.561393 55.422232)scale(0.1 -0.1)">
     <use xlink:href="#DejaVuSans-55"/>
     <use x="63.623047" xlink:href="#DejaVuSans-56"/>
     <use x="127.246094" xlink:href="#DejaVuSans-57"/>
    </g>
   </g>
  </g>
  <g id="axes_2">
   <g id="patch_3">
    <path clip-path="url(#pbb9bba19f2)" d="M 361.152 276.48 
L 361.152 275.562 
L 361.152 42.39 
L 361.152 41.472 
L 372.9024 41.472 
L 372.9024 42.39 
L 372.9024 275.562 
L 372.9024 276.48 
z
" style="fill:#ffffff;stroke:#ffffff;stroke-linejoin:miter;stroke-width:0.01;"/>
   </g>
   <image height="234.72" id="image89f6a5fbea" transform="scale(1 -1)translate(0 -234.72)" width="11.52" x="361.44" xlink:href="data:image/png;base64,
iVBORw0KGgoAAAANSUhEUgAAABAAAAFGCAYAAABjUx8/AAAABHNCSVQICAgIfAhkiAAAAbhJREFUeJztnNGtwzAMA+UH77/fGyZxhzgBxxjqvwX3TFIqmnid838KfPYptL521csKnMN28IdWV9UuymAgtjDAp8AgJggJHuNA7ICo2/kKN+qJxEM1oC/YEM+BEBOa6+chXsEAFmAIqzbcAP8KHbFOC5zl7oAzeKmQdB0EQAxw4w0QZTNhLyQkEi7wfSFNpCW4UY+0BDfqfcGPNOzGlyrx4TtgBRog4gI2xAgh2QUeeApXQGTrGxjQU0iAqLuxIVTtU3jY+gw3yhAjhOQXsGOdSnkgJgzb+EdXQiL5O/Ah4gLjxgiIOoNx4w1CmlgfIVUCg4Bxv8FMcoGAvwv5M1l4B9AMARBHiS06kJUYwGCEFBAofiYGQNSV2MCA68Av8PmnA7kS9fkAPqJZu2hrK5pIC+7gCoj2KTRApJG28HssvpDsY+SnkCAkOVD8POiIND2R9N6oB4pv5wA3+kpc+rifMB+g9XckEo51vTcGtDadgT7idBRA6yMSyWYQMGTxAeP7DPRA8fvC9MYGL0xfuINBw2vr+j0YOoO6ASK+nWgY+Eq8AiK+jWQY6LeRDMRxY1WIG/VUHiH9AEPJ5BX6hQOrAAAAAElFTkSuQmCC" y="-41.76"/>
   <g id="matplotlib.axis_3"/>
   <g id="matplotlib.axis_4">
    <g id="ytick_11">
     <g id="line2d_21">
      <defs>
       <path d="M 0 0 
L 3.5 0 
" id="m52e8842efc" style="stroke:#000000;stroke-width:0.8;"/>
      </defs>
      <g>
       <use style="stroke:#000000;stroke-width:0.8;" x="372.9024" xlink:href="#m52e8842efc" y="276.48"/>
      </g>
     </g>
     <g id="text_121">
      <!-- 0 -->
      <g transform="translate(379.9024 280.279219)scale(0.1 -0.1)">
       <use xlink:href="#DejaVuSans-48"/>
      </g>
     </g>
    </g>
    <g id="ytick_12">
     <g id="line2d_22">
      <g>
       <use style="stroke:#000000;stroke-width:0.8;" x="372.9024" xlink:href="#m52e8842efc" y="234.959152"/>
      </g>
     </g>
     <g id="text_122">
      <!-- 150 -->
      <g transform="translate(379.9024 238.758371)scale(0.1 -0.1)">
       <use xlink:href="#DejaVuSans-49"/>
       <use x="63.623047" xlink:href="#DejaVuSans-53"/>
       <use x="127.246094" xlink:href="#DejaVuSans-48"/>
      </g>
     </g>
    </g>
    <g id="ytick_13">
     <g id="line2d_23">
      <g>
       <use style="stroke:#000000;stroke-width:0.8;" x="372.9024" xlink:href="#m52e8842efc" y="193.438304"/>
      </g>
     </g>
     <g id="text_123">
      <!-- 300 -->
      <g transform="translate(379.9024 197.237523)scale(0.1 -0.1)">
       <use xlink:href="#DejaVuSans-51"/>
       <use x="63.623047" xlink:href="#DejaVuSans-48"/>
       <use x="127.246094" xlink:href="#DejaVuSans-48"/>
      </g>
     </g>
    </g>
    <g id="ytick_14">
     <g id="line2d_24">
      <g>
       <use style="stroke:#000000;stroke-width:0.8;" x="372.9024" xlink:href="#m52e8842efc" y="151.917456"/>
      </g>
     </g>
     <g id="text_124">
      <!-- 450 -->
      <g transform="translate(379.9024 155.716675)scale(0.1 -0.1)">
       <use xlink:href="#DejaVuSans-52"/>
       <use x="63.623047" xlink:href="#DejaVuSans-53"/>
       <use x="127.246094" xlink:href="#DejaVuSans-48"/>
      </g>
     </g>
    </g>
    <g id="ytick_15">
     <g id="line2d_25">
      <g>
       <use style="stroke:#000000;stroke-width:0.8;" x="372.9024" xlink:href="#m52e8842efc" y="110.396608"/>
      </g>
     </g>
     <g id="text_125">
      <!-- 600 -->
      <g transform="translate(379.9024 114.195827)scale(0.1 -0.1)">
       <use xlink:href="#DejaVuSans-54"/>
       <use x="63.623047" xlink:href="#DejaVuSans-48"/>
       <use x="127.246094" xlink:href="#DejaVuSans-48"/>
      </g>
     </g>
    </g>
    <g id="ytick_16">
     <g id="line2d_26">
      <g>
       <use style="stroke:#000000;stroke-width:0.8;" x="372.9024" xlink:href="#m52e8842efc" y="68.87576"/>
      </g>
     </g>
     <g id="text_126">
      <!-- 750 -->
      <g transform="translate(379.9024 72.674978)scale(0.1 -0.1)">
       <use xlink:href="#DejaVuSans-55"/>
       <use x="63.623047" xlink:href="#DejaVuSans-53"/>
       <use x="127.246094" xlink:href="#DejaVuSans-48"/>
      </g>
     </g>
    </g>
   </g>
   <g id="patch_4">
    <path d="M 361.152 276.48 
L 361.152 275.562 
L 361.152 42.39 
L 361.152 41.472 
L 372.9024 41.472 
L 372.9024 42.39 
L 372.9024 275.562 
L 372.9024 276.48 
z
" style="fill:none;"/>
   </g>
  </g>
 </g>
 <defs>
  <clipPath id="pc709e7bb28">
   <rect height="235.008" width="223.817143" x="119.478857" y="41.472"/>
  </clipPath>
  <clipPath id="pbb9bba19f2">
   <rect height="235.008" width="11.7504" x="361.152" y="41.472"/>
  </clipPath>
 </defs>
</svg>
