<?xml version="1.0" encoding="utf-8" standalone="no"?>
<!DOCTYPE svg PUBLIC "-//W3C//DTD SVG 1.1//EN"
  "http://www.w3.org/Graphics/SVG/1.1/DTD/svg11.dtd">
<!-- Created with matplotlib (https://matplotlib.org/) -->
<svg height="720pt" version="1.1" viewBox="0 0 720 720" width="720pt" xmlns="http://www.w3.org/2000/svg" xmlns:xlink="http://www.w3.org/1999/xlink">
 <defs>
  <style type="text/css">
*{stroke-linecap:butt;stroke-linejoin:round;}
  </style>
 </defs>
 <g id="figure_1">
  <g id="patch_1">
   <path d="M 0 720 
L 720 720 
L 720 0 
L 0 0 
z
" style="fill:#ffffff;"/>
  </g>
  <g id="axes_1">
   <g id="patch_2">
    <path d="M 90 590.7 
L 536.4 590.7 
L 536.4 125.7 
L 90 125.7 
z
" style="fill:#ffffff;"/>
   </g>
   <g id="QuadMesh_1">
    <path clip-path="url(#p04d5d91ef7)" d="M 90 572.1 
L 127.2 572.1 
L 127.2 534.9 
L 90 534.9 
L 90 572.1 
" style="fill:#f7fcc7;"/>
    <path clip-path="url(#p04d5d91ef7)" d="M 127.2 572.1 
L 164.4 572.1 
L 164.4 534.9 
L 127.2 534.9 
L 127.2 572.1 
" style="fill:#ffffd9;"/>
    <path clip-path="url(#p04d5d91ef7)" d="M 164.4 572.1 
L 201.6 572.1 
L 201.6 534.9 
L 164.4 534.9 
L 164.4 572.1 
" style="fill:#ffffd9;"/>
    <path clip-path="url(#p04d5d91ef7)" d="M 201.6 572.1 
L 238.8 572.1 
L 238.8 534.9 
L 201.6 534.9 
L 201.6 572.1 
" style="fill:#ffffd9;"/>
    <path clip-path="url(#p04d5d91ef7)" d="M 238.8 572.1 
L 276 572.1 
L 276 534.9 
L 238.8 534.9 
L 238.8 572.1 
" style="fill:#ffffd9;"/>
    <path clip-path="url(#p04d5d91ef7)" d="M 276 572.1 
L 313.2 572.1 
L 313.2 534.9 
L 276 534.9 
L 276 572.1 
" style="fill:#ffffd9;"/>
    <path clip-path="url(#p04d5d91ef7)" d="M 313.2 572.1 
L 350.4 572.1 
L 350.4 534.9 
L 313.2 534.9 
L 313.2 572.1 
" style="fill:#ffffd9;"/>
    <path clip-path="url(#p04d5d91ef7)" d="M 350.4 572.1 
L 387.6 572.1 
L 387.6 534.9 
L 350.4 534.9 
L 350.4 572.1 
" style="fill:#ffffd9;"/>
    <path clip-path="url(#p04d5d91ef7)" d="M 387.6 572.1 
L 424.8 572.1 
L 424.8 534.9 
L 387.6 534.9 
L 387.6 572.1 
" style="fill:#ffffd9;"/>
    <path clip-path="url(#p04d5d91ef7)" d="M 424.8 572.1 
L 462 572.1 
L 462 534.9 
L 424.8 534.9 
L 424.8 572.1 
" style="fill:#ffffd9;"/>
    <path clip-path="url(#p04d5d91ef7)" d="M 462 572.1 
L 499.2 572.1 
L 499.2 534.9 
L 462 534.9 
L 462 572.1 
" style="fill:#ffffd9;"/>
    <path clip-path="url(#p04d5d91ef7)" d="M 499.2 572.1 
L 536.4 572.1 
L 536.4 534.9 
L 499.2 534.9 
L 499.2 572.1 
" style="fill:#ffffd9;"/>
    <path clip-path="url(#p04d5d91ef7)" d="M 90 534.9 
L 127.2 534.9 
L 127.2 497.7 
L 90 497.7 
L 90 534.9 
" style="fill:#ffffd9;"/>
    <path clip-path="url(#p04d5d91ef7)" d="M 127.2 534.9 
L 164.4 534.9 
L 164.4 497.7 
L 127.2 497.7 
L 127.2 534.9 
" style="fill:#f8fcc9;"/>
    <path clip-path="url(#p04d5d91ef7)" d="M 164.4 534.9 
L 201.6 534.9 
L 201.6 497.7 
L 164.4 497.7 
L 164.4 534.9 
" style="fill:#ffffd9;"/>
    <path clip-path="url(#p04d5d91ef7)" d="M 201.6 534.9 
L 238.8 534.9 
L 238.8 497.7 
L 201.6 497.7 
L 201.6 534.9 
" style="fill:#ffffd9;"/>
    <path clip-path="url(#p04d5d91ef7)" d="M 238.8 534.9 
L 276 534.9 
L 276 497.7 
L 238.8 497.7 
L 238.8 534.9 
" style="fill:#ffffd9;"/>
    <path clip-path="url(#p04d5d91ef7)" d="M 276 534.9 
L 313.2 534.9 
L 313.2 497.7 
L 276 497.7 
L 276 534.9 
" style="fill:#ffffd9;"/>
    <path clip-path="url(#p04d5d91ef7)" d="M 313.2 534.9 
L 350.4 534.9 
L 350.4 497.7 
L 313.2 497.7 
L 313.2 534.9 
" style="fill:#ffffd9;"/>
    <path clip-path="url(#p04d5d91ef7)" d="M 350.4 534.9 
L 387.6 534.9 
L 387.6 497.7 
L 350.4 497.7 
L 350.4 534.9 
" style="fill:#ffffd9;"/>
    <path clip-path="url(#p04d5d91ef7)" d="M 387.6 534.9 
L 424.8 534.9 
L 424.8 497.7 
L 387.6 497.7 
L 387.6 534.9 
" style="fill:#ffffd9;"/>
    <path clip-path="url(#p04d5d91ef7)" d="M 424.8 534.9 
L 462 534.9 
L 462 497.7 
L 424.8 497.7 
L 424.8 534.9 
" style="fill:#ffffd9;"/>
    <path clip-path="url(#p04d5d91ef7)" d="M 462 534.9 
L 499.2 534.9 
L 499.2 497.7 
L 462 497.7 
L 462 534.9 
" style="fill:#ffffd9;"/>
    <path clip-path="url(#p04d5d91ef7)" d="M 499.2 534.9 
L 536.4 534.9 
L 536.4 497.7 
L 499.2 497.7 
L 499.2 534.9 
" style="fill:#feffd8;"/>
    <path clip-path="url(#p04d5d91ef7)" d="M 90 497.7 
L 127.2 497.7 
L 127.2 460.5 
L 90 460.5 
L 90 497.7 
" style="fill:#ffffd9;"/>
    <path clip-path="url(#p04d5d91ef7)" d="M 127.2 497.7 
L 164.4 497.7 
L 164.4 460.5 
L 127.2 460.5 
L 127.2 497.7 
" style="fill:#ffffd9;"/>
    <path clip-path="url(#p04d5d91ef7)" d="M 164.4 497.7 
L 201.6 497.7 
L 201.6 460.5 
L 164.4 460.5 
L 164.4 497.7 
" style="fill:#f7fcc6;"/>
    <path clip-path="url(#p04d5d91ef7)" d="M 201.6 497.7 
L 238.8 497.7 
L 238.8 460.5 
L 201.6 460.5 
L 201.6 497.7 
" style="fill:#ffffd9;"/>
    <path clip-path="url(#p04d5d91ef7)" d="M 238.8 497.7 
L 276 497.7 
L 276 460.5 
L 238.8 460.5 
L 238.8 497.7 
" style="fill:#ffffd9;"/>
    <path clip-path="url(#p04d5d91ef7)" d="M 276 497.7 
L 313.2 497.7 
L 313.2 460.5 
L 276 460.5 
L 276 497.7 
" style="fill:#ffffd9;"/>
    <path clip-path="url(#p04d5d91ef7)" d="M 313.2 497.7 
L 350.4 497.7 
L 350.4 460.5 
L 313.2 460.5 
L 313.2 497.7 
" style="fill:#ffffd9;"/>
    <path clip-path="url(#p04d5d91ef7)" d="M 350.4 497.7 
L 387.6 497.7 
L 387.6 460.5 
L 350.4 460.5 
L 350.4 497.7 
" style="fill:#ffffd9;"/>
    <path clip-path="url(#p04d5d91ef7)" d="M 387.6 497.7 
L 424.8 497.7 
L 424.8 460.5 
L 387.6 460.5 
L 387.6 497.7 
" style="fill:#ffffd9;"/>
    <path clip-path="url(#p04d5d91ef7)" d="M 424.8 497.7 
L 462 497.7 
L 462 460.5 
L 424.8 460.5 
L 424.8 497.7 
" style="fill:#ffffd9;"/>
    <path clip-path="url(#p04d5d91ef7)" d="M 462 497.7 
L 499.2 497.7 
L 499.2 460.5 
L 462 460.5 
L 462 497.7 
" style="fill:#ffffd9;"/>
    <path clip-path="url(#p04d5d91ef7)" d="M 499.2 497.7 
L 536.4 497.7 
L 536.4 460.5 
L 499.2 460.5 
L 499.2 497.7 
" style="fill:#ffffd9;"/>
    <path clip-path="url(#p04d5d91ef7)" d="M 90 460.5 
L 127.2 460.5 
L 127.2 423.3 
L 90 423.3 
L 90 460.5 
" style="fill:#ffffd9;"/>
    <path clip-path="url(#p04d5d91ef7)" d="M 127.2 460.5 
L 164.4 460.5 
L 164.4 423.3 
L 127.2 423.3 
L 127.2 460.5 
" style="fill:#ffffd9;"/>
    <path clip-path="url(#p04d5d91ef7)" d="M 164.4 460.5 
L 201.6 460.5 
L 201.6 423.3 
L 164.4 423.3 
L 164.4 460.5 
" style="fill:#ffffd9;"/>
    <path clip-path="url(#p04d5d91ef7)" d="M 201.6 460.5 
L 238.8 460.5 
L 238.8 423.3 
L 201.6 423.3 
L 201.6 460.5 
" style="fill:#f8fcc9;"/>
    <path clip-path="url(#p04d5d91ef7)" d="M 238.8 460.5 
L 276 460.5 
L 276 423.3 
L 238.8 423.3 
L 238.8 460.5 
" style="fill:#ffffd9;"/>
    <path clip-path="url(#p04d5d91ef7)" d="M 276 460.5 
L 313.2 460.5 
L 313.2 423.3 
L 276 423.3 
L 276 460.5 
" style="fill:#ffffd9;"/>
    <path clip-path="url(#p04d5d91ef7)" d="M 313.2 460.5 
L 350.4 460.5 
L 350.4 423.3 
L 313.2 423.3 
L 313.2 460.5 
" style="fill:#ffffd9;"/>
    <path clip-path="url(#p04d5d91ef7)" d="M 350.4 460.5 
L 387.6 460.5 
L 387.6 423.3 
L 350.4 423.3 
L 350.4 460.5 
" style="fill:#ffffd9;"/>
    <path clip-path="url(#p04d5d91ef7)" d="M 387.6 460.5 
L 424.8 460.5 
L 424.8 423.3 
L 387.6 423.3 
L 387.6 460.5 
" style="fill:#ffffd9;"/>
    <path clip-path="url(#p04d5d91ef7)" d="M 424.8 460.5 
L 462 460.5 
L 462 423.3 
L 424.8 423.3 
L 424.8 460.5 
" style="fill:#ffffd9;"/>
    <path clip-path="url(#p04d5d91ef7)" d="M 462 460.5 
L 499.2 460.5 
L 499.2 423.3 
L 462 423.3 
L 462 460.5 
" style="fill:#ffffd9;"/>
    <path clip-path="url(#p04d5d91ef7)" d="M 499.2 460.5 
L 536.4 460.5 
L 536.4 423.3 
L 499.2 423.3 
L 499.2 460.5 
" style="fill:#ffffd9;"/>
    <path clip-path="url(#p04d5d91ef7)" d="M 90 423.3 
L 127.2 423.3 
L 127.2 386.1 
L 90 386.1 
L 90 423.3 
" style="fill:#ffffd9;"/>
    <path clip-path="url(#p04d5d91ef7)" d="M 127.2 423.3 
L 164.4 423.3 
L 164.4 386.1 
L 127.2 386.1 
L 127.2 423.3 
" style="fill:#ffffd9;"/>
    <path clip-path="url(#p04d5d91ef7)" d="M 164.4 423.3 
L 201.6 423.3 
L 201.6 386.1 
L 164.4 386.1 
L 164.4 423.3 
" style="fill:#ffffd9;"/>
    <path clip-path="url(#p04d5d91ef7)" d="M 201.6 423.3 
L 238.8 423.3 
L 238.8 386.1 
L 201.6 386.1 
L 201.6 423.3 
" style="fill:#ffffd9;"/>
    <path clip-path="url(#p04d5d91ef7)" d="M 238.8 423.3 
L 276 423.3 
L 276 386.1 
L 238.8 386.1 
L 238.8 423.3 
" style="fill:#f7fcc6;"/>
    <path clip-path="url(#p04d5d91ef7)" d="M 276 423.3 
L 313.2 423.3 
L 313.2 386.1 
L 276 386.1 
L 276 423.3 
" style="fill:#ffffd9;"/>
    <path clip-path="url(#p04d5d91ef7)" d="M 313.2 423.3 
L 350.4 423.3 
L 350.4 386.1 
L 313.2 386.1 
L 313.2 423.3 
" style="fill:#ffffd9;"/>
    <path clip-path="url(#p04d5d91ef7)" d="M 350.4 423.3 
L 387.6 423.3 
L 387.6 386.1 
L 350.4 386.1 
L 350.4 423.3 
" style="fill:#ffffd9;"/>
    <path clip-path="url(#p04d5d91ef7)" d="M 387.6 423.3 
L 424.8 423.3 
L 424.8 386.1 
L 387.6 386.1 
L 387.6 423.3 
" style="fill:#ffffd9;"/>
    <path clip-path="url(#p04d5d91ef7)" d="M 424.8 423.3 
L 462 423.3 
L 462 386.1 
L 424.8 386.1 
L 424.8 423.3 
" style="fill:#ffffd9;"/>
    <path clip-path="url(#p04d5d91ef7)" d="M 462 423.3 
L 499.2 423.3 
L 499.2 386.1 
L 462 386.1 
L 462 423.3 
" style="fill:#ffffd9;"/>
    <path clip-path="url(#p04d5d91ef7)" d="M 499.2 423.3 
L 536.4 423.3 
L 536.4 386.1 
L 499.2 386.1 
L 499.2 423.3 
" style="fill:#ffffd9;"/>
    <path clip-path="url(#p04d5d91ef7)" d="M 90 386.1 
L 127.2 386.1 
L 127.2 348.9 
L 90 348.9 
L 90 386.1 
" style="fill:#ffffd9;"/>
    <path clip-path="url(#p04d5d91ef7)" d="M 127.2 386.1 
L 164.4 386.1 
L 164.4 348.9 
L 127.2 348.9 
L 127.2 386.1 
" style="fill:#ffffd9;"/>
    <path clip-path="url(#p04d5d91ef7)" d="M 164.4 386.1 
L 201.6 386.1 
L 201.6 348.9 
L 164.4 348.9 
L 164.4 386.1 
" style="fill:#ffffd9;"/>
    <path clip-path="url(#p04d5d91ef7)" d="M 201.6 386.1 
L 238.8 386.1 
L 238.8 348.9 
L 201.6 348.9 
L 201.6 386.1 
" style="fill:#ffffd9;"/>
    <path clip-path="url(#p04d5d91ef7)" d="M 238.8 386.1 
L 276 386.1 
L 276 348.9 
L 238.8 348.9 
L 238.8 386.1 
" style="fill:#ffffd9;"/>
    <path clip-path="url(#p04d5d91ef7)" d="M 276 386.1 
L 313.2 386.1 
L 313.2 348.9 
L 276 348.9 
L 276 386.1 
" style="fill:#f8fcc9;"/>
    <path clip-path="url(#p04d5d91ef7)" d="M 313.2 386.1 
L 350.4 386.1 
L 350.4 348.9 
L 313.2 348.9 
L 313.2 386.1 
" style="fill:#ffffd9;"/>
    <path clip-path="url(#p04d5d91ef7)" d="M 350.4 386.1 
L 387.6 386.1 
L 387.6 348.9 
L 350.4 348.9 
L 350.4 386.1 
" style="fill:#ffffd9;"/>
    <path clip-path="url(#p04d5d91ef7)" d="M 387.6 386.1 
L 424.8 386.1 
L 424.8 348.9 
L 387.6 348.9 
L 387.6 386.1 
" style="fill:#ffffd9;"/>
    <path clip-path="url(#p04d5d91ef7)" d="M 424.8 386.1 
L 462 386.1 
L 462 348.9 
L 424.8 348.9 
L 424.8 386.1 
" style="fill:#ffffd9;"/>
    <path clip-path="url(#p04d5d91ef7)" d="M 462 386.1 
L 499.2 386.1 
L 499.2 348.9 
L 462 348.9 
L 462 386.1 
" style="fill:#ffffd9;"/>
    <path clip-path="url(#p04d5d91ef7)" d="M 499.2 386.1 
L 536.4 386.1 
L 536.4 348.9 
L 499.2 348.9 
L 499.2 386.1 
" style="fill:#feffd8;"/>
    <path clip-path="url(#p04d5d91ef7)" d="M 90 348.9 
L 127.2 348.9 
L 127.2 311.7 
L 90 311.7 
L 90 348.9 
" style="fill:#ffffd9;"/>
    <path clip-path="url(#p04d5d91ef7)" d="M 127.2 348.9 
L 164.4 348.9 
L 164.4 311.7 
L 127.2 311.7 
L 127.2 348.9 
" style="fill:#ffffd9;"/>
    <path clip-path="url(#p04d5d91ef7)" d="M 164.4 348.9 
L 201.6 348.9 
L 201.6 311.7 
L 164.4 311.7 
L 164.4 348.9 
" style="fill:#ffffd9;"/>
    <path clip-path="url(#p04d5d91ef7)" d="M 201.6 348.9 
L 238.8 348.9 
L 238.8 311.7 
L 201.6 311.7 
L 201.6 348.9 
" style="fill:#ffffd9;"/>
    <path clip-path="url(#p04d5d91ef7)" d="M 238.8 348.9 
L 276 348.9 
L 276 311.7 
L 238.8 311.7 
L 238.8 348.9 
" style="fill:#ffffd9;"/>
    <path clip-path="url(#p04d5d91ef7)" d="M 276 348.9 
L 313.2 348.9 
L 313.2 311.7 
L 276 311.7 
L 276 348.9 
" style="fill:#ffffd9;"/>
    <path clip-path="url(#p04d5d91ef7)" d="M 313.2 348.9 
L 350.4 348.9 
L 350.4 311.7 
L 313.2 311.7 
L 313.2 348.9 
" style="fill:#f8fcc9;"/>
    <path clip-path="url(#p04d5d91ef7)" d="M 350.4 348.9 
L 387.6 348.9 
L 387.6 311.7 
L 350.4 311.7 
L 350.4 348.9 
" style="fill:#ffffd9;"/>
    <path clip-path="url(#p04d5d91ef7)" d="M 387.6 348.9 
L 424.8 348.9 
L 424.8 311.7 
L 387.6 311.7 
L 387.6 348.9 
" style="fill:#ffffd9;"/>
    <path clip-path="url(#p04d5d91ef7)" d="M 424.8 348.9 
L 462 348.9 
L 462 311.7 
L 424.8 311.7 
L 424.8 348.9 
" style="fill:#ffffd9;"/>
    <path clip-path="url(#p04d5d91ef7)" d="M 462 348.9 
L 499.2 348.9 
L 499.2 311.7 
L 462 311.7 
L 462 348.9 
" style="fill:#ffffd9;"/>
    <path clip-path="url(#p04d5d91ef7)" d="M 499.2 348.9 
L 536.4 348.9 
L 536.4 311.7 
L 499.2 311.7 
L 499.2 348.9 
" style="fill:#ffffd9;"/>
    <path clip-path="url(#p04d5d91ef7)" d="M 90 311.7 
L 127.2 311.7 
L 127.2 274.5 
L 90 274.5 
L 90 311.7 
" style="fill:#ffffd9;"/>
    <path clip-path="url(#p04d5d91ef7)" d="M 127.2 311.7 
L 164.4 311.7 
L 164.4 274.5 
L 127.2 274.5 
L 127.2 311.7 
" style="fill:#ffffd9;"/>
    <path clip-path="url(#p04d5d91ef7)" d="M 164.4 311.7 
L 201.6 311.7 
L 201.6 274.5 
L 164.4 274.5 
L 164.4 311.7 
" style="fill:#ffffd9;"/>
    <path clip-path="url(#p04d5d91ef7)" d="M 201.6 311.7 
L 238.8 311.7 
L 238.8 274.5 
L 201.6 274.5 
L 201.6 311.7 
" style="fill:#ffffd9;"/>
    <path clip-path="url(#p04d5d91ef7)" d="M 238.8 311.7 
L 276 311.7 
L 276 274.5 
L 238.8 274.5 
L 238.8 311.7 
" style="fill:#ffffd9;"/>
    <path clip-path="url(#p04d5d91ef7)" d="M 276 311.7 
L 313.2 311.7 
L 313.2 274.5 
L 276 274.5 
L 276 311.7 
" style="fill:#ffffd9;"/>
    <path clip-path="url(#p04d5d91ef7)" d="M 313.2 311.7 
L 350.4 311.7 
L 350.4 274.5 
L 313.2 274.5 
L 313.2 311.7 
" style="fill:#ffffd9;"/>
    <path clip-path="url(#p04d5d91ef7)" d="M 350.4 311.7 
L 387.6 311.7 
L 387.6 274.5 
L 350.4 274.5 
L 350.4 311.7 
" style="fill:#f7fcc7;"/>
    <path clip-path="url(#p04d5d91ef7)" d="M 387.6 311.7 
L 424.8 311.7 
L 424.8 274.5 
L 387.6 274.5 
L 387.6 311.7 
" style="fill:#ffffd9;"/>
    <path clip-path="url(#p04d5d91ef7)" d="M 424.8 311.7 
L 462 311.7 
L 462 274.5 
L 424.8 274.5 
L 424.8 311.7 
" style="fill:#ffffd9;"/>
    <path clip-path="url(#p04d5d91ef7)" d="M 462 311.7 
L 499.2 311.7 
L 499.2 274.5 
L 462 274.5 
L 462 311.7 
" style="fill:#ffffd9;"/>
    <path clip-path="url(#p04d5d91ef7)" d="M 499.2 311.7 
L 536.4 311.7 
L 536.4 274.5 
L 499.2 274.5 
L 499.2 311.7 
" style="fill:#ffffd9;"/>
    <path clip-path="url(#p04d5d91ef7)" d="M 90 274.5 
L 127.2 274.5 
L 127.2 237.3 
L 90 237.3 
L 90 274.5 
" style="fill:#ffffd9;"/>
    <path clip-path="url(#p04d5d91ef7)" d="M 127.2 274.5 
L 164.4 274.5 
L 164.4 237.3 
L 127.2 237.3 
L 127.2 274.5 
" style="fill:#ffffd9;"/>
    <path clip-path="url(#p04d5d91ef7)" d="M 164.4 274.5 
L 201.6 274.5 
L 201.6 237.3 
L 164.4 237.3 
L 164.4 274.5 
" style="fill:#ffffd9;"/>
    <path clip-path="url(#p04d5d91ef7)" d="M 201.6 274.5 
L 238.8 274.5 
L 238.8 237.3 
L 201.6 237.3 
L 201.6 274.5 
" style="fill:#ffffd9;"/>
    <path clip-path="url(#p04d5d91ef7)" d="M 238.8 274.5 
L 276 274.5 
L 276 237.3 
L 238.8 237.3 
L 238.8 274.5 
" style="fill:#ffffd9;"/>
    <path clip-path="url(#p04d5d91ef7)" d="M 276 274.5 
L 313.2 274.5 
L 313.2 237.3 
L 276 237.3 
L 276 274.5 
" style="fill:#ffffd9;"/>
    <path clip-path="url(#p04d5d91ef7)" d="M 313.2 274.5 
L 350.4 274.5 
L 350.4 237.3 
L 313.2 237.3 
L 313.2 274.5 
" style="fill:#ffffd9;"/>
    <path clip-path="url(#p04d5d91ef7)" d="M 350.4 274.5 
L 387.6 274.5 
L 387.6 237.3 
L 350.4 237.3 
L 350.4 274.5 
" style="fill:#ffffd9;"/>
    <path clip-path="url(#p04d5d91ef7)" d="M 387.6 274.5 
L 424.8 274.5 
L 424.8 237.3 
L 387.6 237.3 
L 387.6 274.5 
" style="fill:#f7fcc7;"/>
    <path clip-path="url(#p04d5d91ef7)" d="M 424.8 274.5 
L 462 274.5 
L 462 237.3 
L 424.8 237.3 
L 424.8 274.5 
" style="fill:#ffffd9;"/>
    <path clip-path="url(#p04d5d91ef7)" d="M 462 274.5 
L 499.2 274.5 
L 499.2 237.3 
L 462 237.3 
L 462 274.5 
" style="fill:#ffffd9;"/>
    <path clip-path="url(#p04d5d91ef7)" d="M 499.2 274.5 
L 536.4 274.5 
L 536.4 237.3 
L 499.2 237.3 
L 499.2 274.5 
" style="fill:#ffffd9;"/>
    <path clip-path="url(#p04d5d91ef7)" d="M 90 237.3 
L 127.2 237.3 
L 127.2 200.1 
L 90 200.1 
L 90 237.3 
" style="fill:#ffffd9;"/>
    <path clip-path="url(#p04d5d91ef7)" d="M 127.2 237.3 
L 164.4 237.3 
L 164.4 200.1 
L 127.2 200.1 
L 127.2 237.3 
" style="fill:#ffffd9;"/>
    <path clip-path="url(#p04d5d91ef7)" d="M 164.4 237.3 
L 201.6 237.3 
L 201.6 200.1 
L 164.4 200.1 
L 164.4 237.3 
" style="fill:#ffffd9;"/>
    <path clip-path="url(#p04d5d91ef7)" d="M 201.6 237.3 
L 238.8 237.3 
L 238.8 200.1 
L 201.6 200.1 
L 201.6 237.3 
" style="fill:#ffffd9;"/>
    <path clip-path="url(#p04d5d91ef7)" d="M 238.8 237.3 
L 276 237.3 
L 276 200.1 
L 238.8 200.1 
L 238.8 237.3 
" style="fill:#ffffd9;"/>
    <path clip-path="url(#p04d5d91ef7)" d="M 276 237.3 
L 313.2 237.3 
L 313.2 200.1 
L 276 200.1 
L 276 237.3 
" style="fill:#ffffd9;"/>
    <path clip-path="url(#p04d5d91ef7)" d="M 313.2 237.3 
L 350.4 237.3 
L 350.4 200.1 
L 313.2 200.1 
L 313.2 237.3 
" style="fill:#ffffd9;"/>
    <path clip-path="url(#p04d5d91ef7)" d="M 350.4 237.3 
L 387.6 237.3 
L 387.6 200.1 
L 350.4 200.1 
L 350.4 237.3 
" style="fill:#ffffd9;"/>
    <path clip-path="url(#p04d5d91ef7)" d="M 387.6 237.3 
L 424.8 237.3 
L 424.8 200.1 
L 387.6 200.1 
L 387.6 237.3 
" style="fill:#ffffd9;"/>
    <path clip-path="url(#p04d5d91ef7)" d="M 424.8 237.3 
L 462 237.3 
L 462 200.1 
L 424.8 200.1 
L 424.8 237.3 
" style="fill:#f8fcc9;"/>
    <path clip-path="url(#p04d5d91ef7)" d="M 462 237.3 
L 499.2 237.3 
L 499.2 200.1 
L 462 200.1 
L 462 237.3 
" style="fill:#ffffd9;"/>
    <path clip-path="url(#p04d5d91ef7)" d="M 499.2 237.3 
L 536.4 237.3 
L 536.4 200.1 
L 499.2 200.1 
L 499.2 237.3 
" style="fill:#feffd8;"/>
    <path clip-path="url(#p04d5d91ef7)" d="M 90 200.1 
L 127.2 200.1 
L 127.2 162.9 
L 90 162.9 
L 90 200.1 
" style="fill:#ffffd9;"/>
    <path clip-path="url(#p04d5d91ef7)" d="M 127.2 200.1 
L 164.4 200.1 
L 164.4 162.9 
L 127.2 162.9 
L 127.2 200.1 
" style="fill:#ffffd9;"/>
    <path clip-path="url(#p04d5d91ef7)" d="M 164.4 200.1 
L 201.6 200.1 
L 201.6 162.9 
L 164.4 162.9 
L 164.4 200.1 
" style="fill:#ffffd9;"/>
    <path clip-path="url(#p04d5d91ef7)" d="M 201.6 200.1 
L 238.8 200.1 
L 238.8 162.9 
L 201.6 162.9 
L 201.6 200.1 
" style="fill:#ffffd9;"/>
    <path clip-path="url(#p04d5d91ef7)" d="M 238.8 200.1 
L 276 200.1 
L 276 162.9 
L 238.8 162.9 
L 238.8 200.1 
" style="fill:#ffffd9;"/>
    <path clip-path="url(#p04d5d91ef7)" d="M 276 200.1 
L 313.2 200.1 
L 313.2 162.9 
L 276 162.9 
L 276 200.1 
" style="fill:#ffffd9;"/>
    <path clip-path="url(#p04d5d91ef7)" d="M 313.2 200.1 
L 350.4 200.1 
L 350.4 162.9 
L 313.2 162.9 
L 313.2 200.1 
" style="fill:#ffffd9;"/>
    <path clip-path="url(#p04d5d91ef7)" d="M 350.4 200.1 
L 387.6 200.1 
L 387.6 162.9 
L 350.4 162.9 
L 350.4 200.1 
" style="fill:#ffffd9;"/>
    <path clip-path="url(#p04d5d91ef7)" d="M 387.6 200.1 
L 424.8 200.1 
L 424.8 162.9 
L 387.6 162.9 
L 387.6 200.1 
" style="fill:#ffffd9;"/>
    <path clip-path="url(#p04d5d91ef7)" d="M 424.8 200.1 
L 462 200.1 
L 462 162.9 
L 424.8 162.9 
L 424.8 200.1 
" style="fill:#ffffd9;"/>
    <path clip-path="url(#p04d5d91ef7)" d="M 462 200.1 
L 499.2 200.1 
L 499.2 162.9 
L 462 162.9 
L 462 200.1 
" style="fill:#ffffd9;"/>
    <path clip-path="url(#p04d5d91ef7)" d="M 499.2 200.1 
L 536.4 200.1 
L 536.4 162.9 
L 499.2 162.9 
L 499.2 200.1 
" style="fill:#feffd6;"/>
    <path clip-path="url(#p04d5d91ef7)" d="M 90 162.9 
L 127.2 162.9 
L 127.2 125.7 
L 90 125.7 
L 90 162.9 
" style="fill:#ffffd9;"/>
    <path clip-path="url(#p04d5d91ef7)" d="M 127.2 162.9 
L 164.4 162.9 
L 164.4 125.7 
L 127.2 125.7 
L 127.2 162.9 
" style="fill:#ffffd9;"/>
    <path clip-path="url(#p04d5d91ef7)" d="M 164.4 162.9 
L 201.6 162.9 
L 201.6 125.7 
L 164.4 125.7 
L 164.4 162.9 
" style="fill:#ffffd9;"/>
    <path clip-path="url(#p04d5d91ef7)" d="M 201.6 162.9 
L 238.8 162.9 
L 238.8 125.7 
L 201.6 125.7 
L 201.6 162.9 
" style="fill:#ffffd9;"/>
    <path clip-path="url(#p04d5d91ef7)" d="M 238.8 162.9 
L 276 162.9 
L 276 125.7 
L 238.8 125.7 
L 238.8 162.9 
" style="fill:#ffffd9;"/>
    <path clip-path="url(#p04d5d91ef7)" d="M 276 162.9 
L 313.2 162.9 
L 313.2 125.7 
L 276 125.7 
L 276 162.9 
" style="fill:#ffffd9;"/>
    <path clip-path="url(#p04d5d91ef7)" d="M 313.2 162.9 
L 350.4 162.9 
L 350.4 125.7 
L 313.2 125.7 
L 313.2 162.9 
" style="fill:#ffffd9;"/>
    <path clip-path="url(#p04d5d91ef7)" d="M 350.4 162.9 
L 387.6 162.9 
L 387.6 125.7 
L 350.4 125.7 
L 350.4 162.9 
" style="fill:#ffffd9;"/>
    <path clip-path="url(#p04d5d91ef7)" d="M 387.6 162.9 
L 424.8 162.9 
L 424.8 125.7 
L 387.6 125.7 
L 387.6 162.9 
" style="fill:#ffffd9;"/>
    <path clip-path="url(#p04d5d91ef7)" d="M 424.8 162.9 
L 462 162.9 
L 462 125.7 
L 424.8 125.7 
L 424.8 162.9 
" style="fill:#ffffd9;"/>
    <path clip-path="url(#p04d5d91ef7)" d="M 462 162.9 
L 499.2 162.9 
L 499.2 125.7 
L 462 125.7 
L 462 162.9 
" style="fill:#ffffd9;"/>
    <path clip-path="url(#p04d5d91ef7)" d="M 499.2 162.9 
L 536.4 162.9 
L 536.4 125.7 
L 499.2 125.7 
L 499.2 162.9 
" style="fill:#081d58;"/>
   </g>
   <g id="matplotlib.axis_1">
    <g id="xtick_1">
     <g id="line2d_1">
      <defs>
       <path d="M 0 0 
L 0 3.5 
" id="m41b36e01c9" style="stroke:#000000;stroke-width:0.8;"/>
      </defs>
      <g>
       <use style="stroke:#000000;stroke-width:0.8;" x="108.6" xlink:href="#m41b36e01c9" y="590.7"/>
      </g>
     </g>
     <g id="text_1">
      <!-- yes -->
      <defs>
       <path d="M 32.171875 -5.078125 
Q 28.375 -14.84375 24.75 -17.8125 
Q 21.140625 -20.796875 15.09375 -20.796875 
L 7.90625 -20.796875 
L 7.90625 -13.28125 
L 13.1875 -13.28125 
Q 16.890625 -13.28125 18.9375 -11.515625 
Q 21 -9.765625 23.484375 -3.21875 
L 25.09375 0.875 
L 2.984375 54.6875 
L 12.5 54.6875 
L 29.59375 11.921875 
L 46.6875 54.6875 
L 56.203125 54.6875 
z
" id="DejaVuSans-121"/>
       <path d="M 56.203125 29.59375 
L 56.203125 25.203125 
L 14.890625 25.203125 
Q 15.484375 15.921875 20.484375 11.0625 
Q 25.484375 6.203125 34.421875 6.203125 
Q 39.59375 6.203125 44.453125 7.46875 
Q 49.3125 8.734375 54.109375 11.28125 
L 54.109375 2.78125 
Q 49.265625 0.734375 44.1875 -0.34375 
Q 39.109375 -1.421875 33.890625 -1.421875 
Q 20.796875 -1.421875 13.15625 6.1875 
Q 5.515625 13.8125 5.515625 26.8125 
Q 5.515625 40.234375 12.765625 48.109375 
Q 20.015625 56 32.328125 56 
Q 43.359375 56 49.78125 48.890625 
Q 56.203125 41.796875 56.203125 29.59375 
z
M 47.21875 32.234375 
Q 47.125 39.59375 43.09375 43.984375 
Q 39.0625 48.390625 32.421875 48.390625 
Q 24.90625 48.390625 20.390625 44.140625 
Q 15.875 39.890625 15.1875 32.171875 
z
" id="DejaVuSans-101"/>
       <path d="M 44.28125 53.078125 
L 44.28125 44.578125 
Q 40.484375 46.53125 36.375 47.5 
Q 32.28125 48.484375 27.875 48.484375 
Q 21.1875 48.484375 17.84375 46.4375 
Q 14.5 44.390625 14.5 40.28125 
Q 14.5 37.15625 16.890625 35.375 
Q 19.28125 33.59375 26.515625 31.984375 
L 29.59375 31.296875 
Q 39.15625 29.25 43.1875 25.515625 
Q 47.21875 21.78125 47.21875 15.09375 
Q 47.21875 7.46875 41.1875 3.015625 
Q 35.15625 -1.421875 24.609375 -1.421875 
Q 20.21875 -1.421875 15.453125 -0.5625 
Q 10.6875 0.296875 5.421875 2 
L 5.421875 11.28125 
Q 10.40625 8.6875 15.234375 7.390625 
Q 20.0625 6.109375 24.8125 6.109375 
Q 31.15625 6.109375 34.5625 8.28125 
Q 37.984375 10.453125 37.984375 14.40625 
Q 37.984375 18.0625 35.515625 20.015625 
Q 33.0625 21.96875 24.703125 23.78125 
L 21.578125 24.515625 
Q 13.234375 26.265625 9.515625 29.90625 
Q 5.8125 33.546875 5.8125 39.890625 
Q 5.8125 47.609375 11.28125 51.796875 
Q 16.75 56 26.8125 56 
Q 31.78125 56 36.171875 55.265625 
Q 40.578125 54.546875 44.28125 53.078125 
z
" id="DejaVuSans-115"/>
      </defs>
      <g transform="translate(104.441328 615.292596)rotate(-45)scale(0.1 -0.1)">
       <use xlink:href="#DejaVuSans-121"/>
       <use x="59.179688" xlink:href="#DejaVuSans-101"/>
       <use x="120.703125" xlink:href="#DejaVuSans-115"/>
      </g>
     </g>
    </g>
    <g id="xtick_2">
     <g id="line2d_2">
      <g>
       <use style="stroke:#000000;stroke-width:0.8;" x="145.8" xlink:href="#m41b36e01c9" y="590.7"/>
      </g>
     </g>
     <g id="text_2">
      <!-- no -->
      <defs>
       <path d="M 54.890625 33.015625 
L 54.890625 0 
L 45.90625 0 
L 45.90625 32.71875 
Q 45.90625 40.484375 42.875 44.328125 
Q 39.84375 48.1875 33.796875 48.1875 
Q 26.515625 48.1875 22.3125 43.546875 
Q 18.109375 38.921875 18.109375 30.90625 
L 18.109375 0 
L 9.078125 0 
L 9.078125 54.6875 
L 18.109375 54.6875 
L 18.109375 46.1875 
Q 21.34375 51.125 25.703125 53.5625 
Q 30.078125 56 35.796875 56 
Q 45.21875 56 50.046875 50.171875 
Q 54.890625 44.34375 54.890625 33.015625 
z
" id="DejaVuSans-110"/>
       <path d="M 30.609375 48.390625 
Q 23.390625 48.390625 19.1875 42.75 
Q 14.984375 37.109375 14.984375 27.296875 
Q 14.984375 17.484375 19.15625 11.84375 
Q 23.34375 6.203125 30.609375 6.203125 
Q 37.796875 6.203125 41.984375 11.859375 
Q 46.1875 17.53125 46.1875 27.296875 
Q 46.1875 37.015625 41.984375 42.703125 
Q 37.796875 48.390625 30.609375 48.390625 
z
M 30.609375 56 
Q 42.328125 56 49.015625 48.375 
Q 55.71875 40.765625 55.71875 27.296875 
Q 55.71875 13.875 49.015625 6.21875 
Q 42.328125 -1.421875 30.609375 -1.421875 
Q 18.84375 -1.421875 12.171875 6.21875 
Q 5.515625 13.875 5.515625 27.296875 
Q 5.515625 40.765625 12.171875 48.375 
Q 18.84375 56 30.609375 56 
z
" id="DejaVuSans-111"/>
      </defs>
      <g transform="translate(143.347223 611.880806)rotate(-45)scale(0.1 -0.1)">
       <use xlink:href="#DejaVuSans-110"/>
       <use x="63.378906" xlink:href="#DejaVuSans-111"/>
      </g>
     </g>
    </g>
    <g id="xtick_3">
     <g id="line2d_3">
      <g>
       <use style="stroke:#000000;stroke-width:0.8;" x="183" xlink:href="#m41b36e01c9" y="590.7"/>
      </g>
     </g>
     <g id="text_3">
      <!-- up -->
      <defs>
       <path d="M 8.5 21.578125 
L 8.5 54.6875 
L 17.484375 54.6875 
L 17.484375 21.921875 
Q 17.484375 14.15625 20.5 10.265625 
Q 23.53125 6.390625 29.59375 6.390625 
Q 36.859375 6.390625 41.078125 11.03125 
Q 45.3125 15.671875 45.3125 23.6875 
L 45.3125 54.6875 
L 54.296875 54.6875 
L 54.296875 0 
L 45.3125 0 
L 45.3125 8.40625 
Q 42.046875 3.421875 37.71875 1 
Q 33.40625 -1.421875 27.6875 -1.421875 
Q 18.265625 -1.421875 13.375 4.4375 
Q 8.5 10.296875 8.5 21.578125 
z
M 31.109375 56 
z
" id="DejaVuSans-117"/>
       <path d="M 18.109375 8.203125 
L 18.109375 -20.796875 
L 9.078125 -20.796875 
L 9.078125 54.6875 
L 18.109375 54.6875 
L 18.109375 46.390625 
Q 20.953125 51.265625 25.265625 53.625 
Q 29.59375 56 35.59375 56 
Q 45.5625 56 51.78125 48.09375 
Q 58.015625 40.1875 58.015625 27.296875 
Q 58.015625 14.40625 51.78125 6.484375 
Q 45.5625 -1.421875 35.59375 -1.421875 
Q 29.59375 -1.421875 25.265625 0.953125 
Q 20.953125 3.328125 18.109375 8.203125 
z
M 48.6875 27.296875 
Q 48.6875 37.203125 44.609375 42.84375 
Q 40.53125 48.484375 33.40625 48.484375 
Q 26.265625 48.484375 22.1875 42.84375 
Q 18.109375 37.203125 18.109375 27.296875 
Q 18.109375 17.390625 22.1875 11.75 
Q 26.265625 6.109375 33.40625 6.109375 
Q 40.53125 6.109375 44.609375 11.75 
Q 48.6875 17.390625 48.6875 27.296875 
z
" id="DejaVuSans-112"/>
      </defs>
      <g transform="translate(180.466017 612.043219)rotate(-45)scale(0.1 -0.1)">
       <use xlink:href="#DejaVuSans-117"/>
       <use x="63.378906" xlink:href="#DejaVuSans-112"/>
      </g>
     </g>
    </g>
    <g id="xtick_4">
     <g id="line2d_4">
      <g>
       <use style="stroke:#000000;stroke-width:0.8;" x="220.2" xlink:href="#m41b36e01c9" y="590.7"/>
      </g>
     </g>
     <g id="text_4">
      <!-- down -->
      <defs>
       <path d="M 45.40625 46.390625 
L 45.40625 75.984375 
L 54.390625 75.984375 
L 54.390625 0 
L 45.40625 0 
L 45.40625 8.203125 
Q 42.578125 3.328125 38.25 0.953125 
Q 33.9375 -1.421875 27.875 -1.421875 
Q 17.96875 -1.421875 11.734375 6.484375 
Q 5.515625 14.40625 5.515625 27.296875 
Q 5.515625 40.1875 11.734375 48.09375 
Q 17.96875 56 27.875 56 
Q 33.9375 56 38.25 53.625 
Q 42.578125 51.265625 45.40625 46.390625 
z
M 14.796875 27.296875 
Q 14.796875 17.390625 18.875 11.75 
Q 22.953125 6.109375 30.078125 6.109375 
Q 37.203125 6.109375 41.296875 11.75 
Q 45.40625 17.390625 45.40625 27.296875 
Q 45.40625 37.203125 41.296875 42.84375 
Q 37.203125 48.484375 30.078125 48.484375 
Q 22.953125 48.484375 18.875 42.84375 
Q 14.796875 37.203125 14.796875 27.296875 
z
" id="DejaVuSans-100"/>
       <path d="M 4.203125 54.6875 
L 13.1875 54.6875 
L 24.421875 12.015625 
L 35.59375 54.6875 
L 46.1875 54.6875 
L 57.421875 12.015625 
L 68.609375 54.6875 
L 77.59375 54.6875 
L 63.28125 0 
L 52.6875 0 
L 40.921875 44.828125 
L 29.109375 0 
L 18.5 0 
z
" id="DejaVuSans-119"/>
      </defs>
      <g transform="translate(212.611308 622.152636)rotate(-45)scale(0.1 -0.1)">
       <use xlink:href="#DejaVuSans-100"/>
       <use x="63.476562" xlink:href="#DejaVuSans-111"/>
       <use x="124.658203" xlink:href="#DejaVuSans-119"/>
       <use x="206.445312" xlink:href="#DejaVuSans-110"/>
      </g>
     </g>
    </g>
    <g id="xtick_5">
     <g id="line2d_5">
      <g>
       <use style="stroke:#000000;stroke-width:0.8;" x="257.4" xlink:href="#m41b36e01c9" y="590.7"/>
      </g>
     </g>
     <g id="text_5">
      <!-- left -->
      <defs>
       <path d="M 9.421875 75.984375 
L 18.40625 75.984375 
L 18.40625 0 
L 9.421875 0 
z
" id="DejaVuSans-108"/>
       <path d="M 37.109375 75.984375 
L 37.109375 68.5 
L 28.515625 68.5 
Q 23.6875 68.5 21.796875 66.546875 
Q 19.921875 64.59375 19.921875 59.515625 
L 19.921875 54.6875 
L 34.71875 54.6875 
L 34.71875 47.703125 
L 19.921875 47.703125 
L 19.921875 0 
L 10.890625 0 
L 10.890625 47.703125 
L 2.296875 47.703125 
L 2.296875 54.6875 
L 10.890625 54.6875 
L 10.890625 58.5 
Q 10.890625 67.625 15.140625 71.796875 
Q 19.390625 75.984375 28.609375 75.984375 
z
" id="DejaVuSans-102"/>
       <path d="M 18.3125 70.21875 
L 18.3125 54.6875 
L 36.8125 54.6875 
L 36.8125 47.703125 
L 18.3125 47.703125 
L 18.3125 18.015625 
Q 18.3125 11.328125 20.140625 9.421875 
Q 21.96875 7.515625 27.59375 7.515625 
L 36.8125 7.515625 
L 36.8125 0 
L 27.59375 0 
Q 17.1875 0 13.234375 3.875 
Q 9.28125 7.765625 9.28125 18.015625 
L 9.28125 47.703125 
L 2.6875 47.703125 
L 2.6875 54.6875 
L 9.28125 54.6875 
L 9.28125 70.21875 
z
" id="DejaVuSans-116"/>
      </defs>
      <g transform="translate(253.624713 614.525827)rotate(-45)scale(0.1 -0.1)">
       <use xlink:href="#DejaVuSans-108"/>
       <use x="27.783203" xlink:href="#DejaVuSans-101"/>
       <use x="89.306641" xlink:href="#DejaVuSans-102"/>
       <use x="122.761719" xlink:href="#DejaVuSans-116"/>
      </g>
     </g>
    </g>
    <g id="xtick_6">
     <g id="line2d_6">
      <g>
       <use style="stroke:#000000;stroke-width:0.8;" x="294.6" xlink:href="#m41b36e01c9" y="590.7"/>
      </g>
     </g>
     <g id="text_6">
      <!-- right -->
      <defs>
       <path d="M 41.109375 46.296875 
Q 39.59375 47.171875 37.8125 47.578125 
Q 36.03125 48 33.890625 48 
Q 26.265625 48 22.1875 43.046875 
Q 18.109375 38.09375 18.109375 28.8125 
L 18.109375 0 
L 9.078125 0 
L 9.078125 54.6875 
L 18.109375 54.6875 
L 18.109375 46.1875 
Q 20.953125 51.171875 25.484375 53.578125 
Q 30.03125 56 36.53125 56 
Q 37.453125 56 38.578125 55.875 
Q 39.703125 55.765625 41.0625 55.515625 
z
" id="DejaVuSans-114"/>
       <path d="M 9.421875 54.6875 
L 18.40625 54.6875 
L 18.40625 0 
L 9.421875 0 
z
M 9.421875 75.984375 
L 18.40625 75.984375 
L 18.40625 64.59375 
L 9.421875 64.59375 
z
" id="DejaVuSans-105"/>
       <path d="M 45.40625 27.984375 
Q 45.40625 37.75 41.375 43.109375 
Q 37.359375 48.484375 30.078125 48.484375 
Q 22.859375 48.484375 18.828125 43.109375 
Q 14.796875 37.75 14.796875 27.984375 
Q 14.796875 18.265625 18.828125 12.890625 
Q 22.859375 7.515625 30.078125 7.515625 
Q 37.359375 7.515625 41.375 12.890625 
Q 45.40625 18.265625 45.40625 27.984375 
z
M 54.390625 6.78125 
Q 54.390625 -7.171875 48.1875 -13.984375 
Q 42 -20.796875 29.203125 -20.796875 
Q 24.46875 -20.796875 20.265625 -20.09375 
Q 16.0625 -19.390625 12.109375 -17.921875 
L 12.109375 -9.1875 
Q 16.0625 -11.328125 19.921875 -12.34375 
Q 23.78125 -13.375 27.78125 -13.375 
Q 36.625 -13.375 41.015625 -8.765625 
Q 45.40625 -4.15625 45.40625 5.171875 
L 45.40625 9.625 
Q 42.625 4.78125 38.28125 2.390625 
Q 33.9375 0 27.875 0 
Q 17.828125 0 11.671875 7.65625 
Q 5.515625 15.328125 5.515625 27.984375 
Q 5.515625 40.671875 11.671875 48.328125 
Q 17.828125 56 27.875 56 
Q 33.9375 56 38.28125 53.609375 
Q 42.625 51.21875 45.40625 46.390625 
L 45.40625 54.6875 
L 54.390625 54.6875 
z
" id="DejaVuSans-103"/>
       <path d="M 54.890625 33.015625 
L 54.890625 0 
L 45.90625 0 
L 45.90625 32.71875 
Q 45.90625 40.484375 42.875 44.328125 
Q 39.84375 48.1875 33.796875 48.1875 
Q 26.515625 48.1875 22.3125 43.546875 
Q 18.109375 38.921875 18.109375 30.90625 
L 18.109375 0 
L 9.078125 0 
L 9.078125 75.984375 
L 18.109375 75.984375 
L 18.109375 46.1875 
Q 21.34375 51.125 25.703125 53.5625 
Q 30.078125 56 35.796875 56 
Q 45.21875 56 50.046875 50.171875 
Q 54.890625 44.34375 54.890625 33.015625 
z
" id="DejaVuSans-104"/>
      </defs>
      <g transform="translate(288.244325 619.686601)rotate(-45)scale(0.1 -0.1)">
       <use xlink:href="#DejaVuSans-114"/>
       <use x="41.113281" xlink:href="#DejaVuSans-105"/>
       <use x="68.896484" xlink:href="#DejaVuSans-103"/>
       <use x="132.373047" xlink:href="#DejaVuSans-104"/>
       <use x="195.751953" xlink:href="#DejaVuSans-116"/>
      </g>
     </g>
    </g>
    <g id="xtick_7">
     <g id="line2d_7">
      <g>
       <use style="stroke:#000000;stroke-width:0.8;" x="331.8" xlink:href="#m41b36e01c9" y="590.7"/>
      </g>
     </g>
     <g id="text_7">
      <!-- on -->
      <g transform="translate(329.347223 611.880806)rotate(-45)scale(0.1 -0.1)">
       <use xlink:href="#DejaVuSans-111"/>
       <use x="61.181641" xlink:href="#DejaVuSans-110"/>
      </g>
     </g>
    </g>
    <g id="xtick_8">
     <g id="line2d_8">
      <g>
       <use style="stroke:#000000;stroke-width:0.8;" x="369" xlink:href="#m41b36e01c9" y="590.7"/>
      </g>
     </g>
     <g id="text_8">
      <!-- off -->
      <g transform="translate(366.298631 612.37799)rotate(-45)scale(0.1 -0.1)">
       <use xlink:href="#DejaVuSans-111"/>
       <use x="61.181641" xlink:href="#DejaVuSans-102"/>
       <use x="96.386719" xlink:href="#DejaVuSans-102"/>
      </g>
     </g>
    </g>
    <g id="xtick_9">
     <g id="line2d_9">
      <g>
       <use style="stroke:#000000;stroke-width:0.8;" x="406.2" xlink:href="#m41b36e01c9" y="590.7"/>
      </g>
     </g>
     <g id="text_9">
      <!-- stop -->
      <g transform="translate(400.515524 618.344203)rotate(-45)scale(0.1 -0.1)">
       <use xlink:href="#DejaVuSans-115"/>
       <use x="52.099609" xlink:href="#DejaVuSans-116"/>
       <use x="91.308594" xlink:href="#DejaVuSans-111"/>
       <use x="152.490234" xlink:href="#DejaVuSans-112"/>
      </g>
     </g>
    </g>
    <g id="xtick_10">
     <g id="line2d_10">
      <g>
       <use style="stroke:#000000;stroke-width:0.8;" x="443.4" xlink:href="#m41b36e01c9" y="590.7"/>
      </g>
     </g>
     <g id="text_10">
      <!-- go -->
      <g transform="translate(440.943356 611.88854)rotate(-45)scale(0.1 -0.1)">
       <use xlink:href="#DejaVuSans-103"/>
       <use x="63.476562" xlink:href="#DejaVuSans-111"/>
      </g>
     </g>
    </g>
    <g id="xtick_11">
     <g id="line2d_11">
      <g>
       <use style="stroke:#000000;stroke-width:0.8;" x="480.6" xlink:href="#m41b36e01c9" y="590.7"/>
      </g>
     </g>
     <g id="text_11">
      <!-- silence -->
      <defs>
       <path d="M 48.78125 52.59375 
L 48.78125 44.1875 
Q 44.96875 46.296875 41.140625 47.34375 
Q 37.3125 48.390625 33.40625 48.390625 
Q 24.65625 48.390625 19.8125 42.84375 
Q 14.984375 37.3125 14.984375 27.296875 
Q 14.984375 17.28125 19.8125 11.734375 
Q 24.65625 6.203125 33.40625 6.203125 
Q 37.3125 6.203125 41.140625 7.25 
Q 44.96875 8.296875 48.78125 10.40625 
L 48.78125 2.09375 
Q 45.015625 0.34375 40.984375 -0.53125 
Q 36.96875 -1.421875 32.421875 -1.421875 
Q 20.0625 -1.421875 12.78125 6.34375 
Q 5.515625 14.109375 5.515625 27.296875 
Q 5.515625 40.671875 12.859375 48.328125 
Q 20.21875 56 33.015625 56 
Q 37.15625 56 41.109375 55.140625 
Q 45.0625 54.296875 48.78125 52.59375 
z
" id="DejaVuSans-99"/>
      </defs>
      <g transform="translate(470.209397 627.756458)rotate(-45)scale(0.1 -0.1)">
       <use xlink:href="#DejaVuSans-115"/>
       <use x="52.099609" xlink:href="#DejaVuSans-105"/>
       <use x="79.882812" xlink:href="#DejaVuSans-108"/>
       <use x="107.666016" xlink:href="#DejaVuSans-101"/>
       <use x="169.189453" xlink:href="#DejaVuSans-110"/>
       <use x="232.568359" xlink:href="#DejaVuSans-99"/>
       <use x="287.548828" xlink:href="#DejaVuSans-101"/>
      </g>
     </g>
    </g>
    <g id="xtick_12">
     <g id="line2d_12">
      <g>
       <use style="stroke:#000000;stroke-width:0.8;" x="517.8" xlink:href="#m41b36e01c9" y="590.7"/>
      </g>
     </g>
     <g id="text_12">
      <!-- unknown -->
      <defs>
       <path d="M 9.078125 75.984375 
L 18.109375 75.984375 
L 18.109375 31.109375 
L 44.921875 54.6875 
L 56.390625 54.6875 
L 27.390625 29.109375 
L 57.625 0 
L 45.90625 0 
L 18.109375 26.703125 
L 18.109375 0 
L 9.078125 0 
z
" id="DejaVuSans-107"/>
      </defs>
      <g transform="translate(503.686591 635.202071)rotate(-45)scale(0.1 -0.1)">
       <use xlink:href="#DejaVuSans-117"/>
       <use x="63.378906" xlink:href="#DejaVuSans-110"/>
       <use x="126.757812" xlink:href="#DejaVuSans-107"/>
       <use x="184.667969" xlink:href="#DejaVuSans-110"/>
       <use x="248.046875" xlink:href="#DejaVuSans-111"/>
       <use x="309.228516" xlink:href="#DejaVuSans-119"/>
       <use x="391.015625" xlink:href="#DejaVuSans-110"/>
      </g>
     </g>
    </g>
    <g id="text_13">
     <!-- prediction -->
     <g transform="translate(288.116406 648.27107)scale(0.1 -0.1)">
      <use xlink:href="#DejaVuSans-112"/>
      <use x="63.476562" xlink:href="#DejaVuSans-114"/>
      <use x="102.339844" xlink:href="#DejaVuSans-101"/>
      <use x="163.863281" xlink:href="#DejaVuSans-100"/>
      <use x="227.339844" xlink:href="#DejaVuSans-105"/>
      <use x="255.123047" xlink:href="#DejaVuSans-99"/>
      <use x="310.103516" xlink:href="#DejaVuSans-116"/>
      <use x="349.3125" xlink:href="#DejaVuSans-105"/>
      <use x="377.095703" xlink:href="#DejaVuSans-111"/>
      <use x="438.277344" xlink:href="#DejaVuSans-110"/>
     </g>
    </g>
   </g>
   <g id="matplotlib.axis_2">
    <g id="ytick_1">
     <g id="line2d_13">
      <defs>
       <path d="M 0 0 
L -3.5 0 
" id="m950ce43554" style="stroke:#000000;stroke-width:0.8;"/>
      </defs>
      <g>
       <use style="stroke:#000000;stroke-width:0.8;" x="90" xlink:href="#m950ce43554" y="553.5"/>
      </g>
     </g>
     <g id="text_14">
      <!-- yes -->
      <g transform="translate(65.715147 557.329369)rotate(-0.1)scale(0.1 -0.1)">
       <use xlink:href="#DejaVuSans-121"/>
       <use x="59.179688" xlink:href="#DejaVuSans-101"/>
       <use x="120.703125" xlink:href="#DejaVuSans-115"/>
      </g>
     </g>
    </g>
    <g id="ytick_2">
     <g id="line2d_14">
      <g>
       <use style="stroke:#000000;stroke-width:0.8;" x="90" xlink:href="#m950ce43554" y="516.3"/>
      </g>
     </g>
     <g id="text_15">
      <!-- no -->
      <g transform="translate(70.540139 520.120947)rotate(-0.1)scale(0.1 -0.1)">
       <use xlink:href="#DejaVuSans-110"/>
       <use x="63.378906" xlink:href="#DejaVuSans-111"/>
      </g>
     </g>
    </g>
    <g id="ytick_3">
     <g id="line2d_15">
      <g>
       <use style="stroke:#000000;stroke-width:0.8;" x="90" xlink:href="#m950ce43554" y="479.1"/>
      </g>
     </g>
     <g id="text_16">
      <!-- up -->
      <g transform="translate(70.310452 482.921348)rotate(-0.1)scale(0.1 -0.1)">
       <use xlink:href="#DejaVuSans-117"/>
       <use x="63.378906" xlink:href="#DejaVuSans-112"/>
      </g>
     </g>
    </g>
    <g id="ytick_4">
     <g id="line2d_16">
      <g>
       <use style="stroke:#000000;stroke-width:0.8;" x="90" xlink:href="#m950ce43554" y="441.9"/>
      </g>
     </g>
     <g id="text_17">
      <!-- down -->
      <g transform="translate(56.013599 445.746301)rotate(-0.1)scale(0.1 -0.1)">
       <use xlink:href="#DejaVuSans-100"/>
       <use x="63.476562" xlink:href="#DejaVuSans-111"/>
       <use x="124.658203" xlink:href="#DejaVuSans-119"/>
       <use x="206.445312" xlink:href="#DejaVuSans-110"/>
      </g>
     </g>
    </g>
    <g id="ytick_5">
     <g id="line2d_17">
      <g>
       <use style="stroke:#000000;stroke-width:0.8;" x="90" xlink:href="#m950ce43554" y="404.7"/>
      </g>
     </g>
     <g id="text_18">
      <!-- left -->
      <g transform="translate(66.79952 408.527476)rotate(-0.1)scale(0.1 -0.1)">
       <use xlink:href="#DejaVuSans-108"/>
       <use x="27.783203" xlink:href="#DejaVuSans-101"/>
       <use x="89.306641" xlink:href="#DejaVuSans-102"/>
       <use x="122.761719" xlink:href="#DejaVuSans-116"/>
      </g>
     </g>
    </g>
    <g id="ytick_6">
     <g id="line2d_18">
      <g>
       <use style="stroke:#000000;stroke-width:0.8;" x="90" xlink:href="#m950ce43554" y="367.5"/>
      </g>
     </g>
     <g id="text_19">
      <!-- right -->
      <g transform="translate(59.501094 371.340214)rotate(-0.1)scale(0.1 -0.1)">
       <use xlink:href="#DejaVuSans-114"/>
       <use x="41.113281" xlink:href="#DejaVuSans-105"/>
       <use x="68.896484" xlink:href="#DejaVuSans-103"/>
       <use x="132.373047" xlink:href="#DejaVuSans-104"/>
       <use x="195.751953" xlink:href="#DejaVuSans-116"/>
      </g>
     </g>
    </g>
    <g id="ytick_7">
     <g id="line2d_19">
      <g>
       <use style="stroke:#000000;stroke-width:0.8;" x="90" xlink:href="#m950ce43554" y="330.3"/>
      </g>
     </g>
     <g id="text_20">
      <!-- on -->
      <g transform="translate(70.540139 334.120947)rotate(-0.1)scale(0.1 -0.1)">
       <use xlink:href="#DejaVuSans-111"/>
       <use x="61.181641" xlink:href="#DejaVuSans-110"/>
      </g>
     </g>
    </g>
    <g id="ytick_8">
     <g id="line2d_20">
      <g>
       <use style="stroke:#000000;stroke-width:0.8;" x="90" xlink:href="#m950ce43554" y="293.1"/>
      </g>
     </g>
     <g id="text_21">
      <!-- off -->
      <g transform="translate(69.837015 296.922175)rotate(-0.1)scale(0.1 -0.1)">
       <use xlink:href="#DejaVuSans-111"/>
       <use x="61.181641" xlink:href="#DejaVuSans-102"/>
       <use x="96.386719" xlink:href="#DejaVuSans-102"/>
      </g>
     </g>
    </g>
    <g id="ytick_9">
     <g id="line2d_21">
      <g>
       <use style="stroke:#000000;stroke-width:0.8;" x="90" xlink:href="#m950ce43554" y="255.9"/>
      </g>
     </g>
     <g id="text_22">
      <!-- stop -->
      <g transform="translate(61.399528 259.736901)rotate(-0.1)scale(0.1 -0.1)">
       <use xlink:href="#DejaVuSans-115"/>
       <use x="52.099609" xlink:href="#DejaVuSans-116"/>
       <use x="91.308594" xlink:href="#DejaVuSans-111"/>
       <use x="152.490234" xlink:href="#DejaVuSans-112"/>
      </g>
     </g>
    </g>
    <g id="ytick_10">
     <g id="line2d_22">
      <g>
       <use style="stroke:#000000;stroke-width:0.8;" x="90" xlink:href="#m950ce43554" y="218.7"/>
      </g>
     </g>
     <g id="text_23">
      <!-- go -->
      <g transform="translate(70.529202 222.520967)rotate(-0.1)scale(0.1 -0.1)">
       <use xlink:href="#DejaVuSans-103"/>
       <use x="63.476562" xlink:href="#DejaVuSans-111"/>
      </g>
     </g>
    </g>
    <g id="ytick_11">
     <g id="line2d_23">
      <g>
       <use style="stroke:#000000;stroke-width:0.8;" x="90" xlink:href="#m950ce43554" y="181.5"/>
      </g>
     </g>
     <g id="text_24">
      <!-- silence -->
      <g transform="translate(48.088611 185.360133)rotate(-0.1)scale(0.1 -0.1)">
       <use xlink:href="#DejaVuSans-115"/>
       <use x="52.099609" xlink:href="#DejaVuSans-105"/>
       <use x="79.882812" xlink:href="#DejaVuSans-108"/>
       <use x="107.666016" xlink:href="#DejaVuSans-101"/>
       <use x="169.189453" xlink:href="#DejaVuSans-110"/>
       <use x="232.568359" xlink:href="#DejaVuSans-99"/>
       <use x="287.548828" xlink:href="#DejaVuSans-101"/>
      </g>
     </g>
    </g>
    <g id="ytick_12">
     <g id="line2d_24">
      <g>
       <use style="stroke:#000000;stroke-width:0.8;" x="90" xlink:href="#m950ce43554" y="144.3"/>
      </g>
     </g>
     <g id="text_25">
      <!-- unknown -->
      <g transform="translate(37.558939 148.178511)rotate(-0.1)scale(0.1 -0.1)">
       <use xlink:href="#DejaVuSans-117"/>
       <use x="63.378906" xlink:href="#DejaVuSans-110"/>
       <use x="126.757812" xlink:href="#DejaVuSans-107"/>
       <use x="184.667969" xlink:href="#DejaVuSans-110"/>
       <use x="248.046875" xlink:href="#DejaVuSans-111"/>
       <use x="309.228516" xlink:href="#DejaVuSans-119"/>
       <use x="391.015625" xlink:href="#DejaVuSans-110"/>
      </g>
     </g>
    </g>
    <g id="text_26">
     <!-- validation -->
     <defs>
      <path d="M 2.984375 54.6875 
L 12.5 54.6875 
L 29.59375 8.796875 
L 46.6875 54.6875 
L 56.203125 54.6875 
L 35.6875 0 
L 23.484375 0 
z
" id="DejaVuSans-118"/>
      <path d="M 34.28125 27.484375 
Q 23.390625 27.484375 19.1875 25 
Q 14.984375 22.515625 14.984375 16.5 
Q 14.984375 11.71875 18.140625 8.90625 
Q 21.296875 6.109375 26.703125 6.109375 
Q 34.1875 6.109375 38.703125 11.40625 
Q 43.21875 16.703125 43.21875 25.484375 
L 43.21875 27.484375 
z
M 52.203125 31.203125 
L 52.203125 0 
L 43.21875 0 
L 43.21875 8.296875 
Q 40.140625 3.328125 35.546875 0.953125 
Q 30.953125 -1.421875 24.3125 -1.421875 
Q 15.921875 -1.421875 10.953125 3.296875 
Q 6 8.015625 6 15.921875 
Q 6 25.140625 12.171875 29.828125 
Q 18.359375 34.515625 30.609375 34.515625 
L 43.21875 34.515625 
L 43.21875 35.40625 
Q 43.21875 41.609375 39.140625 45 
Q 35.0625 48.390625 27.6875 48.390625 
Q 23 48.390625 18.546875 47.265625 
Q 14.109375 46.140625 10.015625 43.890625 
L 10.015625 52.203125 
Q 14.9375 54.109375 19.578125 55.046875 
Q 24.21875 56 28.609375 56 
Q 40.484375 56 46.34375 49.84375 
Q 52.203125 43.703125 52.203125 31.203125 
z
" id="DejaVuSans-97"/>
     </defs>
     <g transform="translate(31.46599 382.817187)rotate(-90)scale(0.1 -0.1)">
      <use xlink:href="#DejaVuSans-118"/>
      <use x="59.179688" xlink:href="#DejaVuSans-97"/>
      <use x="120.458984" xlink:href="#DejaVuSans-108"/>
      <use x="148.242188" xlink:href="#DejaVuSans-105"/>
      <use x="176.025391" xlink:href="#DejaVuSans-100"/>
      <use x="239.501953" xlink:href="#DejaVuSans-97"/>
      <use x="300.78125" xlink:href="#DejaVuSans-116"/>
      <use x="339.990234" xlink:href="#DejaVuSans-105"/>
      <use x="367.773438" xlink:href="#DejaVuSans-111"/>
      <use x="428.955078" xlink:href="#DejaVuSans-110"/>
     </g>
    </g>
   </g>
   <g id="text_27">
    <!-- 242 -->
    <defs>
     <path d="M 19.1875 8.296875 
L 53.609375 8.296875 
L 53.609375 0 
L 7.328125 0 
L 7.328125 8.296875 
Q 12.9375 14.109375 22.625 23.890625 
Q 32.328125 33.6875 34.8125 36.53125 
Q 39.546875 41.84375 41.421875 45.53125 
Q 43.3125 49.21875 43.3125 52.78125 
Q 43.3125 58.59375 39.234375 62.25 
Q 35.15625 65.921875 28.609375 65.921875 
Q 23.96875 65.921875 18.8125 64.3125 
Q 13.671875 62.703125 7.8125 59.421875 
L 7.8125 69.390625 
Q 13.765625 71.78125 18.9375 73 
Q 24.125 74.21875 28.421875 74.21875 
Q 39.75 74.21875 46.484375 68.546875 
Q 53.21875 62.890625 53.21875 53.421875 
Q 53.21875 48.921875 51.53125 44.890625 
Q 49.859375 40.875 45.40625 35.40625 
Q 44.1875 33.984375 37.640625 27.21875 
Q 31.109375 20.453125 19.1875 8.296875 
z
" id="DejaVuSans-50"/>
     <path d="M 37.796875 64.3125 
L 12.890625 25.390625 
L 37.796875 25.390625 
z
M 35.203125 72.90625 
L 47.609375 72.90625 
L 47.609375 25.390625 
L 58.015625 25.390625 
L 58.015625 17.1875 
L 47.609375 17.1875 
L 47.609375 0 
L 37.796875 0 
L 37.796875 17.1875 
L 4.890625 17.1875 
L 4.890625 26.703125 
z
" id="DejaVuSans-52"/>
    </defs>
    <g style="fill:#262626;" transform="translate(99.05625 556.259375)scale(0.1 -0.1)">
     <use xlink:href="#DejaVuSans-50"/>
     <use x="63.623047" xlink:href="#DejaVuSans-52"/>
     <use x="127.246094" xlink:href="#DejaVuSans-50"/>
    </g>
   </g>
   <g id="text_28">
    <!-- 0 -->
    <defs>
     <path d="M 31.78125 66.40625 
Q 24.171875 66.40625 20.328125 58.90625 
Q 16.5 51.421875 16.5 36.375 
Q 16.5 21.390625 20.328125 13.890625 
Q 24.171875 6.390625 31.78125 6.390625 
Q 39.453125 6.390625 43.28125 13.890625 
Q 47.125 21.390625 47.125 36.375 
Q 47.125 51.421875 43.28125 58.90625 
Q 39.453125 66.40625 31.78125 66.40625 
z
M 31.78125 74.21875 
Q 44.046875 74.21875 50.515625 64.515625 
Q 56.984375 54.828125 56.984375 36.375 
Q 56.984375 17.96875 50.515625 8.265625 
Q 44.046875 -1.421875 31.78125 -1.421875 
Q 19.53125 -1.421875 13.0625 8.265625 
Q 6.59375 17.96875 6.59375 36.375 
Q 6.59375 54.828125 13.0625 64.515625 
Q 19.53125 74.21875 31.78125 74.21875 
z
" id="DejaVuSans-48"/>
    </defs>
    <g style="fill:#262626;" transform="translate(142.61875 556.259375)scale(0.1 -0.1)">
     <use xlink:href="#DejaVuSans-48"/>
    </g>
   </g>
   <g id="text_29">
    <!-- 0 -->
    <g style="fill:#262626;" transform="translate(179.81875 556.259375)scale(0.1 -0.1)">
     <use xlink:href="#DejaVuSans-48"/>
    </g>
   </g>
   <g id="text_30">
    <!-- 1 -->
    <defs>
     <path d="M 12.40625 8.296875 
L 28.515625 8.296875 
L 28.515625 63.921875 
L 10.984375 60.40625 
L 10.984375 69.390625 
L 28.421875 72.90625 
L 38.28125 72.90625 
L 38.28125 8.296875 
L 54.390625 8.296875 
L 54.390625 0 
L 12.40625 0 
z
" id="DejaVuSans-49"/>
    </defs>
    <g style="fill:#262626;" transform="translate(217.01875 556.259375)scale(0.1 -0.1)">
     <use xlink:href="#DejaVuSans-49"/>
    </g>
   </g>
   <g id="text_31">
    <!-- 0 -->
    <g style="fill:#262626;" transform="translate(254.21875 556.259375)scale(0.1 -0.1)">
     <use xlink:href="#DejaVuSans-48"/>
    </g>
   </g>
   <g id="text_32">
    <!-- 0 -->
    <g style="fill:#262626;" transform="translate(291.41875 556.259375)scale(0.1 -0.1)">
     <use xlink:href="#DejaVuSans-48"/>
    </g>
   </g>
   <g id="text_33">
    <!-- 0 -->
    <g style="fill:#262626;" transform="translate(328.61875 556.259375)scale(0.1 -0.1)">
     <use xlink:href="#DejaVuSans-48"/>
    </g>
   </g>
   <g id="text_34">
    <!-- 0 -->
    <g style="fill:#262626;" transform="translate(365.81875 556.259375)scale(0.1 -0.1)">
     <use xlink:href="#DejaVuSans-48"/>
    </g>
   </g>
   <g id="text_35">
    <!-- 0 -->
    <g style="fill:#262626;" transform="translate(403.01875 556.259375)scale(0.1 -0.1)">
     <use xlink:href="#DejaVuSans-48"/>
    </g>
   </g>
   <g id="text_36">
    <!-- 1 -->
    <g style="fill:#262626;" transform="translate(440.21875 556.259375)scale(0.1 -0.1)">
     <use xlink:href="#DejaVuSans-49"/>
    </g>
   </g>
   <g id="text_37">
    <!-- 0 -->
    <g style="fill:#262626;" transform="translate(477.41875 556.259375)scale(0.1 -0.1)">
     <use xlink:href="#DejaVuSans-48"/>
    </g>
   </g>
   <g id="text_38">
    <!-- 12 -->
    <g style="fill:#262626;" transform="translate(511.4375 556.259375)scale(0.1 -0.1)">
     <use xlink:href="#DejaVuSans-49"/>
     <use x="63.623047" xlink:href="#DejaVuSans-50"/>
    </g>
   </g>
   <g id="text_39">
    <!-- 1 -->
    <g style="fill:#262626;" transform="translate(105.41875 519.059375)scale(0.1 -0.1)">
     <use xlink:href="#DejaVuSans-49"/>
    </g>
   </g>
   <g id="text_40">
    <!-- 221 -->
    <g style="fill:#262626;" transform="translate(136.25625 519.059375)scale(0.1 -0.1)">
     <use xlink:href="#DejaVuSans-50"/>
     <use x="63.623047" xlink:href="#DejaVuSans-50"/>
     <use x="127.246094" xlink:href="#DejaVuSans-49"/>
    </g>
   </g>
   <g id="text_41">
    <!-- 0 -->
    <g style="fill:#262626;" transform="translate(179.81875 519.059375)scale(0.1 -0.1)">
     <use xlink:href="#DejaVuSans-48"/>
    </g>
   </g>
   <g id="text_42">
    <!-- 5 -->
    <defs>
     <path d="M 10.796875 72.90625 
L 49.515625 72.90625 
L 49.515625 64.59375 
L 19.828125 64.59375 
L 19.828125 46.734375 
Q 21.96875 47.46875 24.109375 47.828125 
Q 26.265625 48.1875 28.421875 48.1875 
Q 40.625 48.1875 47.75 41.5 
Q 54.890625 34.8125 54.890625 23.390625 
Q 54.890625 11.625 47.5625 5.09375 
Q 40.234375 -1.421875 26.90625 -1.421875 
Q 22.3125 -1.421875 17.546875 -0.640625 
Q 12.796875 0.140625 7.71875 1.703125 
L 7.71875 11.625 
Q 12.109375 9.234375 16.796875 8.0625 
Q 21.484375 6.890625 26.703125 6.890625 
Q 35.15625 6.890625 40.078125 11.328125 
Q 45.015625 15.765625 45.015625 23.390625 
Q 45.015625 31 40.078125 35.4375 
Q 35.15625 39.890625 26.703125 39.890625 
Q 22.75 39.890625 18.8125 39.015625 
Q 14.890625 38.140625 10.796875 36.28125 
z
" id="DejaVuSans-53"/>
    </defs>
    <g style="fill:#262626;" transform="translate(217.01875 519.059375)scale(0.1 -0.1)">
     <use xlink:href="#DejaVuSans-53"/>
    </g>
   </g>
   <g id="text_43">
    <!-- 1 -->
    <g style="fill:#262626;" transform="translate(254.21875 519.059375)scale(0.1 -0.1)">
     <use xlink:href="#DejaVuSans-49"/>
    </g>
   </g>
   <g id="text_44">
    <!-- 0 -->
    <g style="fill:#262626;" transform="translate(291.41875 519.059375)scale(0.1 -0.1)">
     <use xlink:href="#DejaVuSans-48"/>
    </g>
   </g>
   <g id="text_45">
    <!-- 0 -->
    <g style="fill:#262626;" transform="translate(328.61875 519.059375)scale(0.1 -0.1)">
     <use xlink:href="#DejaVuSans-48"/>
    </g>
   </g>
   <g id="text_46">
    <!-- 1 -->
    <g style="fill:#262626;" transform="translate(365.81875 519.059375)scale(0.1 -0.1)">
     <use xlink:href="#DejaVuSans-49"/>
    </g>
   </g>
   <g id="text_47">
    <!-- 0 -->
    <g style="fill:#262626;" transform="translate(403.01875 519.059375)scale(0.1 -0.1)">
     <use xlink:href="#DejaVuSans-48"/>
    </g>
   </g>
   <g id="text_48">
    <!-- 3 -->
    <defs>
     <path d="M 40.578125 39.3125 
Q 47.65625 37.796875 51.625 33 
Q 55.609375 28.21875 55.609375 21.1875 
Q 55.609375 10.40625 48.1875 4.484375 
Q 40.765625 -1.421875 27.09375 -1.421875 
Q 22.515625 -1.421875 17.65625 -0.515625 
Q 12.796875 0.390625 7.625 2.203125 
L 7.625 11.71875 
Q 11.71875 9.328125 16.59375 8.109375 
Q 21.484375 6.890625 26.8125 6.890625 
Q 36.078125 6.890625 40.9375 10.546875 
Q 45.796875 14.203125 45.796875 21.1875 
Q 45.796875 27.640625 41.28125 31.265625 
Q 36.765625 34.90625 28.71875 34.90625 
L 20.21875 34.90625 
L 20.21875 43.015625 
L 29.109375 43.015625 
Q 36.375 43.015625 40.234375 45.921875 
Q 44.09375 48.828125 44.09375 54.296875 
Q 44.09375 59.90625 40.109375 62.90625 
Q 36.140625 65.921875 28.71875 65.921875 
Q 24.65625 65.921875 20.015625 65.03125 
Q 15.375 64.15625 9.8125 62.3125 
L 9.8125 71.09375 
Q 15.4375 72.65625 20.34375 73.4375 
Q 25.25 74.21875 29.59375 74.21875 
Q 40.828125 74.21875 47.359375 69.109375 
Q 53.90625 64.015625 53.90625 55.328125 
Q 53.90625 49.265625 50.4375 45.09375 
Q 46.96875 40.921875 40.578125 39.3125 
z
" id="DejaVuSans-51"/>
    </defs>
    <g style="fill:#262626;" transform="translate(440.21875 519.059375)scale(0.1 -0.1)">
     <use xlink:href="#DejaVuSans-51"/>
    </g>
   </g>
   <g id="text_49">
    <!-- 0 -->
    <g style="fill:#262626;" transform="translate(477.41875 519.059375)scale(0.1 -0.1)">
     <use xlink:href="#DejaVuSans-48"/>
    </g>
   </g>
   <g id="text_50">
    <!-- 20 -->
    <g style="fill:#262626;" transform="translate(511.4375 519.059375)scale(0.1 -0.1)">
     <use xlink:href="#DejaVuSans-50"/>
     <use x="63.623047" xlink:href="#DejaVuSans-48"/>
    </g>
   </g>
   <g id="text_51">
    <!-- 0 -->
    <g style="fill:#262626;" transform="translate(105.41875 481.859375)scale(0.1 -0.1)">
     <use xlink:href="#DejaVuSans-48"/>
    </g>
   </g>
   <g id="text_52">
    <!-- 0 -->
    <g style="fill:#262626;" transform="translate(142.61875 481.859375)scale(0.1 -0.1)">
     <use xlink:href="#DejaVuSans-48"/>
    </g>
   </g>
   <g id="text_53">
    <!-- 250 -->
    <g style="fill:#262626;" transform="translate(173.45625 481.859375)scale(0.1 -0.1)">
     <use xlink:href="#DejaVuSans-50"/>
     <use x="63.623047" xlink:href="#DejaVuSans-53"/>
     <use x="127.246094" xlink:href="#DejaVuSans-48"/>
    </g>
   </g>
   <g id="text_54">
    <!-- 0 -->
    <g style="fill:#262626;" transform="translate(217.01875 481.859375)scale(0.1 -0.1)">
     <use xlink:href="#DejaVuSans-48"/>
    </g>
   </g>
   <g id="text_55">
    <!-- 0 -->
    <g style="fill:#262626;" transform="translate(254.21875 481.859375)scale(0.1 -0.1)">
     <use xlink:href="#DejaVuSans-48"/>
    </g>
   </g>
   <g id="text_56">
    <!-- 0 -->
    <g style="fill:#262626;" transform="translate(291.41875 481.859375)scale(0.1 -0.1)">
     <use xlink:href="#DejaVuSans-48"/>
    </g>
   </g>
   <g id="text_57">
    <!-- 0 -->
    <g style="fill:#262626;" transform="translate(328.61875 481.859375)scale(0.1 -0.1)">
     <use xlink:href="#DejaVuSans-48"/>
    </g>
   </g>
   <g id="text_58">
    <!-- 3 -->
    <g style="fill:#262626;" transform="translate(365.81875 481.859375)scale(0.1 -0.1)">
     <use xlink:href="#DejaVuSans-51"/>
    </g>
   </g>
   <g id="text_59">
    <!-- 6 -->
    <defs>
     <path d="M 33.015625 40.375 
Q 26.375 40.375 22.484375 35.828125 
Q 18.609375 31.296875 18.609375 23.390625 
Q 18.609375 15.53125 22.484375 10.953125 
Q 26.375 6.390625 33.015625 6.390625 
Q 39.65625 6.390625 43.53125 10.953125 
Q 47.40625 15.53125 47.40625 23.390625 
Q 47.40625 31.296875 43.53125 35.828125 
Q 39.65625 40.375 33.015625 40.375 
z
M 52.59375 71.296875 
L 52.59375 62.3125 
Q 48.875 64.0625 45.09375 64.984375 
Q 41.3125 65.921875 37.59375 65.921875 
Q 27.828125 65.921875 22.671875 59.328125 
Q 17.53125 52.734375 16.796875 39.40625 
Q 19.671875 43.65625 24.015625 45.921875 
Q 28.375 48.1875 33.59375 48.1875 
Q 44.578125 48.1875 50.953125 41.515625 
Q 57.328125 34.859375 57.328125 23.390625 
Q 57.328125 12.15625 50.6875 5.359375 
Q 44.046875 -1.421875 33.015625 -1.421875 
Q 20.359375 -1.421875 13.671875 8.265625 
Q 6.984375 17.96875 6.984375 36.375 
Q 6.984375 53.65625 15.1875 63.9375 
Q 23.390625 74.21875 37.203125 74.21875 
Q 40.921875 74.21875 44.703125 73.484375 
Q 48.484375 72.75 52.59375 71.296875 
z
" id="DejaVuSans-54"/>
    </defs>
    <g style="fill:#262626;" transform="translate(403.01875 481.859375)scale(0.1 -0.1)">
     <use xlink:href="#DejaVuSans-54"/>
    </g>
   </g>
   <g id="text_60">
    <!-- 1 -->
    <g style="fill:#262626;" transform="translate(440.21875 481.859375)scale(0.1 -0.1)">
     <use xlink:href="#DejaVuSans-49"/>
    </g>
   </g>
   <g id="text_61">
    <!-- 0 -->
    <g style="fill:#262626;" transform="translate(477.41875 481.859375)scale(0.1 -0.1)">
     <use xlink:href="#DejaVuSans-48"/>
    </g>
   </g>
   <g id="text_62">
    <!-- 12 -->
    <g style="fill:#262626;" transform="translate(511.4375 481.859375)scale(0.1 -0.1)">
     <use xlink:href="#DejaVuSans-49"/>
     <use x="63.623047" xlink:href="#DejaVuSans-50"/>
    </g>
   </g>
   <g id="text_63">
    <!-- 0 -->
    <g style="fill:#262626;" transform="translate(105.41875 444.659375)scale(0.1 -0.1)">
     <use xlink:href="#DejaVuSans-48"/>
    </g>
   </g>
   <g id="text_64">
    <!-- 11 -->
    <g style="fill:#262626;" transform="translate(139.4375 444.659375)scale(0.1 -0.1)">
     <use xlink:href="#DejaVuSans-49"/>
     <use x="63.623047" xlink:href="#DejaVuSans-49"/>
    </g>
   </g>
   <g id="text_65">
    <!-- 0 -->
    <g style="fill:#262626;" transform="translate(179.81875 444.659375)scale(0.1 -0.1)">
     <use xlink:href="#DejaVuSans-48"/>
    </g>
   </g>
   <g id="text_66">
    <!-- 220 -->
    <g style="fill:#262626;" transform="translate(210.65625 444.659375)scale(0.1 -0.1)">
     <use xlink:href="#DejaVuSans-50"/>
     <use x="63.623047" xlink:href="#DejaVuSans-50"/>
     <use x="127.246094" xlink:href="#DejaVuSans-48"/>
    </g>
   </g>
   <g id="text_67">
    <!-- 0 -->
    <g style="fill:#262626;" transform="translate(254.21875 444.659375)scale(0.1 -0.1)">
     <use xlink:href="#DejaVuSans-48"/>
    </g>
   </g>
   <g id="text_68">
    <!-- 0 -->
    <g style="fill:#262626;" transform="translate(291.41875 444.659375)scale(0.1 -0.1)">
     <use xlink:href="#DejaVuSans-48"/>
    </g>
   </g>
   <g id="text_69">
    <!-- 0 -->
    <g style="fill:#262626;" transform="translate(328.61875 444.659375)scale(0.1 -0.1)">
     <use xlink:href="#DejaVuSans-48"/>
    </g>
   </g>
   <g id="text_70">
    <!-- 0 -->
    <g style="fill:#262626;" transform="translate(365.81875 444.659375)scale(0.1 -0.1)">
     <use xlink:href="#DejaVuSans-48"/>
    </g>
   </g>
   <g id="text_71">
    <!-- 3 -->
    <g style="fill:#262626;" transform="translate(403.01875 444.659375)scale(0.1 -0.1)">
     <use xlink:href="#DejaVuSans-51"/>
    </g>
   </g>
   <g id="text_72">
    <!-- 6 -->
    <g style="fill:#262626;" transform="translate(440.21875 444.659375)scale(0.1 -0.1)">
     <use xlink:href="#DejaVuSans-54"/>
    </g>
   </g>
   <g id="text_73">
    <!-- 0 -->
    <g style="fill:#262626;" transform="translate(477.41875 444.659375)scale(0.1 -0.1)">
     <use xlink:href="#DejaVuSans-48"/>
    </g>
   </g>
   <g id="text_74">
    <!-- 13 -->
    <g style="fill:#262626;" transform="translate(511.4375 444.659375)scale(0.1 -0.1)">
     <use xlink:href="#DejaVuSans-49"/>
     <use x="63.623047" xlink:href="#DejaVuSans-51"/>
    </g>
   </g>
   <g id="text_75">
    <!-- 4 -->
    <g style="fill:#262626;" transform="translate(105.41875 407.459375)scale(0.1 -0.1)">
     <use xlink:href="#DejaVuSans-52"/>
    </g>
   </g>
   <g id="text_76">
    <!-- 2 -->
    <g style="fill:#262626;" transform="translate(142.61875 407.459375)scale(0.1 -0.1)">
     <use xlink:href="#DejaVuSans-50"/>
    </g>
   </g>
   <g id="text_77">
    <!-- 0 -->
    <g style="fill:#262626;" transform="translate(179.81875 407.459375)scale(0.1 -0.1)">
     <use xlink:href="#DejaVuSans-48"/>
    </g>
   </g>
   <g id="text_78">
    <!-- 0 -->
    <g style="fill:#262626;" transform="translate(217.01875 407.459375)scale(0.1 -0.1)">
     <use xlink:href="#DejaVuSans-48"/>
    </g>
   </g>
   <g id="text_79">
    <!-- 252 -->
    <g style="fill:#262626;" transform="translate(247.85625 407.459375)scale(0.1 -0.1)">
     <use xlink:href="#DejaVuSans-50"/>
     <use x="63.623047" xlink:href="#DejaVuSans-53"/>
     <use x="127.246094" xlink:href="#DejaVuSans-50"/>
    </g>
   </g>
   <g id="text_80">
    <!-- 1 -->
    <g style="fill:#262626;" transform="translate(291.41875 407.459375)scale(0.1 -0.1)">
     <use xlink:href="#DejaVuSans-49"/>
    </g>
   </g>
   <g id="text_81">
    <!-- 0 -->
    <g style="fill:#262626;" transform="translate(328.61875 407.459375)scale(0.1 -0.1)">
     <use xlink:href="#DejaVuSans-48"/>
    </g>
   </g>
   <g id="text_82">
    <!-- 0 -->
    <g style="fill:#262626;" transform="translate(365.81875 407.459375)scale(0.1 -0.1)">
     <use xlink:href="#DejaVuSans-48"/>
    </g>
   </g>
   <g id="text_83">
    <!-- 0 -->
    <g style="fill:#262626;" transform="translate(403.01875 407.459375)scale(0.1 -0.1)">
     <use xlink:href="#DejaVuSans-48"/>
    </g>
   </g>
   <g id="text_84">
    <!-- 0 -->
    <g style="fill:#262626;" transform="translate(440.21875 407.459375)scale(0.1 -0.1)">
     <use xlink:href="#DejaVuSans-48"/>
    </g>
   </g>
   <g id="text_85">
    <!-- 0 -->
    <g style="fill:#262626;" transform="translate(477.41875 407.459375)scale(0.1 -0.1)">
     <use xlink:href="#DejaVuSans-48"/>
    </g>
   </g>
   <g id="text_86">
    <!-- 8 -->
    <defs>
     <path d="M 31.78125 34.625 
Q 24.75 34.625 20.71875 30.859375 
Q 16.703125 27.09375 16.703125 20.515625 
Q 16.703125 13.921875 20.71875 10.15625 
Q 24.75 6.390625 31.78125 6.390625 
Q 38.8125 6.390625 42.859375 10.171875 
Q 46.921875 13.96875 46.921875 20.515625 
Q 46.921875 27.09375 42.890625 30.859375 
Q 38.875 34.625 31.78125 34.625 
z
M 21.921875 38.8125 
Q 15.578125 40.375 12.03125 44.71875 
Q 8.5 49.078125 8.5 55.328125 
Q 8.5 64.0625 14.71875 69.140625 
Q 20.953125 74.21875 31.78125 74.21875 
Q 42.671875 74.21875 48.875 69.140625 
Q 55.078125 64.0625 55.078125 55.328125 
Q 55.078125 49.078125 51.53125 44.71875 
Q 48 40.375 41.703125 38.8125 
Q 48.828125 37.15625 52.796875 32.3125 
Q 56.78125 27.484375 56.78125 20.515625 
Q 56.78125 9.90625 50.3125 4.234375 
Q 43.84375 -1.421875 31.78125 -1.421875 
Q 19.734375 -1.421875 13.25 4.234375 
Q 6.78125 9.90625 6.78125 20.515625 
Q 6.78125 27.484375 10.78125 32.3125 
Q 14.796875 37.15625 21.921875 38.8125 
z
M 18.3125 54.390625 
Q 18.3125 48.734375 21.84375 45.5625 
Q 25.390625 42.390625 31.78125 42.390625 
Q 38.140625 42.390625 41.71875 45.5625 
Q 45.3125 48.734375 45.3125 54.390625 
Q 45.3125 60.0625 41.71875 63.234375 
Q 38.140625 66.40625 31.78125 66.40625 
Q 25.390625 66.40625 21.84375 63.234375 
Q 18.3125 60.0625 18.3125 54.390625 
z
" id="DejaVuSans-56"/>
    </defs>
    <g style="fill:#262626;" transform="translate(514.61875 407.459375)scale(0.1 -0.1)">
     <use xlink:href="#DejaVuSans-56"/>
    </g>
   </g>
   <g id="text_87">
    <!-- 0 -->
    <g style="fill:#262626;" transform="translate(105.41875 370.259375)scale(0.1 -0.1)">
     <use xlink:href="#DejaVuSans-48"/>
    </g>
   </g>
   <g id="text_88">
    <!-- 0 -->
    <g style="fill:#262626;" transform="translate(142.61875 370.259375)scale(0.1 -0.1)">
     <use xlink:href="#DejaVuSans-48"/>
    </g>
   </g>
   <g id="text_89">
    <!-- 1 -->
    <g style="fill:#262626;" transform="translate(179.81875 370.259375)scale(0.1 -0.1)">
     <use xlink:href="#DejaVuSans-49"/>
    </g>
   </g>
   <g id="text_90">
    <!-- 0 -->
    <g style="fill:#262626;" transform="translate(217.01875 370.259375)scale(0.1 -0.1)">
     <use xlink:href="#DejaVuSans-48"/>
    </g>
   </g>
   <g id="text_91">
    <!-- 2 -->
    <g style="fill:#262626;" transform="translate(254.21875 370.259375)scale(0.1 -0.1)">
     <use xlink:href="#DejaVuSans-50"/>
    </g>
   </g>
   <g id="text_92">
    <!-- 229 -->
    <defs>
     <path d="M 10.984375 1.515625 
L 10.984375 10.5 
Q 14.703125 8.734375 18.5 7.8125 
Q 22.3125 6.890625 25.984375 6.890625 
Q 35.75 6.890625 40.890625 13.453125 
Q 46.046875 20.015625 46.78125 33.40625 
Q 43.953125 29.203125 39.59375 26.953125 
Q 35.25 24.703125 29.984375 24.703125 
Q 19.046875 24.703125 12.671875 31.3125 
Q 6.296875 37.9375 6.296875 49.421875 
Q 6.296875 60.640625 12.9375 67.421875 
Q 19.578125 74.21875 30.609375 74.21875 
Q 43.265625 74.21875 49.921875 64.515625 
Q 56.59375 54.828125 56.59375 36.375 
Q 56.59375 19.140625 48.40625 8.859375 
Q 40.234375 -1.421875 26.421875 -1.421875 
Q 22.703125 -1.421875 18.890625 -0.6875 
Q 15.09375 0.046875 10.984375 1.515625 
z
M 30.609375 32.421875 
Q 37.25 32.421875 41.125 36.953125 
Q 45.015625 41.5 45.015625 49.421875 
Q 45.015625 57.28125 41.125 61.84375 
Q 37.25 66.40625 30.609375 66.40625 
Q 23.96875 66.40625 20.09375 61.84375 
Q 16.21875 57.28125 16.21875 49.421875 
Q 16.21875 41.5 20.09375 36.953125 
Q 23.96875 32.421875 30.609375 32.421875 
z
" id="DejaVuSans-57"/>
    </defs>
    <g style="fill:#262626;" transform="translate(285.05625 370.259375)scale(0.1 -0.1)">
     <use xlink:href="#DejaVuSans-50"/>
     <use x="63.623047" xlink:href="#DejaVuSans-50"/>
     <use x="127.246094" xlink:href="#DejaVuSans-57"/>
    </g>
   </g>
   <g id="text_93">
    <!-- 0 -->
    <g style="fill:#262626;" transform="translate(328.61875 370.259375)scale(0.1 -0.1)">
     <use xlink:href="#DejaVuSans-48"/>
    </g>
   </g>
   <g id="text_94">
    <!-- 0 -->
    <g style="fill:#262626;" transform="translate(365.81875 370.259375)scale(0.1 -0.1)">
     <use xlink:href="#DejaVuSans-48"/>
    </g>
   </g>
   <g id="text_95">
    <!-- 1 -->
    <g style="fill:#262626;" transform="translate(403.01875 370.259375)scale(0.1 -0.1)">
     <use xlink:href="#DejaVuSans-49"/>
    </g>
   </g>
   <g id="text_96">
    <!-- 0 -->
    <g style="fill:#262626;" transform="translate(440.21875 370.259375)scale(0.1 -0.1)">
     <use xlink:href="#DejaVuSans-48"/>
    </g>
   </g>
   <g id="text_97">
    <!-- 0 -->
    <g style="fill:#262626;" transform="translate(477.41875 370.259375)scale(0.1 -0.1)">
     <use xlink:href="#DejaVuSans-48"/>
    </g>
   </g>
   <g id="text_98">
    <!-- 26 -->
    <g style="fill:#262626;" transform="translate(511.4375 370.259375)scale(0.1 -0.1)">
     <use xlink:href="#DejaVuSans-50"/>
     <use x="63.623047" xlink:href="#DejaVuSans-54"/>
    </g>
   </g>
   <g id="text_99">
    <!-- 0 -->
    <g style="fill:#262626;" transform="translate(105.41875 333.059375)scale(0.1 -0.1)">
     <use xlink:href="#DejaVuSans-48"/>
    </g>
   </g>
   <g id="text_100">
    <!-- 0 -->
    <g style="fill:#262626;" transform="translate(142.61875 333.059375)scale(0.1 -0.1)">
     <use xlink:href="#DejaVuSans-48"/>
    </g>
   </g>
   <g id="text_101">
    <!-- 0 -->
    <g style="fill:#262626;" transform="translate(179.81875 333.059375)scale(0.1 -0.1)">
     <use xlink:href="#DejaVuSans-48"/>
    </g>
   </g>
   <g id="text_102">
    <!-- 0 -->
    <g style="fill:#262626;" transform="translate(217.01875 333.059375)scale(0.1 -0.1)">
     <use xlink:href="#DejaVuSans-48"/>
    </g>
   </g>
   <g id="text_103">
    <!-- 0 -->
    <g style="fill:#262626;" transform="translate(254.21875 333.059375)scale(0.1 -0.1)">
     <use xlink:href="#DejaVuSans-48"/>
    </g>
   </g>
   <g id="text_104">
    <!-- 0 -->
    <g style="fill:#262626;" transform="translate(291.41875 333.059375)scale(0.1 -0.1)">
     <use xlink:href="#DejaVuSans-48"/>
    </g>
   </g>
   <g id="text_105">
    <!-- 230 -->
    <g style="fill:#262626;" transform="translate(322.25625 333.059375)scale(0.1 -0.1)">
     <use xlink:href="#DejaVuSans-50"/>
     <use x="63.623047" xlink:href="#DejaVuSans-51"/>
     <use x="127.246094" xlink:href="#DejaVuSans-48"/>
    </g>
   </g>
   <g id="text_106">
    <!-- 1 -->
    <g style="fill:#262626;" transform="translate(365.81875 333.059375)scale(0.1 -0.1)">
     <use xlink:href="#DejaVuSans-49"/>
    </g>
   </g>
   <g id="text_107">
    <!-- 0 -->
    <g style="fill:#262626;" transform="translate(403.01875 333.059375)scale(0.1 -0.1)">
     <use xlink:href="#DejaVuSans-48"/>
    </g>
   </g>
   <g id="text_108">
    <!-- 0 -->
    <g style="fill:#262626;" transform="translate(440.21875 333.059375)scale(0.1 -0.1)">
     <use xlink:href="#DejaVuSans-48"/>
    </g>
   </g>
   <g id="text_109">
    <!-- 0 -->
    <g style="fill:#262626;" transform="translate(477.41875 333.059375)scale(0.1 -0.1)">
     <use xlink:href="#DejaVuSans-48"/>
    </g>
   </g>
   <g id="text_110">
    <!-- 15 -->
    <g style="fill:#262626;" transform="translate(511.4375 333.059375)scale(0.1 -0.1)">
     <use xlink:href="#DejaVuSans-49"/>
     <use x="63.623047" xlink:href="#DejaVuSans-53"/>
    </g>
   </g>
   <g id="text_111">
    <!-- 0 -->
    <g style="fill:#262626;" transform="translate(105.41875 295.859375)scale(0.1 -0.1)">
     <use xlink:href="#DejaVuSans-48"/>
    </g>
   </g>
   <g id="text_112">
    <!-- 1 -->
    <g style="fill:#262626;" transform="translate(142.61875 295.859375)scale(0.1 -0.1)">
     <use xlink:href="#DejaVuSans-49"/>
    </g>
   </g>
   <g id="text_113">
    <!-- 4 -->
    <g style="fill:#262626;" transform="translate(179.81875 295.859375)scale(0.1 -0.1)">
     <use xlink:href="#DejaVuSans-52"/>
    </g>
   </g>
   <g id="text_114">
    <!-- 0 -->
    <g style="fill:#262626;" transform="translate(217.01875 295.859375)scale(0.1 -0.1)">
     <use xlink:href="#DejaVuSans-48"/>
    </g>
   </g>
   <g id="text_115">
    <!-- 1 -->
    <g style="fill:#262626;" transform="translate(254.21875 295.859375)scale(0.1 -0.1)">
     <use xlink:href="#DejaVuSans-49"/>
    </g>
   </g>
   <g id="text_116">
    <!-- 0 -->
    <g style="fill:#262626;" transform="translate(291.41875 295.859375)scale(0.1 -0.1)">
     <use xlink:href="#DejaVuSans-48"/>
    </g>
   </g>
   <g id="text_117">
    <!-- 0 -->
    <g style="fill:#262626;" transform="translate(328.61875 295.859375)scale(0.1 -0.1)">
     <use xlink:href="#DejaVuSans-48"/>
    </g>
   </g>
   <g id="text_118">
    <!-- 245 -->
    <g style="fill:#262626;" transform="translate(359.45625 295.859375)scale(0.1 -0.1)">
     <use xlink:href="#DejaVuSans-50"/>
     <use x="63.623047" xlink:href="#DejaVuSans-52"/>
     <use x="127.246094" xlink:href="#DejaVuSans-53"/>
    </g>
   </g>
   <g id="text_119">
    <!-- 1 -->
    <g style="fill:#262626;" transform="translate(403.01875 295.859375)scale(0.1 -0.1)">
     <use xlink:href="#DejaVuSans-49"/>
    </g>
   </g>
   <g id="text_120">
    <!-- 1 -->
    <g style="fill:#262626;" transform="translate(440.21875 295.859375)scale(0.1 -0.1)">
     <use xlink:href="#DejaVuSans-49"/>
    </g>
   </g>
   <g id="text_121">
    <!-- 0 -->
    <g style="fill:#262626;" transform="translate(477.41875 295.859375)scale(0.1 -0.1)">
     <use xlink:href="#DejaVuSans-48"/>
    </g>
   </g>
   <g id="text_122">
    <!-- 9 -->
    <g style="fill:#262626;" transform="translate(514.61875 295.859375)scale(0.1 -0.1)">
     <use xlink:href="#DejaVuSans-57"/>
    </g>
   </g>
   <g id="text_123">
    <!-- 1 -->
    <g style="fill:#262626;" transform="translate(105.41875 258.659375)scale(0.1 -0.1)">
     <use xlink:href="#DejaVuSans-49"/>
    </g>
   </g>
   <g id="text_124">
    <!-- 0 -->
    <g style="fill:#262626;" transform="translate(142.61875 258.659375)scale(0.1 -0.1)">
     <use xlink:href="#DejaVuSans-48"/>
    </g>
   </g>
   <g id="text_125">
    <!-- 4 -->
    <g style="fill:#262626;" transform="translate(179.81875 258.659375)scale(0.1 -0.1)">
     <use xlink:href="#DejaVuSans-52"/>
    </g>
   </g>
   <g id="text_126">
    <!-- 0 -->
    <g style="fill:#262626;" transform="translate(217.01875 258.659375)scale(0.1 -0.1)">
     <use xlink:href="#DejaVuSans-48"/>
    </g>
   </g>
   <g id="text_127">
    <!-- 0 -->
    <g style="fill:#262626;" transform="translate(254.21875 258.659375)scale(0.1 -0.1)">
     <use xlink:href="#DejaVuSans-48"/>
    </g>
   </g>
   <g id="text_128">
    <!-- 0 -->
    <g style="fill:#262626;" transform="translate(291.41875 258.659375)scale(0.1 -0.1)">
     <use xlink:href="#DejaVuSans-48"/>
    </g>
   </g>
   <g id="text_129">
    <!-- 0 -->
    <g style="fill:#262626;" transform="translate(328.61875 258.659375)scale(0.1 -0.1)">
     <use xlink:href="#DejaVuSans-48"/>
    </g>
   </g>
   <g id="text_130">
    <!-- 0 -->
    <g style="fill:#262626;" transform="translate(365.81875 258.659375)scale(0.1 -0.1)">
     <use xlink:href="#DejaVuSans-48"/>
    </g>
   </g>
   <g id="text_131">
    <!-- 237 -->
    <defs>
     <path d="M 8.203125 72.90625 
L 55.078125 72.90625 
L 55.078125 68.703125 
L 28.609375 0 
L 18.3125 0 
L 43.21875 64.59375 
L 8.203125 64.59375 
z
" id="DejaVuSans-55"/>
    </defs>
    <g style="fill:#262626;" transform="translate(396.65625 258.659375)scale(0.1 -0.1)">
     <use xlink:href="#DejaVuSans-50"/>
     <use x="63.623047" xlink:href="#DejaVuSans-51"/>
     <use x="127.246094" xlink:href="#DejaVuSans-55"/>
    </g>
   </g>
   <g id="text_132">
    <!-- 0 -->
    <g style="fill:#262626;" transform="translate(440.21875 258.659375)scale(0.1 -0.1)">
     <use xlink:href="#DejaVuSans-48"/>
    </g>
   </g>
   <g id="text_133">
    <!-- 0 -->
    <g style="fill:#262626;" transform="translate(477.41875 258.659375)scale(0.1 -0.1)">
     <use xlink:href="#DejaVuSans-48"/>
    </g>
   </g>
   <g id="text_134">
    <!-- 7 -->
    <g style="fill:#262626;" transform="translate(514.61875 258.659375)scale(0.1 -0.1)">
     <use xlink:href="#DejaVuSans-55"/>
    </g>
   </g>
   <g id="text_135">
    <!-- 1 -->
    <g style="fill:#262626;" transform="translate(105.41875 221.459375)scale(0.1 -0.1)">
     <use xlink:href="#DejaVuSans-49"/>
    </g>
   </g>
   <g id="text_136">
    <!-- 4 -->
    <g style="fill:#262626;" transform="translate(142.61875 221.459375)scale(0.1 -0.1)">
     <use xlink:href="#DejaVuSans-52"/>
    </g>
   </g>
   <g id="text_137">
    <!-- 0 -->
    <g style="fill:#262626;" transform="translate(179.81875 221.459375)scale(0.1 -0.1)">
     <use xlink:href="#DejaVuSans-48"/>
    </g>
   </g>
   <g id="text_138">
    <!-- 3 -->
    <g style="fill:#262626;" transform="translate(217.01875 221.459375)scale(0.1 -0.1)">
     <use xlink:href="#DejaVuSans-51"/>
    </g>
   </g>
   <g id="text_139">
    <!-- 1 -->
    <g style="fill:#262626;" transform="translate(254.21875 221.459375)scale(0.1 -0.1)">
     <use xlink:href="#DejaVuSans-49"/>
    </g>
   </g>
   <g id="text_140">
    <!-- 0 -->
    <g style="fill:#262626;" transform="translate(291.41875 221.459375)scale(0.1 -0.1)">
     <use xlink:href="#DejaVuSans-48"/>
    </g>
   </g>
   <g id="text_141">
    <!-- 1 -->
    <g style="fill:#262626;" transform="translate(328.61875 221.459375)scale(0.1 -0.1)">
     <use xlink:href="#DejaVuSans-49"/>
    </g>
   </g>
   <g id="text_142">
    <!-- 2 -->
    <g style="fill:#262626;" transform="translate(365.81875 221.459375)scale(0.1 -0.1)">
     <use xlink:href="#DejaVuSans-50"/>
    </g>
   </g>
   <g id="text_143">
    <!-- 0 -->
    <g style="fill:#262626;" transform="translate(403.01875 221.459375)scale(0.1 -0.1)">
     <use xlink:href="#DejaVuSans-48"/>
    </g>
   </g>
   <g id="text_144">
    <!-- 220 -->
    <g style="fill:#262626;" transform="translate(433.85625 221.459375)scale(0.1 -0.1)">
     <use xlink:href="#DejaVuSans-50"/>
     <use x="63.623047" xlink:href="#DejaVuSans-50"/>
     <use x="127.246094" xlink:href="#DejaVuSans-48"/>
    </g>
   </g>
   <g id="text_145">
    <!-- 0 -->
    <g style="fill:#262626;" transform="translate(477.41875 221.459375)scale(0.1 -0.1)">
     <use xlink:href="#DejaVuSans-48"/>
    </g>
   </g>
   <g id="text_146">
    <!-- 19 -->
    <g style="fill:#262626;" transform="translate(511.4375 221.459375)scale(0.1 -0.1)">
     <use xlink:href="#DejaVuSans-49"/>
     <use x="63.623047" xlink:href="#DejaVuSans-57"/>
    </g>
   </g>
   <g id="text_147">
    <!-- 0 -->
    <g style="fill:#262626;" transform="translate(105.41875 184.259375)scale(0.1 -0.1)">
     <use xlink:href="#DejaVuSans-48"/>
    </g>
   </g>
   <g id="text_148">
    <!-- 0 -->
    <g style="fill:#262626;" transform="translate(142.61875 184.259375)scale(0.1 -0.1)">
     <use xlink:href="#DejaVuSans-48"/>
    </g>
   </g>
   <g id="text_149">
    <!-- 0 -->
    <g style="fill:#262626;" transform="translate(179.81875 184.259375)scale(0.1 -0.1)">
     <use xlink:href="#DejaVuSans-48"/>
    </g>
   </g>
   <g id="text_150">
    <!-- 0 -->
    <g style="fill:#262626;" transform="translate(217.01875 184.259375)scale(0.1 -0.1)">
     <use xlink:href="#DejaVuSans-48"/>
    </g>
   </g>
   <g id="text_151">
    <!-- 0 -->
    <g style="fill:#262626;" transform="translate(254.21875 184.259375)scale(0.1 -0.1)">
     <use xlink:href="#DejaVuSans-48"/>
    </g>
   </g>
   <g id="text_152">
    <!-- 0 -->
    <g style="fill:#262626;" transform="translate(291.41875 184.259375)scale(0.1 -0.1)">
     <use xlink:href="#DejaVuSans-48"/>
    </g>
   </g>
   <g id="text_153">
    <!-- 0 -->
    <g style="fill:#262626;" transform="translate(328.61875 184.259375)scale(0.1 -0.1)">
     <use xlink:href="#DejaVuSans-48"/>
    </g>
   </g>
   <g id="text_154">
    <!-- 0 -->
    <g style="fill:#262626;" transform="translate(365.81875 184.259375)scale(0.1 -0.1)">
     <use xlink:href="#DejaVuSans-48"/>
    </g>
   </g>
   <g id="text_155">
    <!-- 0 -->
    <g style="fill:#262626;" transform="translate(403.01875 184.259375)scale(0.1 -0.1)">
     <use xlink:href="#DejaVuSans-48"/>
    </g>
   </g>
   <g id="text_156">
    <!-- 0 -->
    <g style="fill:#262626;" transform="translate(440.21875 184.259375)scale(0.1 -0.1)">
     <use xlink:href="#DejaVuSans-48"/>
    </g>
   </g>
   <g id="text_157">
    <!-- 9 -->
    <g style="fill:#262626;" transform="translate(477.41875 184.259375)scale(0.1 -0.1)">
     <use xlink:href="#DejaVuSans-57"/>
    </g>
   </g>
   <g id="text_158">
    <!-- 35 -->
    <g style="fill:#262626;" transform="translate(511.4375 184.259375)scale(0.1 -0.1)">
     <use xlink:href="#DejaVuSans-51"/>
     <use x="63.623047" xlink:href="#DejaVuSans-53"/>
    </g>
   </g>
   <g id="text_159">
    <!-- 7 -->
    <g style="fill:#262626;" transform="translate(105.41875 147.059375)scale(0.1 -0.1)">
     <use xlink:href="#DejaVuSans-55"/>
    </g>
   </g>
   <g id="text_160">
    <!-- 3 -->
    <g style="fill:#262626;" transform="translate(142.61875 147.059375)scale(0.1 -0.1)">
     <use xlink:href="#DejaVuSans-51"/>
    </g>
   </g>
   <g id="text_161">
    <!-- 2 -->
    <g style="fill:#262626;" transform="translate(179.81875 147.059375)scale(0.1 -0.1)">
     <use xlink:href="#DejaVuSans-50"/>
    </g>
   </g>
   <g id="text_162">
    <!-- 4 -->
    <g style="fill:#262626;" transform="translate(217.01875 147.059375)scale(0.1 -0.1)">
     <use xlink:href="#DejaVuSans-52"/>
    </g>
   </g>
   <g id="text_163">
    <!-- 5 -->
    <g style="fill:#262626;" transform="translate(254.21875 147.059375)scale(0.1 -0.1)">
     <use xlink:href="#DejaVuSans-53"/>
    </g>
   </g>
   <g id="text_164">
    <!-- 10 -->
    <g style="fill:#262626;" transform="translate(288.2375 147.059375)scale(0.1 -0.1)">
     <use xlink:href="#DejaVuSans-49"/>
     <use x="63.623047" xlink:href="#DejaVuSans-48"/>
    </g>
   </g>
   <g id="text_165">
    <!-- 8 -->
    <g style="fill:#262626;" transform="translate(328.61875 147.059375)scale(0.1 -0.1)">
     <use xlink:href="#DejaVuSans-56"/>
    </g>
   </g>
   <g id="text_166">
    <!-- 4 -->
    <g style="fill:#262626;" transform="translate(365.81875 147.059375)scale(0.1 -0.1)">
     <use xlink:href="#DejaVuSans-52"/>
    </g>
   </g>
   <g id="text_167">
    <!-- 4 -->
    <g style="fill:#262626;" transform="translate(403.01875 147.059375)scale(0.1 -0.1)">
     <use xlink:href="#DejaVuSans-52"/>
    </g>
   </g>
   <g id="text_168">
    <!-- 10 -->
    <g style="fill:#262626;" transform="translate(437.0375 147.059375)scale(0.1 -0.1)">
     <use xlink:href="#DejaVuSans-49"/>
     <use x="63.623047" xlink:href="#DejaVuSans-48"/>
    </g>
   </g>
   <g id="text_169">
    <!-- 0 -->
    <g style="fill:#262626;" transform="translate(477.41875 147.059375)scale(0.1 -0.1)">
     <use xlink:href="#DejaVuSans-48"/>
    </g>
   </g>
   <g id="text_170">
    <!-- 4211 -->
    <g style="fill:#ffffff;" transform="translate(505.075 147.059375)scale(0.1 -0.1)">
     <use xlink:href="#DejaVuSans-52"/>
     <use x="63.623047" xlink:href="#DejaVuSans-50"/>
     <use x="127.246094" xlink:href="#DejaVuSans-49"/>
     <use x="190.869141" xlink:href="#DejaVuSans-49"/>
    </g>
   </g>
  </g>
  <g id="axes_2">
   <g id="patch_3">
    <path clip-path="url(#p89f10aa527)" d="M 564.3 630 
L 564.3 627.876562 
L 564.3 88.523438 
L 564.3 86.4 
L 591.48 86.4 
L 591.48 88.523438 
L 591.48 627.876562 
L 591.48 630 
z
" style="fill:#ffffff;stroke:#ffffff;stroke-linejoin:miter;stroke-width:0.01;"/>
   </g>
   <image height="544" id="image55ba61dd30" transform="scale(1 -1)translate(0 -544)" width="27" x="564" xlink:href="data:image/png;base64,
iVBORw0KGgoAAAANSUhEUgAAABsAAAIgCAYAAAB09hISAAAABHNCSVQICAgIfAhkiAAAAplJREFUeJztnYGN5DAMxJyD++/vitn1FhFCgAmyAWGiGUkJfv+ec/7PGuJvqtBaa+2zxoQNK1vrO1ZsuGfH2zOrsnJGUM4QvG5sXCHsow21uGfacSXuWTkDKGf3FfPeIOaLWNwzqzLtuCpnCCm7r5h6XFlDLe6ZVpm4Z9qc5UYC8fIcPIiHlc1Fej7Uc+RGBHXPnrFi9Qxhf605yyAIDWKEeoZgPuW0PTPnTHrwZBAE73Ul7plYWW4EaIIgeHtWqBG8BvHejb2fIZQzBHHPtDnrukJQK7Muz4+4Z3PFGsQI5Qyh5YmQMgSxso92XHl7JlY2WKyc3VfMbP2UAXQRI4jfYsRuHCxWzxC8OcsgCOoVM1csZQjecdXyREjZfcXEofZ+TtJa3/yPvLQ9K2cETf37imV9hJQheENdzhByI4K3Z4UawWsQc6gHi+VGhL4WIJSz+4qZDeIN9WCx3IhgdqO4Z3PF+m3ufcW8j1GtTPofVpt7Nnjx1DOElidCyxMhZQj7DKa6niGIlbViCFJ2XzHvY1Tf+i3P96QMoeWJ0Gy8r5jZIGJlLc/3pAxhf62DeA/+Oc9pZdpvV8s6G2cf4yM2yFyxQo1gVmYdV3tpz4JH3DOpsh4jQuMKoZ4hiHPW+U2QG+8r1rhCaHkidOsjNEEQxDnTujHrI3gNsp8uYoCUIZjfz5qNAOrlOVcs6yP0oQwhNyKY38+8PbMqa1wheK8rr/VzI0Kf2hFyI0LLE6EVg+C1fm5EyI0IYjdqD54+uiCYx5VXWW4EmP5t7lzThpUN2rHfwN9XTGz9pVVmDnXK3pMbEcw9a3kCmA1SqAFShrBXbgRIGYJZ2eC39s4ChJQhmJW1PAFShqA+5Vqe7xFbX6xMHGqpstFiP4fS5clnfFUNAAAAAElFTkSuQmCC" y="-86"/>
   <g id="matplotlib.axis_3"/>
   <g id="matplotlib.axis_4">
    <g id="ytick_13">
     <g id="line2d_25">
      <defs>
       <path d="M 0 0 
L 3.5 0 
" id="m8667b0c885" style="stroke:#000000;stroke-width:0.8;"/>
      </defs>
      <g>
       <use style="stroke:#000000;stroke-width:0.8;" x="591.48" xlink:href="#m8667b0c885" y="630"/>
      </g>
     </g>
     <g id="text_171">
      <!-- 0 -->
      <g transform="translate(598.48 633.799219)scale(0.1 -0.1)">
       <use xlink:href="#DejaVuSans-48"/>
      </g>
     </g>
    </g>
    <g id="ytick_14">
     <g id="line2d_26">
      <g>
       <use style="stroke:#000000;stroke-width:0.8;" x="591.48" xlink:href="#m8667b0c885" y="565.454761"/>
      </g>
     </g>
     <g id="text_172">
      <!-- 500 -->
      <g transform="translate(598.48 569.25398)scale(0.1 -0.1)">
       <use xlink:href="#DejaVuSans-53"/>
       <use x="63.623047" xlink:href="#DejaVuSans-48"/>
       <use x="127.246094" xlink:href="#DejaVuSans-48"/>
      </g>
     </g>
    </g>
    <g id="ytick_15">
     <g id="line2d_27">
      <g>
       <use style="stroke:#000000;stroke-width:0.8;" x="591.48" xlink:href="#m8667b0c885" y="500.909523"/>
      </g>
     </g>
     <g id="text_173">
      <!-- 1000 -->
      <g transform="translate(598.48 504.708741)scale(0.1 -0.1)">
       <use xlink:href="#DejaVuSans-49"/>
       <use x="63.623047" xlink:href="#DejaVuSans-48"/>
       <use x="127.246094" xlink:href="#DejaVuSans-48"/>
       <use x="190.869141" xlink:href="#DejaVuSans-48"/>
      </g>
     </g>
    </g>
    <g id="ytick_16">
     <g id="line2d_28">
      <g>
       <use style="stroke:#000000;stroke-width:0.8;" x="591.48" xlink:href="#m8667b0c885" y="436.364284"/>
      </g>
     </g>
     <g id="text_174">
      <!-- 1500 -->
      <g transform="translate(598.48 440.163503)scale(0.1 -0.1)">
       <use xlink:href="#DejaVuSans-49"/>
       <use x="63.623047" xlink:href="#DejaVuSans-53"/>
       <use x="127.246094" xlink:href="#DejaVuSans-48"/>
       <use x="190.869141" xlink:href="#DejaVuSans-48"/>
      </g>
     </g>
    </g>
    <g id="ytick_17">
     <g id="line2d_29">
      <g>
       <use style="stroke:#000000;stroke-width:0.8;" x="591.48" xlink:href="#m8667b0c885" y="371.819045"/>
      </g>
     </g>
     <g id="text_175">
      <!-- 2000 -->
      <g transform="translate(598.48 375.618264)scale(0.1 -0.1)">
       <use xlink:href="#DejaVuSans-50"/>
       <use x="63.623047" xlink:href="#DejaVuSans-48"/>
       <use x="127.246094" xlink:href="#DejaVuSans-48"/>
       <use x="190.869141" xlink:href="#DejaVuSans-48"/>
      </g>
     </g>
    </g>
    <g id="ytick_18">
     <g id="line2d_30">
      <g>
       <use style="stroke:#000000;stroke-width:0.8;" x="591.48" xlink:href="#m8667b0c885" y="307.273807"/>
      </g>
     </g>
     <g id="text_176">
      <!-- 2500 -->
      <g transform="translate(598.48 311.073025)scale(0.1 -0.1)">
       <use xlink:href="#DejaVuSans-50"/>
       <use x="63.623047" xlink:href="#DejaVuSans-53"/>
       <use x="127.246094" xlink:href="#DejaVuSans-48"/>
       <use x="190.869141" xlink:href="#DejaVuSans-48"/>
      </g>
     </g>
    </g>
    <g id="ytick_19">
     <g id="line2d_31">
      <g>
       <use style="stroke:#000000;stroke-width:0.8;" x="591.48" xlink:href="#m8667b0c885" y="242.728568"/>
      </g>
     </g>
     <g id="text_177">
      <!-- 3000 -->
      <g transform="translate(598.48 246.527787)scale(0.1 -0.1)">
       <use xlink:href="#DejaVuSans-51"/>
       <use x="63.623047" xlink:href="#DejaVuSans-48"/>
       <use x="127.246094" xlink:href="#DejaVuSans-48"/>
       <use x="190.869141" xlink:href="#DejaVuSans-48"/>
      </g>
     </g>
    </g>
    <g id="ytick_20">
     <g id="line2d_32">
      <g>
       <use style="stroke:#000000;stroke-width:0.8;" x="591.48" xlink:href="#m8667b0c885" y="178.183329"/>
      </g>
     </g>
     <g id="text_178">
      <!-- 3500 -->
      <g transform="translate(598.48 181.982548)scale(0.1 -0.1)">
       <use xlink:href="#DejaVuSans-51"/>
       <use x="63.623047" xlink:href="#DejaVuSans-53"/>
       <use x="127.246094" xlink:href="#DejaVuSans-48"/>
       <use x="190.869141" xlink:href="#DejaVuSans-48"/>
      </g>
     </g>
    </g>
    <g id="ytick_21">
     <g id="line2d_33">
      <g>
       <use style="stroke:#000000;stroke-width:0.8;" x="591.48" xlink:href="#m8667b0c885" y="113.638091"/>
      </g>
     </g>
     <g id="text_179">
      <!-- 4000 -->
      <g transform="translate(598.48 117.437309)scale(0.1 -0.1)">
       <use xlink:href="#DejaVuSans-52"/>
       <use x="63.623047" xlink:href="#DejaVuSans-48"/>
       <use x="127.246094" xlink:href="#DejaVuSans-48"/>
       <use x="190.869141" xlink:href="#DejaVuSans-48"/>
      </g>
     </g>
    </g>
   </g>
   <g id="patch_4">
    <path d="M 564.3 630 
L 564.3 627.876562 
L 564.3 88.523438 
L 564.3 86.4 
L 591.48 86.4 
L 591.48 88.523438 
L 591.48 627.876562 
L 591.48 630 
z
" style="fill:none;"/>
   </g>
  </g>
 </g>
 <defs>
  <clipPath id="p04d5d91ef7">
   <rect height="465" width="446.4" x="90" y="125.7"/>
  </clipPath>
  <clipPath id="p89f10aa527">
   <rect height="543.6" width="27.18" x="564.3" y="86.4"/>
  </clipPath>
 </defs>
</svg>
